<?xml version="1.0" encoding="UTF-8" standalone="no"?>
<svg
   xmlns:dc="http://purl.org/dc/elements/1.1/"
   xmlns:cc="http://creativecommons.org/ns#"
   xmlns:rdf="http://www.w3.org/1999/02/22-rdf-syntax-ns#"
   xmlns:svg="http://www.w3.org/2000/svg"
   xmlns="http://www.w3.org/2000/svg"
   xmlns:sodipodi="http://sodipodi.sourceforge.net/DTD/sodipodi-0.dtd"
   xmlns:inkscape="http://www.inkscape.org/namespaces/inkscape"
   version="1.1"
   x="0px"
   y="0px"
   viewBox="0 0 27.260742 27.262573"
   xml:space="preserve"
   id="svg2"
   inkscape:version="0.92.1 r"
   sodipodi:docname="no-bookmark.svg"
   width="29.078125"
   height="29.080078"><metadata
     id="metadata20"><rdf:RDF><cc:Work
         rdf:about=""><dc:format>image/svg+xml</dc:format><dc:type
           rdf:resource="http://purl.org/dc/dcmitype/StillImage" /><dc:title></dc:title></cc:Work></rdf:RDF></metadata><defs
     id="defs18" /><sodipodi:namedview
     pagecolor="#ffffff"
     bordercolor="#666666"
     borderopacity="1"
     objecttolerance="10"
     gridtolerance="10"
     guidetolerance="10"
     inkscape:pageopacity="0"
     inkscape:pageshadow="2"
     inkscape:window-width="1920"
     inkscape:window-height="1172"
     id="namedview16"
     showgrid="false"
     inkscape:zoom="11.793187"
     inkscape:cx="43.955751"
     inkscape:cy="22.539493"
     inkscape:window-x="1920"
     inkscape:window-y="0"
     inkscape:window-maximized="1"
     inkscape:current-layer="g4" /><g
     id="g4"
     style="fill:#004a4a;fill-opacity:1"
     transform="matrix(1.0247175,0,0,1.0247175,-0.75986703,1.7768762)"><path
       style="stroke-width:1;fill:#cccccc"
       d="m 2.8320312,0.98828125 c -1.2947245,0 -2.33789058,1.04316615 -2.33789058,2.33789065 V 27.730469 c 0,1.294724 1.04316608,2.33789 2.33789058,2.33789 H 27.236328 c 1.294725,0 2.335938,-1.043166 2.335938,-2.33789 V 3.3261719 c 0,-1.2947245 -1.041213,-2.33789065 -2.335938,-2.33789065 z m 0,1.52734375 H 27.236328 c 0.477239,0 0.810547,0.3349848 0.810547,0.8105469 V 27.730469 c 0,0.475563 -0.333308,0.808593 -0.810547,0.808593 H 2.8320312 c -0.4772396,0 -0.8105468,-0.33303 -0.8105468,-0.808593 V 3.3261719 c 0,-0.4755628 0.3333072,-0.8105469 0.8105468,-0.8105469 z"
       id="rect226"
       inkscape:connector-curvature="0"
       transform="matrix(0.91488629,0,0,0.91488629,0.28945558,-2.6381806)" /><g
       id="g242"
       style="fill:#e6e6e6"
       transform="translate(0.07629928,-0.22594151)"><path
         style="fill:#e6e6e6;fill-opacity:1;stroke-width:0.86599964"
         d="M 10.300781 3.3964844 C 8.508664 3.3964844 7.0507812 4.8543669 7.0507812 6.6464844 L 7.0507812 18.988281 L 19.123047 6.9160156 L 19.123047 5.71875 C 19.123047 4.9508323 19.747708 4.3261719 20.515625 4.3261719 C 20.771908 4.3261719 20.978516 4.1176101 20.978516 3.8613281 C 20.978516 3.605046 20.771908 3.3964844 20.515625 3.3964844 L 10.300781 3.3964844 z M 19.123047 12.996094 L 7.0507812 25.068359 L 7.0507812 25.21875 C 7.0507812 25.406319 7.1642502 25.576938 7.3378906 25.648438 C 7.3945326 25.672583 7.4561973 25.683594 7.515625 25.683594 C 7.6363377 25.683594 7.7546084 25.635099 7.84375 25.546875 L 13.087891 20.300781 C 15.169718 22.355681 18.047191 25.211189 18.242188 25.423828 C 18.299757 25.539897 18.403206 25.627848 18.533203 25.664062 C 18.731915 25.720714 18.945118 25.638291 19.054688 25.460938 C 19.102978 25.382939 19.126763 25.291242 19.123047 25.201172 L 19.123047 12.996094 z "
         transform="matrix(0.91488629,0,0,0.91488629,0.66523878,-1.5080742)"
         id="path8" /><path
         style="fill:#e6e6e6;fill-opacity:1;stroke-width:0.86599976"
         d="M 18.193359 3.3964844 C 17.937077 3.3964844 17.728516 3.605046 17.728516 3.8613281 L 17.728516 6.6464844 C 17.728516 6.9027665 17.937077 7.1113281 18.193359 7.1113281 L 18.927734 7.1113281 L 19.123047 6.9160156 L 19.123047 5.71875 C 19.123047 4.9508323 19.747708 4.3261719 20.515625 4.3261719 C 20.771908 4.3261719 20.978516 4.5347336 20.978516 4.7910156 C 20.978516 5.0472977 20.771908 5.2539063 20.515625 5.2539062 C 20.260272 5.2539062 20.050781 5.4624679 20.050781 5.71875 L 20.050781 5.9882812 L 22.048828 3.9902344 C 21.638847 3.6261247 21.105987 3.3964844 20.515625 3.3964844 L 18.193359 3.3964844 z "
         transform="matrix(0.91488629,0,0,0.91488629,0.66523878,-1.5080742)"
         id="path10" /></g><path
       style="fill:#cccccc;stroke-width:1.36156869"
       d="M 24.900391,2.4941406 2.4921875,24.902344 v 0.933594 c 0,0.440263 0.3101376,0.75 0.7519531,0.75 H 4.1777344 L 26.585938,4.1777344 V 3.2441406 c -10e-7,-0.4402626 -0.308186,-0.75 -0.75,-0.75 z"
       id="rect263"
       inkscape:connector-curvature="0"
       sodipodi:nodetypes="ccsscccsc"
       transform="matrix(0.91488629,0,0,0.91488629,0.74153806,-1.7340157)" /></g></svg>