<?xml version="1.0" encoding="UTF-8" standalone="no"?>
<svg
   xmlns:dc="http://purl.org/dc/elements/1.1/"
   xmlns:cc="http://creativecommons.org/ns#"
   xmlns:rdf="http://www.w3.org/1999/02/22-rdf-syntax-ns#"
   xmlns:svg="http://www.w3.org/2000/svg"
   xmlns="http://www.w3.org/2000/svg"
   xmlns:sodipodi="http://sodipodi.sourceforge.net/DTD/sodipodi-0.dtd"
   xmlns:inkscape="http://www.inkscape.org/namespaces/inkscape"
   version="1.1"
   width="32"
   height="32"
   data-icon="people"
   data-container-transform="translate(0 8)"
   viewBox="0 0 32 32"
   id="svg2"
   inkscape:version="0.91 r13725"
   sodipodi:docname="qrcode.svg"
   inkscape:export-filename="architecture.png"
   inkscape:export-xdpi="56.25"
   inkscape:export-ydpi="56.25">
  <metadata
     id="metadata10">
    <rdf:RDF>
      <cc:Work
         rdf:about="">
        <dc:format>image/svg+xml</dc:format>
        <dc:type
           rdf:resource="http://purl.org/dc/dcmitype/StillImage" />
        <dc:title />
      </cc:Work>
    </rdf:RDF>
  </metadata>
  <defs
     id="defs8" />
  <sodipodi:namedview
     pagecolor="#ffffff"
     bordercolor="#666666"
     borderopacity="1"
     objecttolerance="10"
     gridtolerance="10"
     guidetolerance="10"
     inkscape:pageopacity="0"
     inkscape:pageshadow="2"
     inkscape:window-width="1680"
     inkscape:window-height="1027"
     id="namedview6"
     showgrid="false"
     inkscape:zoom="11.313708"
     inkscape:cx="15.069086"
     inkscape:cy="21.743622"
     inkscape:window-x="5752"
     inkscape:window-y="1102"
     inkscape:window-maximized="1"
     inkscape:current-layer="svg2" />
  <path
     style="opacity:1;fill:#2da0b7;fill-opacity:1;stroke:none"
     d="m 0.75540674,0.625 0,8.8125 8.81249996,0 0,-8.8125 -8.81249996,0 z m 1.18749996,1.1875 6.4375,0 0,6.4375 -6.4375,0 0,-6.4375 z"
     id="rect4699"
     inkscape:connector-curvature="0" />
  <rect
     style="opacity:1;fill:#2da0b7;fill-opacity:1;stroke:none"
     id="rect4704"
     width="3.625"
     height="3.625"
     x="3.3491566"
     y="3.21875" />
  <path
     id="path4706"
     d="m 22.577925,0.625 0,8.8125 8.8125,0 0,-8.8125 -8.8125,0 z m 1.1875,1.1875 6.4375,0 0,6.4375 -6.4375,0 0,-6.4375 z"
     style="opacity:1;fill:#2da0b7;fill-opacity:1;stroke:none"
     inkscape:connector-curvature="0" />
  <rect
     y="3.21875"
     x="25.171675"
     height="3.625"
     width="3.625"
     id="rect4708"
     style="opacity:1;fill:#2da0b7;fill-opacity:1;stroke:none" />
  <path
     id="path4714"
     d="m 0.75540674,22.384346 0,8.8125 8.81249996,0 0,-8.8125 -8.81249996,0 z m 1.18749996,1.1875 6.4375,0 0,6.4375 -6.4375,0 0,-6.4375 z"
     style="opacity:1;fill:#2da0b7;fill-opacity:1;stroke:none"
     inkscape:connector-curvature="0" />
  <rect
     y="24.978096"
     x="3.3491566"
     height="3.625"
     width="3.625"
     id="rect4716"
     style="opacity:1;fill:#2da0b7;fill-opacity:1;stroke:none" />
  <path
     style="opacity:1;fill:#2da0b7;fill-opacity:1;stroke:none"
     d="M 12.998047 0.625 L 12.998047 1.8300781 L 11.771484 1.8300781 L 11.771484 3.0722656 L 10.546875 3.0722656 L 10.546875 4.3222656 L 10.546875 5.5273438 L 10.546875 6.765625 L 11.796875 6.765625 L 11.796875 5.515625 L 11.796875 4.2773438 L 11.796875 3.0800781 L 12.998047 3.0800781 L 12.998047 4.3222656 L 12.998047 5.5273438 L 14.222656 5.5273438 L 14.222656 6.7207031 L 12.998047 6.7207031 L 12.998047 7.9628906 L 11.796875 7.9628906 L 10.546875 7.9628906 L 10.546875 9.2128906 L 10.546875 10.417969 L 10.546875 11.654297 L 11.771484 11.654297 L 11.771484 12.851562 L 10.583984 12.851562 L 9.3574219 12.851562 L 8.1074219 12.851562 L 8.1074219 14.101562 L 9.3574219 14.101562 L 10.546875 14.101562 L 10.546875 15.306641 L 10.546875 16.5 L 9.3574219 16.5 L 8.1328125 16.5 L 8.1328125 15.294922 L 6.9082031 15.294922 L 5.6816406 15.294922 L 5.6816406 14.056641 L 5.6816406 12.859375 L 6.9082031 12.859375 L 6.9082031 11.609375 L 5.6816406 11.609375 L 5.6816406 10.404297 L 4.4316406 10.404297 L 4.4316406 11.654297 L 4.4316406 12.859375 L 4.4316406 14.056641 L 3.2304688 14.056641 L 3.2304688 12.851562 L 2.0058594 12.851562 L 2.0058594 11.654297 L 3.2304688 11.654297 L 3.2304688 10.404297 L 1.9804688 10.404297 L 1.9804688 11.609375 L 0.75585938 11.609375 L 0.75585938 12.859375 L 1.9804688 12.859375 L 1.9804688 14.101562 L 1.9804688 15.294922 L 0.75585938 15.294922 L 0.75585938 16.544922 L 1.9804688 16.544922 L 1.9804688 17.742188 L 0.75585938 17.742188 L 0.75585938 18.992188 L 1.9804688 18.992188 L 1.9804688 20.167969 L 0.75585938 20.167969 L 0.75585938 21.417969 L 2.0058594 21.417969 L 2.0058594 20.197266 L 3.2070312 20.197266 L 3.2070312 21.417969 L 4.4570312 21.417969 L 5.6816406 21.417969 L 5.6816406 20.167969 L 5.6816406 18.992188 L 6.8828125 18.992188 L 6.8828125 20.197266 L 6.8828125 21.417969 L 8.1328125 21.417969 L 8.1328125 20.197266 L 9.3339844 20.197266 L 9.3339844 21.417969 L 10.583984 21.417969 L 11.796875 21.417969 L 12.998047 21.417969 L 12.998047 22.609375 L 11.771484 22.609375 L 11.771484 23.851562 L 10.546875 23.851562 L 10.546875 25.101562 L 10.546875 26.306641 L 11.796875 26.306641 L 12.998047 26.306641 L 12.998047 27.544922 L 14.222656 27.544922 L 14.222656 28.742188 L 13.021484 28.742188 L 11.796875 28.742188 L 11.796875 27.5 L 10.546875 27.5 L 10.546875 28.75 L 10.546875 29.992188 L 11.796875 29.992188 L 12.998047 29.992188 L 12.998047 31.197266 L 14.248047 31.197266 L 14.248047 29.992188 L 15.449219 29.992188 L 15.449219 31.197266 L 16.699219 31.197266 L 16.699219 29.947266 L 16.699219 28.742188 L 15.472656 28.742188 L 15.472656 27.544922 L 16.699219 27.544922 L 17.898438 27.544922 L 17.898438 28.75 L 17.898438 29.992188 L 17.898438 31.197266 L 19.148438 31.197266 L 19.148438 29.992188 L 20.349609 29.992188 L 20.349609 31.197266 L 21.599609 31.197266 L 21.599609 31.191406 L 22.8125 31.191406 L 22.8125 29.976562 L 24.013672 29.976562 L 24.013672 31.191406 L 25.263672 31.191406 L 25.263672 29.976562 L 26.464844 29.976562 L 26.464844 31.191406 L 27.714844 31.191406 L 28.939453 31.191406 L 28.939453 29.941406 L 28.939453 28.732422 L 30.164062 28.732422 L 31.390625 28.732422 L 31.390625 27.482422 L 30.164062 27.482422 L 30.164062 26.289062 L 31.390625 26.289062 L 31.390625 25.039062 L 31.390625 23.835938 L 30.140625 23.835938 L 30.140625 25.085938 L 30.140625 26.277344 L 28.939453 26.277344 L 28.939453 25.039062 L 27.689453 25.039062 L 27.689453 26.277344 L 26.488281 26.277344 L 26.488281 25.039062 L 26.488281 23.841797 L 27.714844 23.841797 L 28.939453 23.841797 L 28.939453 22.591797 L 28.939453 21.417969 L 30.140625 21.417969 L 30.140625 22.636719 L 31.390625 22.636719 L 31.390625 21.386719 L 30.164062 21.386719 L 30.164062 20.197266 L 31.390625 20.197266 L 31.390625 18.947266 L 31.390625 17.742188 L 31.390625 16.5 L 31.390625 15.294922 L 31.390625 14.056641 L 30.140625 14.056641 L 30.140625 15.294922 L 28.939453 15.294922 L 28.939453 14.056641 L 28.939453 12.859375 L 30.164062 12.859375 L 31.390625 12.859375 L 31.390625 11.609375 L 31.390625 10.404297 L 30.140625 10.404297 L 30.140625 11.609375 L 28.939453 11.609375 L 28.939453 10.404297 L 27.714844 10.404297 L 26.488281 10.404297 L 25.263672 10.404297 L 24.037109 10.404297 L 22.8125 10.404297 L 21.599609 10.404297 L 20.375 10.404297 L 19.148438 10.404297 L 19.148438 9.2128906 L 20.375 9.2128906 L 21.599609 9.2128906 L 21.599609 7.9628906 L 21.599609 6.7207031 L 21.599609 5.515625 L 20.375 5.515625 L 20.375 4.3222656 L 21.599609 4.3222656 L 21.599609 3.0722656 L 21.599609 1.8300781 L 21.599609 0.625 L 20.375 0.625 L 19.148438 0.625 L 17.898438 0.625 L 17.898438 1.8300781 L 16.699219 1.8300781 L 16.699219 0.625 L 15.472656 0.625 L 14.248047 0.625 L 14.222656 0.625 L 12.998047 0.625 z M 13.021484 1.875 L 14.222656 1.875 L 14.248047 1.875 L 15.449219 1.875 L 15.449219 3.0722656 L 14.248047 3.0722656 L 13.021484 3.0722656 L 13.021484 1.875 z M 17.923828 1.875 L 19.148438 1.875 L 20.349609 1.875 L 20.349609 3.0800781 L 20.349609 4.2773438 L 19.148438 4.2773438 L 17.898438 4.2773438 L 17.898438 5.515625 L 16.699219 5.515625 L 16.699219 4.2773438 L 15.472656 4.2773438 L 15.472656 3.0800781 L 16.699219 3.0800781 L 17.923828 3.0800781 L 17.923828 1.875 z M 14.248047 4.3222656 L 15.449219 4.3222656 L 15.449219 5.515625 L 14.248047 5.515625 L 14.248047 4.3222656 z M 17.923828 5.5273438 L 19.148438 5.5273438 L 20.349609 5.5273438 L 20.349609 6.7207031 L 19.125 6.7207031 L 19.125 7.9628906 L 17.898438 7.9628906 L 17.898438 9.2128906 L 17.898438 10.404297 L 16.699219 10.404297 L 15.449219 10.404297 L 15.449219 11.654297 L 15.449219 12.851562 L 14.222656 12.851562 L 14.222656 14.101562 L 14.222656 15.294922 L 12.998047 15.294922 L 12.998047 16.544922 L 12.998047 17.75 L 12.998047 18.992188 L 14.248047 18.992188 L 14.248047 17.742188 L 14.248047 16.5 L 14.248047 15.306641 L 15.449219 15.306641 L 15.449219 16.544922 L 15.449219 17.75 L 16.673828 17.75 L 16.673828 18.947266 L 15.449219 18.947266 L 15.449219 20.197266 L 15.449219 21.417969 L 15.449219 22.654297 L 15.449219 23.859375 L 15.449219 25.101562 L 15.449219 26.306641 L 15.449219 27.5 L 14.248047 27.5 L 14.248047 26.294922 L 14.248047 25.056641 L 14.248047 23.851562 L 14.248047 22.609375 L 14.248047 21.404297 L 14.248047 20.167969 L 13.021484 20.167969 L 11.796875 20.167969 L 11.796875 18.947266 L 11.796875 17.742188 L 10.583984 17.742188 L 10.583984 16.544922 L 11.796875 16.544922 L 11.796875 15.294922 L 11.796875 14.101562 L 13.021484 14.101562 L 13.021484 12.851562 L 13.021484 11.609375 L 13.021484 10.417969 L 14.248047 10.417969 L 14.248047 9.1679688 L 14.248047 7.9707031 L 15.449219 7.9707031 L 15.449219 9.2128906 L 16.699219 9.2128906 L 16.699219 7.9628906 L 16.699219 6.765625 L 17.923828 6.765625 L 17.923828 5.5273438 z M 11.796875 9.2128906 L 12.998047 9.2128906 L 12.998047 10.404297 L 11.796875 10.404297 L 11.796875 9.2128906 z M 17.923828 10.417969 L 19.125 10.417969 L 19.125 11.654297 L 19.125 12.851562 L 17.923828 12.851562 L 17.923828 11.609375 L 17.923828 10.417969 z M 22.8125 11.654297 L 24.037109 11.654297 L 25.238281 11.654297 L 25.238281 12.851562 L 24.013672 12.851562 L 24.013672 14.056641 L 22.787109 14.056641 L 22.787109 15.294922 L 21.599609 15.294922 L 21.599609 14.056641 L 21.599609 12.859375 L 22.8125 12.859375 L 22.8125 11.654297 z M 26.488281 11.654297 L 27.689453 11.654297 L 27.689453 12.851562 L 26.488281 12.851562 L 26.488281 11.654297 z M 15.472656 12.859375 L 16.699219 12.859375 L 17.898438 12.859375 L 17.898438 14.056641 L 16.699219 14.056641 L 15.472656 14.056641 L 15.472656 12.859375 z M 19.148438 12.859375 L 20.349609 12.859375 L 20.349609 14.101562 L 20.349609 15.306641 L 20.349609 16.5 L 19.148438 16.5 L 19.148438 15.294922 L 19.148438 14.056641 L 19.148438 12.859375 z M 24.037109 14.101562 L 25.238281 14.101562 L 25.238281 15.294922 L 24.037109 15.294922 L 24.037109 14.101562 z M 3.2304688 15.306641 L 4.4316406 15.306641 L 4.4316406 16.544922 L 4.4316406 17.742188 L 3.2304688 17.742188 L 3.2304688 16.5 L 3.2304688 15.306641 z M 16.699219 15.306641 L 17.898438 15.306641 L 17.898438 16.5 L 16.699219 16.5 L 16.699219 15.306641 z M 25.263672 15.306641 L 26.488281 15.306641 L 27.714844 15.306641 L 28.914062 15.306641 L 28.914062 16.5 L 27.689453 16.5 L 27.689453 17.742188 L 26.488281 17.742188 L 26.488281 16.5 L 25.263672 16.5 L 25.263672 15.306641 z M 5.6816406 16.544922 L 6.8828125 16.544922 L 6.8828125 17.742188 L 5.6816406 17.742188 L 5.6816406 16.544922 z M 17.923828 16.544922 L 19.125 16.544922 L 19.125 17.742188 L 17.923828 17.742188 L 17.923828 16.544922 z M 20.375 16.544922 L 21.599609 16.544922 L 22.787109 16.544922 L 22.787109 17.75 L 22.787109 18.992188 L 22.787109 20.167969 L 21.599609 20.167969 L 21.599609 18.947266 L 21.599609 17.742188 L 20.375 17.742188 L 20.375 16.544922 z M 24.037109 16.544922 L 25.238281 16.544922 L 25.238281 17.75 L 25.238281 18.992188 L 25.238281 20.197266 L 25.238281 21.417969 L 25.238281 22.591797 L 24.037109 22.591797 L 22.787109 22.591797 L 22.787109 23.835938 L 21.599609 23.835938 L 21.599609 22.609375 L 21.599609 21.417969 L 22.8125 21.417969 L 22.8125 20.197266 L 24.037109 20.197266 L 24.037109 18.947266 L 24.037109 17.742188 L 24.037109 16.544922 z M 28.939453 16.544922 L 30.140625 16.544922 L 30.140625 17.75 L 30.140625 18.947266 L 28.939453 18.947266 L 28.939453 17.742188 L 28.939453 16.544922 z M 2.0058594 17.75 L 3.2070312 17.75 L 3.2070312 18.947266 L 2.0058594 18.947266 L 2.0058594 17.75 z M 4.4570312 17.75 L 5.6582031 17.75 L 5.6582031 18.947266 L 4.4570312 18.947266 L 4.4570312 17.75 z M 8.1328125 17.75 L 9.3339844 17.75 L 9.3339844 18.947266 L 8.1328125 18.947266 L 8.1328125 17.75 z M 3.2304688 18.992188 L 4.4316406 18.992188 L 4.4316406 20.167969 L 3.2304688 20.167969 L 3.2304688 18.992188 z M 9.3574219 18.992188 L 10.546875 18.992188 L 10.546875 20.167969 L 9.3574219 20.167969 L 9.3574219 18.992188 z M 16.699219 18.992188 L 17.898438 18.992188 L 17.898438 20.167969 L 16.699219 20.167969 L 16.699219 18.992188 z M 19.148438 18.992188 L 20.349609 18.992188 L 20.349609 20.197266 L 20.349609 21.417969 L 20.349609 22.654297 L 20.349609 23.851562 L 19.148438 23.851562 L 19.148438 22.609375 L 19.148438 21.404297 L 19.148438 20.167969 L 19.148438 18.992188 z M 26.488281 20.197266 L 27.689453 20.197266 L 27.689453 21.417969 L 27.689453 22.591797 L 26.488281 22.591797 L 26.488281 21.386719 L 26.488281 20.197266 z M 16.699219 21.417969 L 17.898438 21.417969 L 17.898438 22.609375 L 16.699219 22.609375 L 16.699219 21.417969 z M 24.037109 23.841797 L 25.238281 23.841797 L 25.238281 25.039062 L 24.037109 25.039062 L 24.037109 23.841797 z M 11.796875 23.859375 L 12.998047 23.859375 L 12.998047 25.056641 L 11.796875 25.056641 L 11.796875 23.859375 z M 17.923828 23.859375 L 19.125 23.859375 L 19.125 25.056641 L 17.923828 25.056641 L 17.923828 23.859375 z M 16.699219 25.101562 L 17.898438 25.101562 L 17.898438 26.294922 L 16.699219 26.294922 L 16.699219 25.101562 z M 19.148438 25.101562 L 20.349609 25.101562 L 20.349609 26.294922 L 19.148438 26.294922 L 19.148438 25.101562 z M 24.037109 26.289062 L 25.263672 26.289062 L 26.464844 26.289062 L 26.464844 27.482422 L 25.263672 27.482422 L 24.037109 27.482422 L 24.037109 26.289062 z M 20.375 26.306641 L 21.5625 26.306641 L 21.5625 27.5 L 20.375 27.5 L 20.375 26.306641 z M 21.599609 27.527344 L 22.787109 27.527344 L 22.787109 28.732422 L 22.787109 29.941406 L 21.599609 29.941406 L 21.599609 28.742188 L 21.599609 27.527344 z M 26.488281 27.527344 L 27.714844 27.527344 L 28.914062 27.527344 L 28.914062 28.726562 L 27.689453 28.726562 L 27.689453 29.941406 L 26.488281 29.941406 L 26.488281 28.726562 L 26.488281 27.527344 z M 19.148438 27.544922 L 20.349609 27.544922 L 20.349609 28.742188 L 19.148438 28.742188 L 19.148438 27.544922 z M 24.037109 28.732422 L 25.238281 28.732422 L 25.238281 29.941406 L 24.037109 29.941406 L 24.037109 28.732422 z M 30.140625 29.941406 L 30.140625 31.191406 L 31.390625 31.191406 L 31.390625 29.941406 L 30.140625 29.941406 z "
     id="rect4720" />
</svg>
