<?xml version="1.0" encoding="UTF-8" standalone="no"?>
<svg
   xmlns:dc="http://purl.org/dc/elements/1.1/"
   xmlns:cc="http://creativecommons.org/ns#"
   xmlns:rdf="http://www.w3.org/1999/02/22-rdf-syntax-ns#"
   xmlns:svg="http://www.w3.org/2000/svg"
   xmlns="http://www.w3.org/2000/svg"
   xmlns:sodipodi="http://sodipodi.sourceforge.net/DTD/sodipodi-0.dtd"
   xmlns:inkscape="http://www.inkscape.org/namespaces/inkscape"
   version="1.1"
   x="0px"
   y="0px"
   width="100px"
   height="100px"
   viewBox="0 0 100 100"
   enable-background="new 0 0 100 100"
   xml:space="preserve"
   id="svg2"
   inkscape:version="0.91 r13725"
   sodipodi:docname="run.small.svg"
   inkscape:export-filename="C:\Users\wilkie\occam\configuration.png"
   inkscape:export-xdpi="18"
   inkscape:export-ydpi="18"><metadata
     id="metadata122"><rdf:RDF><cc:Work
         rdf:about=""><dc:format>image/svg+xml</dc:format><dc:type
           rdf:resource="http://purl.org/dc/dcmitype/StillImage" /><dc:title></dc:title></cc:Work></rdf:RDF></metadata><defs
     id="defs120" /><sodipodi:namedview
     pagecolor="#ffffff"
     bordercolor="#666666"
     borderopacity="1"
     objecttolerance="10"
     gridtolerance="10"
     guidetolerance="10"
     inkscape:pageopacity="0"
     inkscape:pageshadow="2"
     inkscape:window-width="1920"
     inkscape:window-height="1057"
     id="namedview118"
     showgrid="false"
     inkscape:zoom="9.44"
     inkscape:cx="53.348109"
     inkscape:cy="70.274361"
     inkscape:window-x="-8"
     inkscape:window-y="1072"
     inkscape:window-maximized="1"
     inkscape:current-layer="svg2"
     showguides="true"
     inkscape:guide-bbox="true" /><path
     sodipodi:type="star"
     style="opacity:1;fill:#64c4d9;fill-opacity:1;stroke:none;stroke-width:1;stroke-miterlimit:4;stroke-dasharray:none;stroke-opacity:1"
     id="path5312"
     sodipodi:sides="3"
     sodipodi:cx="50"
     sodipodi:cy="54.998497"
     sodipodi:r1="15.15036"
     sodipodi:r2="7.5751801"
     sodipodi:arg1="0.52359878"
     sodipodi:arg2="1.5707963"
     inkscape:flatsided="false"
     inkscape:rounded="0"
     inkscape:randomized="0"
     d="m 63.120597,62.573677 -13.120597,0 -13.120597,0 6.560299,-11.36277 L 50,39.848137 l 6.560298,11.36277 z"
     transform="matrix(0,1.5184059,-1.5184059,0,131.72246,-25.920295)"
     inkscape:transform-center-x="-5.7511067" /><path
     style="opacity:1;fill:#2da0b7;fill-opacity:1;stroke:none;stroke-width:1;stroke-miterlimit:4;stroke-dasharray:none;stroke-opacity:1"
     d="M 50,0.97460938 C 45.306106,11.870955 39.801346,11.582395 31.238281,4.7070312 L 15.333984,15.333984 c 4.531952,10.391619 0.0085,15.155107 -10.6269528,15.904297 L 0.97460938,50 C 11.54079,53.643192 15.354162,59.164529 4.7070312,68.761719 L 15.333984,84.666016 C 29.910355,80.261131 30.229617,88.12527 31.238281,95.292969 L 50,99.025391 c 5.525594,-12.590437 12.025114,-9.78691 18.761719,-3.732422 L 84.666016,84.666016 C 82.295176,76.970026 80.32144,68.76371 95.292969,68.761719 L 99.025391,50 C 85.903381,44.123804 90.353103,37.895145 95.292969,31.238281 L 84.666016,15.333984 C 71.77268,20.045199 68.111628,14.661401 68.761719,4.7070312 Z M 50,17.941406 C 67.705265,17.941907 82.058093,32.294735 82.058594,50 82.058093,67.705265 67.705265,82.058093 50,82.058594 32.294735,82.058093 17.941907,67.705265 17.941406,50 17.941907,32.294735 32.294735,17.941907 50,17.941406 Z"
     id="path5322"
     inkscape:connector-curvature="0"
     sodipodi:nodetypes="cccccccccccccccccccccc" /></svg>