<?xml version="1.0" encoding="UTF-8" standalone="no"?>
<svg
   xmlns:dc="http://purl.org/dc/elements/1.1/"
   xmlns:cc="http://creativecommons.org/ns#"
   xmlns:rdf="http://www.w3.org/1999/02/22-rdf-syntax-ns#"
   xmlns:svg="http://www.w3.org/2000/svg"
   xmlns="http://www.w3.org/2000/svg"
   xmlns:sodipodi="http://sodipodi.sourceforge.net/DTD/sodipodi-0.dtd"
   xmlns:inkscape="http://www.inkscape.org/namespaces/inkscape"
   width="22"
   height="22"
   viewBox="0 0 22 22"
   version="1.1"
   id="svg2"
   inkscape:version="0.91 r13725"
   sodipodi:docname="nes.svg"
   inkscape:export-filename="Z:\projects\occam\Large-Icons\group_large.png"
   inkscape:export-xdpi="392.72726"
   inkscape:export-ydpi="392.72726">
  <metadata
     id="metadata14">
    <rdf:RDF>
      <cc:Work
         rdf:about="">
        <dc:format>image/svg+xml</dc:format>
        <dc:type
           rdf:resource="http://purl.org/dc/dcmitype/StillImage" />
        <dc:title>album_collection</dc:title>
      </cc:Work>
    </rdf:RDF>
  </metadata>
  <sodipodi:namedview
     pagecolor="#ffffff"
     bordercolor="#666666"
     borderopacity="1"
     objecttolerance="10"
     gridtolerance="10"
     guidetolerance="10"
     inkscape:pageopacity="0"
     inkscape:pageshadow="2"
     inkscape:window-width="1920"
     inkscape:window-height="1057"
     id="namedview12"
     showgrid="false"
     inkscape:zoom="14.302842"
     inkscape:cx="8.2077416"
     inkscape:cy="6.74656"
     inkscape:window-x="-8"
     inkscape:window-y="1072"
     inkscape:window-maximized="1"
     inkscape:current-layer="g6299" />
  <title
     id="title4">album_collection</title>
  <description
     id="description6">Created with Sketch (http://www.bohemiancoding.com/sketch)</description>
  <defs
     id="defs8" />
  <g
     id="g6299"
     transform="translate(179.67237,-70.223625)">
    <g
       id="g4927">
      <path
         id="rect4921"
         transform="translate(-179.67237,70.223625)"
         d="M 14.382812 12.039062 C 14.302712 12.039062 14.238281 12.103493 14.238281 12.183594 L 14.238281 14.142578 C 14.238281 14.222679 14.302712 14.287109 14.382812 14.287109 L 16.367188 14.287109 C 16.447288 14.287109 16.511719 14.222679 16.511719 14.142578 L 16.511719 12.183594 C 16.511719 12.103493 16.447288 12.039062 16.367188 12.039062 L 14.382812 12.039062 z M 15.380859 12.28125 A 0.90891027 0.90891027 0 0 1 16.291016 13.191406 A 0.90891027 0.90891027 0 0 1 15.380859 14.099609 A 0.90891027 0.90891027 0 0 1 14.472656 13.191406 A 0.90891027 0.90891027 0 0 1 15.380859 12.28125 z "
         style="opacity:1;fill:#666666;fill-opacity:1;stroke:none" />
      <path
         id="rect4923"
         transform="translate(-179.67237,70.223625)"
         d="M 17.074219 12.039062 C 16.994118 12.039062 16.929688 12.103493 16.929688 12.183594 L 16.929688 14.142578 C 16.929688 14.222679 16.994118 14.287109 17.074219 14.287109 L 19.060547 14.287109 C 19.140647 14.287109 19.205078 14.222679 19.205078 14.142578 L 19.205078 12.183594 C 19.205078 12.103493 19.140647 12.039062 19.060547 12.039062 L 17.074219 12.039062 z M 18.115234 12.28125 A 0.90891027 0.90891027 0 0 1 19.025391 13.191406 A 0.90891027 0.90891027 0 0 1 18.115234 14.099609 A 0.90891027 0.90891027 0 0 1 17.207031 13.191406 A 0.90891027 0.90891027 0 0 1 18.115234 12.28125 z "
         style="opacity:1;fill:#666666;fill-opacity:1;stroke:none" />
      <path
         id="rect4913"
         transform="translate(-179.67237,70.223625)"
         d="M 7.6347656 12.142578 C 7.3948341 12.142578 7.2011719 12.33624 7.2011719 12.576172 L 7.2011719 13.857422 C 7.2011719 14.097353 7.3948341 14.289062 7.6347656 14.289062 L 12.919922 14.289062 C 13.159853 14.289062 13.353516 14.097353 13.353516 13.857422 L 13.353516 12.576172 C 13.353516 12.33624 13.159853 12.142578 12.919922 12.142578 L 7.6347656 12.142578 z M 8.4082031 12.771484 L 9.5253906 12.771484 C 9.7287418 12.771484 9.8925781 12.935321 9.8925781 13.138672 C 9.8925781 13.342023 9.7287418 13.505859 9.5253906 13.505859 L 8.4082031 13.505859 C 8.2048519 13.505859 8.0410156 13.342023 8.0410156 13.138672 C 8.0410156 12.935321 8.2048519 12.771484 8.4082031 12.771484 z M 10.966797 12.771484 L 12.085938 12.771484 C 12.289289 12.771484 12.453125 12.935321 12.453125 13.138672 C 12.453125 13.342023 12.289289 13.505859 12.085938 13.505859 L 10.966797 13.505859 C 10.763446 13.505859 10.599609 13.342023 10.599609 13.138672 C 10.599609 12.935321 10.763446 12.771484 10.966797 12.771484 z "
         style="opacity:1;fill:#666666;fill-opacity:1;stroke:none" />
      <path
         id="rect4883"
         transform="translate(-179.67237,70.223625)"
         d="M 0.62890625 6.4785156 C 0.35777312 6.4785156 0.140625 6.6976169 0.140625 6.96875 L 0.140625 15.322266 C 0.140625 15.593399 0.35777312 15.8125 0.62890625 15.8125 L 21.185547 15.8125 C 21.45668 15.8125 21.673828 15.593399 21.673828 15.322266 L 21.673828 6.96875 C 21.673828 6.6976169 21.45668 6.4785156 21.185547 6.4785156 L 0.62890625 6.4785156 z M 0.99609375 8.0175781 L 20.818359 8.0175781 C 20.905509 8.0175781 20.974609 8.0866789 20.974609 8.1738281 L 20.974609 14.990234 C 20.974609 15.077384 20.905509 15.148438 20.818359 15.148438 L 0.99609375 15.148438 C 0.90894457 15.148438 0.83984375 15.077384 0.83984375 14.990234 L 0.83984375 8.1738281 C 0.83984375 8.0866789 0.90894457 8.0175781 0.99609375 8.0175781 z "
         style="opacity:1;fill:#666666;fill-opacity:1;stroke:none" />
      <path
         id="rect4893"
         transform="translate(-179.67237,70.223625)"
         d="M 3.2695312 10.183594 C 3.1823819 10.183594 3.1113281 10.254648 3.1113281 10.341797 L 3.1113281 11.355469 L 2.0976562 11.355469 C 2.0105069 11.355469 1.9394531 11.424569 1.9394531 11.511719 L 1.9394531 12.701172 C 1.9394531 12.788321 2.0105069 12.859375 2.0976562 12.859375 L 3.1113281 12.859375 L 3.1113281 13.873047 C 3.1113281 13.960196 3.1823819 14.029297 3.2695312 14.029297 L 4.4570312 14.029297 C 4.5441806 14.029297 4.6152344 13.960196 4.6152344 13.873047 L 4.6152344 12.859375 L 5.6289062 12.859375 C 5.7160556 12.859375 5.7851562 12.788321 5.7851562 12.701172 L 5.7851562 11.511719 C 5.7851562 11.424569 5.7160556 11.355469 5.6289062 11.355469 L 4.6152344 11.355469 L 4.6152344 10.341797 C 4.6152344 10.254648 4.5441806 10.183594 4.4570312 10.183594 L 3.2695312 10.183594 z "
         style="opacity:1;fill:#666666;fill-opacity:1;stroke:none" />
      <rect
         ry="0.40201712"
         y="77.296524"
         x="-172.47101"
         height="1.9926145"
         width="6.1526179"
         id="rect4901"
         style="opacity:1;fill:#666666;fill-opacity:1;stroke:none" />
      <rect
         style="opacity:1;fill:#666666;fill-opacity:1;stroke:none"
         id="rect4903"
         width="6.1526179"
         height="1.0837042"
         x="-172.47101"
         y="79.611153"
         ry="0.21864121" />
      <rect
         ry="0.21864121"
         y="81.009468"
         x="-172.47101"
         height="1.0837042"
         width="6.1526179"
         id="rect4905"
         style="opacity:1;fill:#666666;fill-opacity:1;stroke:none" />
      <rect
         style="opacity:1;fill:#666666;fill-opacity:1;stroke:none"
         id="rect4915"
         width="6.1526179"
         height="1.0837042"
         x="-172.47101"
         y="84.786995"
         ry="0.21864121" />
    </g>
  </g>
</svg>
