<?xml version="1.0" encoding="UTF-8" standalone="no"?>
<!-- Created with Inkscape (http://www.inkscape.org/) -->

<svg
   xmlns:dc="http://purl.org/dc/elements/1.1/"
   xmlns:cc="http://creativecommons.org/ns#"
   xmlns:rdf="http://www.w3.org/1999/02/22-rdf-syntax-ns#"
   xmlns:svg="http://www.w3.org/2000/svg"
   xmlns="http://www.w3.org/2000/svg"
   xmlns:sodipodi="http://sodipodi.sourceforge.net/DTD/sodipodi-0.dtd"
   xmlns:inkscape="http://www.inkscape.org/namespaces/inkscape"
   width="68.26667"
   height="68.26667"
   id="svg4864"
   version="1.1"
   inkscape:version="0.92.1 r"
   sodipodi:docname="emulator.svg"
   inkscape:export-filename="C:\Users\wilkie\occam\object_large.png"
   inkscape:export-xdpi="135"
   inkscape:export-ydpi="135">
  <defs
     id="defs4866" />
  <sodipodi:namedview
     id="base"
     pagecolor="#ffffff"
     bordercolor="#666666"
     borderopacity="1.0"
     inkscape:pageopacity="0.0"
     inkscape:pageshadow="2"
     inkscape:zoom="1"
     inkscape:cx="34.133335"
     inkscape:cy="34.133335"
     inkscape:current-layer="layer1"
     showgrid="true"
     inkscape:document-units="px"
     inkscape:grid-bbox="true"
     inkscape:window-width="1920"
     inkscape:window-height="1152"
     inkscape:window-x="0"
     inkscape:window-y="20"
     inkscape:window-maximized="1" />
  <metadata
     id="metadata4869">
    <rdf:RDF>
      <cc:Work
         rdf:about="">
        <dc:format>image/svg+xml</dc:format>
        <dc:type
           rdf:resource="http://purl.org/dc/dcmitype/StillImage" />
        <dc:title></dc:title>
      </cc:Work>
    </rdf:RDF>
  </metadata>
  <g
     id="layer1"
     inkscape:label="Layer 1"
     inkscape:groupmode="layer">
    <path
       style="fill:#2da0b7;fill-opacity:1;stroke-width:1.15588486"
       d="M 34.148438,4.5259096 4.7207031,19.240802 V 49.563886 L 34.148438,64.278778 63.576172,49.563886 V 19.240802 Z m 0,2.8847909 26.585969,13.2950335 V 48.098953 L 34.148438,61.393987 7.5624679,48.098953 V 20.705734 Z"
       id="rect3784"
       inkscape:connector-curvature="0" />
    <rect
       style="fill:#64c4d9;fill-opacity:1;stroke:none;stroke-width:0.95005482"
       id="rect4892"
       width="21.151196"
       height="21.151196"
       x="-17.198656"
       y="34.235554"
       transform="matrix(0.89442719,-0.4472136,0.89442719,0.4472136,0,0)" />
    <rect
       style="fill:#2da0b7;fill-opacity:1;stroke:none;stroke-width:0.95005482"
       id="rect4907"
       width="21.376459"
       height="20.444422"
       x="39.315487"
       y="51.42844"
       transform="matrix(0.8949854,-0.44609543,0,1,0,0)" />
    <rect
       transform="matrix(-0.8949854,-0.44609543,0,1,0,0)"
       y="17.427563"
       x="-37.172047"
       height="20.444422"
       width="21.376459"
       id="rect4938"
       style="fill:#2da0b7;fill-opacity:1;stroke:none;stroke-width:0.95005482" />
    <path
       id="path4633"
       d="M 34.148438,9.296875 9.4200159,21.661947 V 47.142741 L 34.148438,59.507812 58.876859,47.142741 V 21.661947 Z m 0,2.424119 22.340458,11.171951 V 45.911742 L 34.148438,57.083693 11.807979,45.911742 V 22.892945 Z"
       style="fill:#2da0b7;fill-opacity:1;stroke-width:0.97130173"
       inkscape:connector-curvature="0" />
  </g>
</svg>
