<?xml version="1.0" encoding="UTF-8" standalone="no"?>
<svg
   xmlns:sketch="http://www.bohemiancoding.com/sketch/ns"
   xmlns:dc="http://purl.org/dc/elements/1.1/"
   xmlns:cc="http://creativecommons.org/ns#"
   xmlns:rdf="http://www.w3.org/1999/02/22-rdf-syntax-ns#"
   xmlns:svg="http://www.w3.org/2000/svg"
   xmlns="http://www.w3.org/2000/svg"
   xmlns:sodipodi="http://sodipodi.sourceforge.net/DTD/sodipodi-0.dtd"
   xmlns:inkscape="http://www.inkscape.org/namespaces/inkscape"
   width="22"
   height="22"
   viewBox="0 0 22 22"
   version="1.1"
   id="svg2"
   inkscape:version="0.92.4 5da689c313, 2019-01-14"
   sodipodi:docname="presentation.svg">
  <metadata
     id="metadata14">
    <rdf:RDF>
      <cc:Work
         rdf:about="">
        <dc:format>image/svg+xml</dc:format>
        <dc:type
           rdf:resource="http://purl.org/dc/dcmitype/StillImage" />
        <dc:title>album_collection</dc:title>
      </cc:Work>
    </rdf:RDF>
  </metadata>
  <sodipodi:namedview
     pagecolor="#ffffff"
     bordercolor="#666666"
     borderopacity="1"
     objecttolerance="10"
     gridtolerance="10"
     guidetolerance="10"
     inkscape:pageopacity="0"
     inkscape:pageshadow="2"
     inkscape:window-width="1920"
     inkscape:window-height="1152"
     id="namedview12"
     showgrid="false"
     inkscape:zoom="30.63058"
     inkscape:cx="6.805399"
     inkscape:cy="10.167159"
     inkscape:window-x="0"
     inkscape:window-y="20"
     inkscape:window-maximized="1"
     inkscape:current-layer="svg2"
     showguides="false"
     inkscape:snap-global="false" />
  <title
     id="title4">album_collection</title>
  <description
     id="description6">Created with Sketch (http://www.bohemiancoding.com/sketch)</description>
  <defs
     id="defs8" />
  <path
     inkscape:connector-curvature="0"
     style="fill:#2da0b7;fill-opacity:1;fill-rule:evenodd;stroke:none"
     sketch:type="MSShapeGroup"
     id="album_collection"
     d="M -43.609512,5.5 C -43.687102,5.5 -43.75,5.5579357 -43.75,5.6287911 V 21.371209 c 0,0.07113 0.06311,0.128791 0.140488,0.128791 h 21.719024 c 0.07759,0 0.140488,-0.05794 0.140488,-0.128791 V 5.6287911 C -21.75,5.5576617 -21.81311,5.5 -21.890488,5.5 Z M -42.75,3.5 v 1 h 20 v -1 z"
     sodipodi:nodetypes="sssssssssccccc" />
  <path
     style="color:#000000;font-style:normal;font-variant:normal;font-weight:normal;font-stretch:normal;font-size:medium;line-height:normal;font-family:sans-serif;font-variant-ligatures:normal;font-variant-position:normal;font-variant-caps:normal;font-variant-numeric:normal;font-variant-alternates:normal;font-feature-settings:normal;text-indent:0;text-align:start;text-decoration:none;text-decoration-line:none;text-decoration-style:solid;text-decoration-color:#000000;letter-spacing:normal;word-spacing:normal;text-transform:none;writing-mode:lr-tb;direction:ltr;text-orientation:mixed;dominant-baseline:auto;baseline-shift:baseline;text-anchor:start;white-space:normal;shape-padding:0;clip-rule:nonzero;display:inline;overflow:visible;visibility:visible;opacity:1;isolation:auto;mix-blend-mode:normal;color-interpolation:sRGB;color-interpolation-filters:linearRGB;solid-color:#000000;solid-opacity:1;vector-effect:none;fill:#2da0b7;fill-opacity:1;fill-rule:nonzero;stroke:none;stroke-width:0.29995167;stroke-linecap:butt;stroke-linejoin:miter;stroke-miterlimit:4;stroke-dasharray:none;stroke-dashoffset:0;stroke-opacity:1;color-rendering:auto;image-rendering:auto;shape-rendering:auto;text-rendering:auto;enable-background:accumulate"
     d="M 21.301577,1.8529497 V 2.0030017 15.491686 H 0.69842274 V 1.8529497 Z M 21.001473,2.1530539 H 0.99652663 V 15.191582 H 21.001473 Z"
     id="rect821"
     inkscape:connector-curvature="0" />
  <rect
     style="fill:#2da0b7;fill-opacity:1;stroke:none;stroke-width:0.76158416;stroke-miterlimit:4;stroke-dasharray:4.56950485, 4.56950485;stroke-dashoffset:0;stroke-opacity:1"
     id="rect826"
     width="2.5397656"
     height="7.0145907"
     x="-20.167009"
     y="7.281909"
     ry="0.89927208"
     transform="scale(-1,1)" />
  <path
     style="fill:#2da0b7;fill-opacity:1;stroke:none;stroke-width:0.96905339;stroke-miterlimit:4;stroke-dasharray:5.81432031, 5.81432031;stroke-dashoffset:0;stroke-opacity:1"
     d="M 5.7145327,4.9840268 A 3.9305897,3.9305897 0 0 1 9.6451227,8.9146159 3.9305897,3.9305897 0 0 1 6.198298,12.813082 V 8.9750869 A 0.36285995,0.36285995 0 0 0 5.8505917,8.6122629 0.36285995,0.36285995 0 0 0 5.5860334,8.7124149 L 2.7098988,11.448711 A 3.9305897,3.9305897 0 0 1 1.7839427,8.9146129 3.9305897,3.9305897 0 0 1 5.7145327,4.9840238 Z"
     id="path832"
     inkscape:connector-curvature="0" />
  <rect
     ry="0.86014235"
     y="5.2259083"
     x="-16.901596"
     height="9.0705919"
     width="2.5397656"
     id="rect834"
     style="fill:#2da0b7;fill-opacity:1;stroke:none;stroke-width:0.8660332;stroke-miterlimit:4;stroke-dasharray:5.19619904, 5.19619904;stroke-dashoffset:0;stroke-opacity:1"
     transform="scale(-1,1)" />
  <rect
     style="fill:#2da0b7;fill-opacity:1;stroke:none;stroke-width:0.67082644;stroke-miterlimit:4;stroke-dasharray:4.02495845, 4.02495845;stroke-dashoffset:0;stroke-opacity:1"
     id="rect836"
     width="2.5397656"
     height="5.4423552"
     x="-13.636182"
     y="8.8541451"
     ry="0.75018126"
     transform="scale(-1,1)" />
  <path
     style="fill:#2da0b7;fill-opacity:1;stroke:none;stroke-width:0.96752977px;stroke-linecap:butt;stroke-linejoin:miter;stroke-opacity:1"
     d="M 5.5871776,9.5655919 V 13.430044 A 3.9305897,3.9305897 0 0 1 5.466237,13.43578 3.9305897,3.9305897 0 0 1 2.7072651,12.303846 Z"
     id="path842"
     inkscape:connector-curvature="0" />
  <rect
     style="fill:#2da0b7;fill-opacity:1;stroke:none;stroke-width:0.31017148;stroke-miterlimit:4;stroke-dasharray:none;stroke-dashoffset:0;stroke-opacity:1"
     id="rect4590"
     width="21.82571"
     height="0.99318433"
     x="-21.912855"
     y="0.42083845"
     ry="0.37835589"
     transform="scale(-1,1)" />
  <rect
     ry="0.37835589"
     y="15.904605"
     x="-21.912855"
     height="0.99318433"
     width="21.82571"
     id="rect4612"
     style="fill:#2da0b7;fill-opacity:1;stroke:none;stroke-width:0.31017148;stroke-miterlimit:4;stroke-dasharray:none;stroke-dashoffset:0;stroke-opacity:1"
     transform="scale(-1,1)" />
  <path
     style="fill:#2da0b7;fill-opacity:1;stroke:none;stroke-width:0.25236315;stroke-miterlimit:4;stroke-dasharray:none;stroke-dashoffset:0;stroke-opacity:1"
     d="m 7.1121302,17.644994 c -0.1232558,0 -0.2454162,0.04834 -0.3417417,0.139655 -0.00331,0.0031 -0.00826,0.0033 -0.011501,0.0066 l -2.5236313,2.525274 c -0.1953737,0.195374 -0.1953737,0.50947 0,0.704843 0.1953737,0.195374 0.5094687,0.195374 0.7048424,0 L 7.3799374,18.58317 h 7.2554396 l 2.438196,2.438196 c 0.195374,0.195374 0.509469,0.195374 0.704843,0 0.195374,-0.195373 0.195374,-0.509469 0,-0.704843 L 15.254785,17.79122 C 15.152807,17.689244 15.018137,17.643802 14.885112,17.64828 H 7.1285601 c -0.0056,-1.88e-4 -0.010831,-0.0033 -0.01643,-0.0033 z"
     id="rect4631"
     inkscape:connector-curvature="0" />
</svg>
