<?xml version="1.0" encoding="UTF-8" standalone="no"?>
<svg
   xmlns:dc="http://purl.org/dc/elements/1.1/"
   xmlns:cc="http://creativecommons.org/ns#"
   xmlns:rdf="http://www.w3.org/1999/02/22-rdf-syntax-ns#"
   xmlns:svg="http://www.w3.org/2000/svg"
   xmlns="http://www.w3.org/2000/svg"
   xmlns:sodipodi="http://sodipodi.sourceforge.net/DTD/sodipodi-0.dtd"
   xmlns:inkscape="http://www.inkscape.org/namespaces/inkscape"
   width="22"
   height="22"
   viewBox="0 0 22 22"
   version="1.1"
   id="svg2"
   inkscape:version="0.92.2 2405546, 2018-03-11"
   sodipodi:docname="video.svg"
   inkscape:export-filename="Z:\projects\occam\Large-Icons\group_large.png"
   inkscape:export-xdpi="392.72726"
   inkscape:export-ydpi="392.72726">
  <metadata
     id="metadata14">
    <rdf:RDF>
      <cc:Work
         rdf:about="">
        <dc:format>image/svg+xml</dc:format>
        <dc:type
           rdf:resource="http://purl.org/dc/dcmitype/StillImage" />
        <dc:title>album_collection</dc:title>
      </cc:Work>
    </rdf:RDF>
  </metadata>
  <sodipodi:namedview
     pagecolor="#ffffff"
     bordercolor="#666666"
     borderopacity="1"
     objecttolerance="10"
     gridtolerance="10"
     guidetolerance="10"
     inkscape:pageopacity="0"
     inkscape:pageshadow="2"
     inkscape:window-width="1920"
     inkscape:window-height="1152"
     id="namedview12"
     showgrid="false"
     inkscape:zoom="22.627417"
     inkscape:cx="23.516376"
     inkscape:cy="8.5178905"
     inkscape:window-x="0"
     inkscape:window-y="20"
     inkscape:window-maximized="1"
     inkscape:current-layer="g6299"
     inkscape:snap-others="false"
     inkscape:object-nodes="false" />
  <title
     id="title4">album_collection</title>
  <description
     id="description6">Created with Sketch (http://www.bohemiancoding.com/sketch)</description>
  <defs
     id="defs8" />
  <g
     id="g6299"
     transform="translate(179.67237,-70.223625)">
    <path
       style="fill:#2da0b7;fill-opacity:1;stroke:none;stroke-width:0.41648149;stroke-miterlimit:4;stroke-dasharray:2.49888921, 2.49888921;stroke-dashoffset:0;stroke-opacity:1"
       d="M 1.0605469 16.595703 C 0.77625284 16.595703 0.54882812 16.825081 0.54882812 17.109375 L 0.54882812 18.890625 C 0.54882812 19.174919 0.77625284 19.404297 1.0605469 19.404297 L 20.939453 19.404297 C 21.223747 19.404297 21.451172 19.174919 21.451172 18.890625 L 21.451172 17.109375 C 21.451172 16.825081 21.223747 16.595703 20.939453 16.595703 L 1.0605469 16.595703 z M 1.3144531 16.990234 L 2.3886719 16.990234 C 2.6533137 16.990234 2.8671875 17.204108 2.8671875 17.46875 L 2.8671875 17.503906 L 2.8671875 18.542969 L 2.8671875 18.578125 C 2.8671875 18.842767 2.6533137 19.056641 2.3886719 19.056641 L 1.3144531 19.056641 C 1.0498113 19.056641 0.8359375 18.842767 0.8359375 18.578125 L 0.8359375 18.542969 L 0.8359375 17.503906 L 0.8359375 17.46875 C 0.8359375 17.204108 1.0498113 16.990234 1.3144531 16.990234 z M 3.9121094 16.990234 L 4.9863281 16.990234 C 5.2509699 16.990234 5.4648438 17.204108 5.4648438 17.46875 L 5.4648438 17.503906 L 5.4648438 18.578125 C 5.4648438 18.842767 5.2509699 19.056641 4.9863281 19.056641 L 3.9121094 19.056641 C 3.6474676 19.056641 3.4335938 18.842767 3.4335938 18.578125 L 3.4335938 18.542969 L 3.4335938 17.46875 C 3.4335938 17.204108 3.6474676 16.990234 3.9121094 16.990234 z M 6.5097656 16.990234 L 7.5839844 16.990234 C 7.8486262 16.990234 8.0625 17.204108 8.0625 17.46875 L 8.0625 17.503906 L 8.0625 18.578125 C 8.0625 18.842767 7.8486262 19.056641 7.5839844 19.056641 L 6.5097656 19.056641 C 6.2451238 19.056641 6.03125 18.842767 6.03125 18.578125 L 6.03125 18.542969 L 6.03125 17.46875 C 6.03125 17.204108 6.2451238 16.990234 6.5097656 16.990234 z M 9.1074219 16.990234 L 10.181641 16.990234 C 10.446282 16.990234 10.660156 17.204108 10.660156 17.46875 L 10.660156 17.503906 L 10.660156 18.578125 C 10.660156 18.842767 10.446282 19.056641 10.181641 19.056641 L 9.1074219 19.056641 C 8.8427801 19.056641 8.6289062 18.842767 8.6289062 18.578125 L 8.6289062 18.542969 L 8.6289062 17.46875 C 8.6289063 17.204108 8.8427801 16.990234 9.1074219 16.990234 z M 11.705078 16.990234 L 12.779297 16.990234 C 13.043939 16.990234 13.257812 17.204108 13.257812 17.46875 L 13.257812 17.503906 L 13.257812 18.578125 C 13.257813 18.842767 13.043939 19.056641 12.779297 19.056641 L 11.705078 19.056641 C 11.440436 19.056641 11.226562 18.842767 11.226562 18.578125 L 11.226562 18.542969 L 11.226562 17.46875 C 11.226562 17.204108 11.440436 16.990234 11.705078 16.990234 z M 14.302734 16.990234 L 15.376953 16.990234 C 15.641595 16.990234 15.853516 17.204108 15.853516 17.46875 L 15.853516 17.503906 L 15.853516 18.578125 C 15.853516 18.842767 15.641595 19.056641 15.376953 19.056641 L 14.302734 19.056641 C 14.038093 19.056641 13.824219 18.842767 13.824219 18.578125 L 13.824219 18.542969 L 13.824219 17.46875 C 13.824219 17.204108 14.038093 16.990234 14.302734 16.990234 z M 16.916016 16.990234 L 17.990234 16.990234 C 18.254876 16.990234 18.46875 17.204108 18.46875 17.46875 L 18.46875 17.503906 L 18.46875 18.578125 C 18.46875 18.842767 18.254876 19.056641 17.990234 19.056641 L 16.916016 19.056641 C 16.651374 19.056641 16.4375 18.842767 16.4375 18.578125 L 16.4375 18.542969 L 16.4375 17.46875 C 16.4375 17.204108 16.651374 16.990234 16.916016 16.990234 z M 19.513672 16.990234 L 20.587891 16.990234 C 20.852532 16.990234 21.066406 17.204108 21.066406 17.46875 L 21.066406 17.503906 L 21.066406 18.578125 C 21.066406 18.842767 20.852532 19.056641 20.587891 19.056641 L 19.513672 19.056641 C 19.24903 19.056641 19.035156 18.842767 19.035156 18.578125 L 19.035156 18.542969 L 19.035156 17.46875 C 19.035156 17.204108 19.24903 16.990234 19.513672 16.990234 z "
       transform="translate(-179.67237,70.223625)"
       id="rect1053" />
    <path
       style="fill:#2da0b7;fill-opacity:1;stroke:none;stroke-width:0.80367929;stroke-miterlimit:4;stroke-dasharray:4.82207569, 4.82207569;stroke-dashoffset:0;stroke-opacity:1"
       d="M 1.1230469 5.7578125 C 0.80476042 5.7578125 0.54882812 6.0137448 0.54882812 6.3320312 L 0.54882812 15.644531 C 0.54882812 15.962818 0.80476042 16.21875 1.1230469 16.21875 L 20.876953 16.21875 C 21.19524 16.21875 21.451172 15.962818 21.451172 15.644531 L 21.451172 6.3320312 C 21.451172 6.0137448 21.19524 5.7578125 20.876953 5.7578125 L 1.1230469 5.7578125 z M 8.71875 8.7832031 L 10.638672 9.890625 L 12.560547 11 L 10.638672 12.109375 L 8.71875 13.216797 L 8.71875 11 L 8.71875 8.7832031 z "
       transform="translate(-179.67237,70.223625)"
       id="rect887" />
    <path
       style="fill:#2da0b7;fill-opacity:1;stroke:none;stroke-width:0.41648149;stroke-miterlimit:4;stroke-dasharray:2.49888921, 2.49888921;stroke-dashoffset:0;stroke-opacity:1"
       d="M 1.0605469 2.5957031 C 0.77625284 2.5957031 0.54882812 2.825081 0.54882812 3.109375 L 0.54882812 4.890625 C 0.54882812 5.174919 0.77625284 5.4042969 1.0605469 5.4042969 L 20.939453 5.4042969 C 21.223747 5.4042969 21.451172 5.174919 21.451172 4.890625 L 21.451172 3.109375 C 21.451172 2.825081 21.223747 2.5957031 20.939453 2.5957031 L 1.0605469 2.5957031 z M 1.3144531 2.9902344 L 2.3886719 2.9902344 C 2.6533137 2.9902344 2.8671875 3.2041082 2.8671875 3.46875 L 2.8671875 3.5039062 L 2.8671875 4.5429688 L 2.8671875 4.578125 C 2.8671875 4.8427668 2.6533137 5.0566406 2.3886719 5.0566406 L 1.3144531 5.0566406 C 1.0498113 5.0566406 0.8359375 4.8427668 0.8359375 4.578125 L 0.8359375 4.5429688 L 0.8359375 3.5039062 L 0.8359375 3.46875 C 0.8359375 3.2041082 1.0498113 2.9902344 1.3144531 2.9902344 z M 3.9121094 2.9902344 L 4.9863281 2.9902344 C 5.2509699 2.9902344 5.4648438 3.2041082 5.4648438 3.46875 L 5.4648438 3.5039062 L 5.4648438 4.578125 C 5.4648438 4.8427668 5.2509699 5.0566406 4.9863281 5.0566406 L 3.9121094 5.0566406 C 3.6474676 5.0566406 3.4335938 4.8427668 3.4335938 4.578125 L 3.4335938 4.5429688 L 3.4335938 3.46875 C 3.4335938 3.2041082 3.6474676 2.9902344 3.9121094 2.9902344 z M 6.5097656 2.9902344 L 7.5839844 2.9902344 C 7.8486262 2.9902344 8.0625 3.2041082 8.0625 3.46875 L 8.0625 3.5039062 L 8.0625 4.578125 C 8.0625 4.8427668 7.8486262 5.0566406 7.5839844 5.0566406 L 6.5097656 5.0566406 C 6.2451238 5.0566406 6.03125 4.8427668 6.03125 4.578125 L 6.03125 4.5429688 L 6.03125 3.46875 C 6.03125 3.2041082 6.2451238 2.9902344 6.5097656 2.9902344 z M 9.1074219 2.9902344 L 10.181641 2.9902344 C 10.446282 2.9902344 10.660156 3.2041082 10.660156 3.46875 L 10.660156 3.5039062 L 10.660156 4.578125 C 10.660156 4.8427668 10.446282 5.0566406 10.181641 5.0566406 L 9.1074219 5.0566406 C 8.8427801 5.0566406 8.6289062 4.8427668 8.6289062 4.578125 L 8.6289062 4.5429688 L 8.6289062 3.46875 C 8.6289063 3.2041082 8.8427801 2.9902344 9.1074219 2.9902344 z M 11.705078 2.9902344 L 12.779297 2.9902344 C 13.043939 2.9902344 13.257812 3.2041082 13.257812 3.46875 L 13.257812 3.5039062 L 13.257812 4.578125 C 13.257813 4.8427668 13.043939 5.0566406 12.779297 5.0566406 L 11.705078 5.0566406 C 11.440436 5.0566406 11.226562 4.8427668 11.226562 4.578125 L 11.226562 4.5429688 L 11.226562 3.46875 C 11.226562 3.2041082 11.440436 2.9902344 11.705078 2.9902344 z M 14.302734 2.9902344 L 15.376953 2.9902344 C 15.641595 2.9902344 15.853516 3.2041082 15.853516 3.46875 L 15.853516 3.5039062 L 15.853516 4.578125 C 15.853516 4.8427668 15.641595 5.0566406 15.376953 5.0566406 L 14.302734 5.0566406 C 14.038093 5.0566406 13.824219 4.8427668 13.824219 4.578125 L 13.824219 4.5429688 L 13.824219 3.46875 C 13.824219 3.2041082 14.038093 2.9902344 14.302734 2.9902344 z M 16.916016 3.0273438 L 17.990234 3.0273438 C 18.254876 3.0273438 18.46875 3.2392646 18.46875 3.5039062 L 18.46875 4.578125 C 18.46875 4.8427668 18.254876 5.0566406 17.990234 5.0566406 L 16.916016 5.0566406 C 16.651374 5.0566406 16.4375 4.8427668 16.4375 4.578125 L 16.4375 3.5039062 C 16.4375 3.2392645 16.651374 3.0273438 16.916016 3.0273438 z M 19.513672 3.0273438 L 20.587891 3.0273438 C 20.852532 3.0273438 21.066406 3.2392646 21.066406 3.5039062 L 21.066406 4.578125 C 21.066406 4.8427668 20.852532 5.0566406 20.587891 5.0566406 L 19.513672 5.0566406 C 19.24903 5.0566406 19.035156 4.8427668 19.035156 4.578125 L 19.035156 3.5039062 C 19.035156 3.2392645 19.24903 3.0273438 19.513672 3.0273438 z "
       id="rect993"
       transform="translate(-179.67237,70.223625)" />
  </g>
</svg>
