<?xml version="1.0" encoding="UTF-8" standalone="no"?>
<svg
   xmlns:dc="http://purl.org/dc/elements/1.1/"
   xmlns:cc="http://creativecommons.org/ns#"
   xmlns:rdf="http://www.w3.org/1999/02/22-rdf-syntax-ns#"
   xmlns:svg="http://www.w3.org/2000/svg"
   xmlns="http://www.w3.org/2000/svg"
   xmlns:sodipodi="http://sodipodi.sourceforge.net/DTD/sodipodi-0.dtd"
   xmlns:inkscape="http://www.inkscape.org/namespaces/inkscape"
   version="1.1"
   id="Sprocket"
   x="0px"
   y="0px"
   width="100px"
   height="100px"
   viewBox="0 0 100 100"
   enable-background="new 0 0 100 100"
   xml:space="preserve"
   inkscape:version="0.91 r13725"
   sodipodi:docname="docker-environment.svg"
   inkscape:export-filename="C:\Users\wilkie\occam\benchmark_large.png"
   inkscape:export-xdpi="86.400002"
   inkscape:export-ydpi="86.400002"><metadata
     id="metadata11"><rdf:RDF><cc:Work
         rdf:about=""><dc:format>image/svg+xml</dc:format><dc:type
           rdf:resource="http://purl.org/dc/dcmitype/StillImage" /><dc:title></dc:title></cc:Work></rdf:RDF></metadata><defs
     id="defs9" /><sodipodi:namedview
     pagecolor="#ffffff"
     bordercolor="#666666"
     borderopacity="1"
     objecttolerance="10"
     gridtolerance="10"
     guidetolerance="10"
     inkscape:pageopacity="0"
     inkscape:pageshadow="2"
     inkscape:window-width="1920"
     inkscape:window-height="1057"
     id="namedview7"
     showgrid="false"
     inkscape:zoom="2"
     inkscape:cx="22.720372"
     inkscape:cy="22.618174"
     inkscape:window-x="-8"
     inkscape:window-y="-8"
     inkscape:window-maximized="1"
     inkscape:current-layer="Sprocket" /><rect
     style="opacity:1;fill:#2da0b7;fill-opacity:1;stroke:none"
     id="rect4889"
     width="8.9716816"
     height="8.9716816"
     x="42.010174"
     y="19.215427" /><rect
     y="29.399502"
     x="42.010174"
     height="8.9716816"
     width="8.9716816"
     id="rect4891"
     style="opacity:1;fill:#2da0b7;fill-opacity:1;stroke:none" /><rect
     style="opacity:1;fill:#2da0b7;fill-opacity:1;stroke:none"
     id="rect4893"
     width="8.9716816"
     height="8.9716816"
     x="42.010174"
     y="39.462334" /><rect
     style="opacity:1;fill:#2da0b7;fill-opacity:1;stroke:none"
     id="rect4895"
     width="8.9716816"
     height="8.9716816"
     x="31.826103"
     y="29.399502" /><rect
     y="29.399502"
     x="21.642031"
     height="8.9716816"
     width="8.9716816"
     id="rect4897"
     style="opacity:1;fill:#2da0b7;fill-opacity:1;stroke:none" /><rect
     y="39.462334"
     x="52.194244"
     height="8.9716816"
     width="8.9716816"
     id="rect4901"
     style="opacity:1;fill:#2da0b7;fill-opacity:1;stroke:none" /><rect
     y="39.462334"
     x="31.826103"
     height="8.9716816"
     width="8.9716816"
     id="rect4903"
     style="opacity:1;fill:#2da0b7;fill-opacity:1;stroke:none" /><rect
     style="opacity:1;fill:#2da0b7;fill-opacity:1;stroke:none"
     id="rect4905"
     width="8.9716816"
     height="8.9716816"
     x="21.642031"
     y="39.462334" /><rect
     y="39.462334"
     x="11.45796"
     height="8.9716816"
     width="8.9716816"
     id="rect4907"
     style="opacity:1;fill:#2da0b7;fill-opacity:1;stroke:none" /><path
     style="fill:#2da0b7;fill-opacity:1;fill-rule:evenodd;stroke:none;stroke-width:1px;stroke-linecap:butt;stroke-linejoin:miter;stroke-opacity:1"
     d="m 79.109291,29.884456 c -4.034812,5.585141 -3.59906,10.984007 0.121239,16.246019 l -8.850443,3.273451 -68.2575256,0 C -0.66593433,94.796698 71.581973,89.477616 83.83761,49.161448 91.045702,49.679317 96.385586,47.706242 98.75,41.765873 96.045082,40.376526 93.447531,38.915601 86.019911,40.674722 85.49006,34.195722 82.12492,32.324067 79.109291,29.884456 Z M 31.341147,62.624654 a 2.6611641,2.6611641 0 0 1 2.661574,2.661574 2.6611641,2.6611641 0 0 1 -2.661574,2.661573 2.6611641,2.6611641 0 0 1 -2.661574,-2.661573 2.6611641,2.6611641 0 0 1 2.661574,-2.661574 z m 0,0.600512 a 2.0610621,2.0610621 0 0 0 -2.061062,2.061062 2.0610621,2.0610621 0 0 0 2.061062,2.061061 2.0610621,2.0610621 0 0 0 2.061062,-2.061061 2.0610621,2.0610621 0 0 0 -0.331512,-1.117672 0.60010217,0.60010217 0 0 1 -0.566414,0.399711 0.60010217,0.60010217 0 0 1 -0.598617,-0.600512 0.60010217,0.60010217 0 0 1 0.331512,-0.536104 2.0610621,2.0610621 0 0 0 -0.896031,-0.206485 z m -4.849557,5.940708 c 3.311625,4.704425 5.431382,7.975072 10.911505,10.062832 -12.523132,1.116582 -20.683236,-2.545389 -26.430091,-8.850443 4.163039,0.302747 8.211516,0.685686 15.518586,-1.212389 z"
     id="path4909"
     inkscape:connector-curvature="0" /></svg>