<?xml version="1.0" encoding="UTF-8" standalone="no"?>
<svg
   xmlns:dc="http://purl.org/dc/elements/1.1/"
   xmlns:cc="http://creativecommons.org/ns#"
   xmlns:rdf="http://www.w3.org/1999/02/22-rdf-syntax-ns#"
   xmlns:svg="http://www.w3.org/2000/svg"
   xmlns="http://www.w3.org/2000/svg"
   xmlns:sodipodi="http://sodipodi.sourceforge.net/DTD/sodipodi-0.dtd"
   xmlns:inkscape="http://www.inkscape.org/namespaces/inkscape"
   version="1.1"
   id="svg2985"
   height="179.68771"
   width="847.5141"
   sodipodi:docname="logo_squish_fitted.svg"
   inkscape:version="0.92.2 2405546, 2018-03-11"
   inkscape:export-filename="/home/wilkie/images/logo_large.png"
   inkscape:export-xdpi="80.023232"
   inkscape:export-ydpi="80.023232">
  <sodipodi:namedview
     pagecolor="#ffffff"
     bordercolor="#666666"
     borderopacity="1"
     objecttolerance="10"
     gridtolerance="10"
     guidetolerance="10"
     inkscape:pageopacity="0"
     inkscape:pageshadow="2"
     inkscape:window-width="1920"
     inkscape:window-height="1152"
     id="namedview4880"
     showgrid="false"
     inkscape:object-nodes="false"
     inkscape:zoom="2"
     inkscape:cx="235.92857"
     inkscape:cy="65.602411"
     inkscape:window-x="0"
     inkscape:window-y="20"
     inkscape:window-maximized="1"
     inkscape:current-layer="svg2985"
     fit-margin-top="0"
     fit-margin-left="0"
     fit-margin-right="0"
     fit-margin-bottom="0" />
  <defs
     id="defs2987" />
  <metadata
     id="metadata2990">
    <rdf:RDF>
      <cc:Work
         rdf:about="">
        <dc:format>image/svg+xml</dc:format>
        <dc:type
           rdf:resource="http://purl.org/dc/dcmitype/StillImage" />
        <dc:title></dc:title>
      </cc:Work>
    </rdf:RDF>
  </metadata>
  <g
     style="font-style:normal;font-weight:normal;font-size:151.83480835px;line-height:125%;font-family:'Cinzel Decorative Bold';-inkscape-font-specification:'Cinzel Decorative Bold';letter-spacing:0px;word-spacing:0px;fill:#488e9c;fill-opacity:1;stroke:none"
     id="text2993"
     transform="translate(-121.81457,-459.13112)" />
  <rect
     style="fill:#c764d9;fill-opacity:1;stroke:none;stroke-width:0.69276005"
     id="rect4892"
     width="79.128952"
     height="79.128952"
     x="-24.36253"
     y="54.766422"
     transform="matrix(0.89442719,-0.4472136,0.89442719,0.4472136,0,0)" />
  <path
     style="fill:#9f45af;fill-opacity:1;stroke:none;stroke-width:0.65537643"
     d="M 170.69922 41.789062 L 101.82422 76.121094 L 101.82422 152.60547 L 171.96875 117.64258 C 164.66103 106.53615 160.86719 93.494365 160.86719 79.150391 C 160.86719 65.463375 164.18384 52.824725 170.69922 41.789062 z "
     id="rect4907" />
  <rect
     transform="matrix(-0.8949854,-0.44609543,0,1,0,0)"
     y="29.39303"
     x="-105.75245"
     height="76.48484"
     width="79.971703"
     id="rect4938"
     style="fill:#9f45af;fill-opacity:1;stroke:none;stroke-width:0.69276005" />
  <path
     style="fill:#488e9c;fill-opacity:1;stroke:none;stroke-width:0.69276005"
     d="M 17.951172 121.74219 L 0 130.68164 L 98.154297 179.6875 C 128.8319 164.4379 160.03846 148.83211 188.08984 134.82031 C 187.6568 134.48731 187.22532 134.15242 186.79883 133.81055 C 184.8769 132.26995 183.06306 130.6565 181.34766 128.98047 L 172.63867 124.63477 L 168.07422 126.91797 L 175.22656 130.4707 L 172.82812 131.66992 L 165.67578 128.09375 L 160.85156 130.49414 L 171.5332 135.83398 L 168.80469 137.19922 L 158.12305 131.85742 L 153.55859 134.16406 L 160.71094 137.7168 L 158.31055 138.91602 L 151.1582 135.33984 L 146.33594 137.74023 L 157.01758 143.08008 L 154.28906 144.44531 L 143.60742 139.10352 L 139.01953 141.38672 L 146.19531 144.96289 L 143.79492 146.13867 L 136.64258 142.58594 L 131.79688 144.98633 L 142.50195 150.32617 L 139.77148 151.69141 L 129.0918 146.34961 L 124.52734 148.63281 L 131.65625 152.18555 L 129.25586 153.38477 L 122.12695 149.83203 L 117.30469 152.23242 L 127.98438 157.57227 L 125.23242 158.9375 L 114.55078 153.5957 L 109.98828 155.87891 L 117.13867 159.43164 L 114.74023 160.63086 L 107.58789 157.07812 L 102.76562 159.47852 L 113.44531 164.81836 L 110.7168 166.16016 L 100.03516 160.84375 L 98.201172 161.75977 L 96.341797 160.84375 L 85.683594 166.16016 L 82.931641 164.81836 L 93.613281 159.47852 L 88.789062 157.07812 L 81.662109 160.63086 L 79.261719 159.43164 L 86.390625 155.87891 L 81.826172 153.5957 L 71.144531 158.9375 L 68.416016 157.57227 L 79.097656 152.23242 L 74.273438 149.83203 L 67.121094 153.38477 L 64.722656 152.18555 L 71.875 148.63281 L 67.310547 146.34961 L 56.628906 151.69141 L 53.900391 150.32617 L 64.580078 144.98633 L 59.757812 142.58594 L 52.605469 146.13867 L 50.205078 144.96289 L 57.357422 141.38672 L 52.794922 139.10352 L 42.113281 144.44531 L 39.382812 143.08008 L 50.064453 137.74023 L 45.242188 135.33984 L 38.089844 138.91602 L 35.689453 137.7168 L 42.841797 134.16406 L 38.277344 131.85742 L 27.574219 137.19922 L 24.84375 135.83398 L 35.548828 130.49414 L 30.726562 128.09375 L 23.550781 131.66992 L 21.150391 130.4707 L 28.326172 126.91797 L 23.761719 124.63477 L 13.056641 129.97656 L 10.328125 128.61133 L 21.033203 123.27148 L 17.951172 121.74219 z M 175.89844 123.00781 L 175.36719 123.27148 L 176.63477 123.9043 C 176.38587 123.6077 176.14162 123.30779 175.89844 123.00781 z "
     id="rect3869" />
  <path
     sodipodi:nodetypes="sccsccccccccssszsscccs"
     inkscape:connector-curvature="0"
     id="path4663"
     d="m 526.2636,10.665712 c -17.40774,0 -28.22345,2.61716 -40.27489,7.85162 -11.92979,5.23448 -21.05978,12.843 -27.38985,22.82498 -6.33008,9.98201 -9.49506,21.85038 -9.49506,35.606088 0,21.05961 7.06067,37.43244 21.18166,49.11868 14.24252,11.56453 29.92781,17.34672 54.88271,17.34672 25.07677,0.12174 42.11864,-7.36483 51.12675,-22.4596 l 1.68016,-29.9066 c -1.21061,-0.0408 0,0 -1.51996,-0.67032 -3.30017,14.98033 -14.80849,28.20906 -20.24563,33.86373 -6.45184,6.81698 -16.85962,10.22579 -31.22403,10.22579 -12.41662,-0.36517 -18.24178,-5.66051 -25.30222,-15.886 -6.93879,-10.22548 -10.40767,-24.22491 -10.40767,-41.99778 0,-17.894548 3.77369,-31.832298 11.32119,-41.814308 7.54716,-9.98201 14.1634,-14.97333 27.67568,-14.97333 9.98189,0 18.32035,2.61718 25.0156,7.85165 6.69526,5.23446 12.81415,16.46635 15.33785,26.29447 1.8868,7.34782 1.27237,11.92796 -1.46108,15.03887 -0.23182,0.26383 1.79429,0.49175 4.00507,-1.926 4.33909,-14.35859 8.13063,-29.13097 10.96726,-42.40368 -2.81003,-1.84177 -6.12861,-3.70235 -10.04157,-5.58529 -13.1471,-5.59965 -28.42435,-8.39969 -45.83197,-8.39969 z"
     style="font-style:normal;font-variant:normal;font-weight:normal;font-stretch:normal;font-size:119.631073px;line-height:1.25;font-family:'Cinzel Decorative Black';-inkscape-font-specification:'Cinzel Decorative Black, ';letter-spacing:0px;word-spacing:0px;fill:#488e9c;fill-opacity:1;stroke:none;stroke-width:0.39197591;stroke-miterlimit:4;stroke-dasharray:none" />
  <path
     inkscape:connector-curvature="0"
     id="path4659"
     style="font-style:normal;font-variant:normal;font-weight:normal;font-stretch:normal;font-size:119.631073px;line-height:1.25;font-family:'Cinzel Decorative Black';-inkscape-font-specification:'Cinzel Decorative Black, ';letter-spacing:0px;word-spacing:0px;fill:#488e9c;fill-opacity:1;stroke:none;stroke-width:0.39197591;stroke-miterlimit:4;stroke-dasharray:none"
     d="m 233.8615,64.542312 q -5.66052,-9.49509 -5.66052,-20.08575 0,-14.6078 10.95587,-23.73769 6.57351,-5.66054 16.25118,-7.48651 5.84313,-0.91299 9.31249,-0.91299 3.65194,0 7.6691,0.18258 4.01715,0 11.68625,2.3738 7.85169,2.37377 15.15561,5.84312 7.30389,3.28676 13.69482,9.12989 6.57351,5.8431 11.50365,12.78183 10.59067,14.97301 10.59067,36.154318 0,30.67644 -22.82473,49.1188 -22.6421,18.25975 -60.0746,18.25975 -37.43254,0 -60.43983,-18.44236 -23.00731,-18.44236 -23.00731,-48.57096 0,-24.833308 15.3382,-42.545278 15.5208,-17.89458 40.35409,-22.09432 l 1.09557,1.826 q -7.48649,7.85168 -12.05144,23.37249 -4.38234,15.33819 -4.38234,33.232768 0,29.03304 11.68626,46.56242 11.68624,17.52936 31.04159,17.52936 19.53795,0 31.22419,-15.88599 11.68624,-15.886 11.68624,-42.36268 0,-16.798988 -4.74754,-30.128608 -4.56492,-13.32963 -12.78181,-19.90313 -8.21689,-6.57353 -17.34677,-6.57353 -11.86885,0 -18.25978,7.12133 -7.48648,8.21689 -7.48648,20.45092 0,6.93871 2.00856,14.79042 z" />
  <path
     style="fill:#488e9c;fill-opacity:1;stroke:none;stroke-width:0.39135963px;stroke-linecap:butt;stroke-linejoin:miter;stroke-opacity:1"
     d="m 592.79721,85.25879 c 9.36373,-3.26323 19.33095,-5.31945 27.39516,-11.18171 l 4.7522,13.1385 -34.94273,5.35659 z"
     id="path4645"
     inkscape:connector-curvature="0"
     sodipodi:nodetypes="ccccc" />
  <path
     sodipodi:nodetypes="ccccc"
     inkscape:connector-curvature="0"
     id="path4647"
     d="m 599.56207,16.211742 c -8.87386,47.37262 -40.45455,121.867698 -58.21996,125.888778 17.53515,-1.95934 0,0 28.82022,-3.78136 17.17728,-31.16507 32.14104,-58.95079 39.83264,-102.626718 z"
     style="fill:#488e9c;fill-opacity:1;stroke:none;stroke-width:0.39135963px;stroke-linecap:butt;stroke-linejoin:miter;stroke-opacity:1" />
  <path
     sodipodi:nodetypes="ccccc"
     inkscape:connector-curvature="0"
     id="path4655"
     d="m 760.85577,16.211742 43.3291,-3.07498 43.3292,128.869178 h -42.7702 z"
     style="fill:#488e9c;fill-opacity:1;stroke:none;stroke-width:0.39135963px;stroke-linecap:butt;stroke-linejoin:miter;stroke-opacity:1" />
  <path
     sodipodi:nodetypes="ccccc"
     inkscape:connector-curvature="0"
     id="path4657"
     d="m 599.56207,16.211742 43.3291,-3.07498 43.3291,128.869178 h -42.7701 z"
     style="fill:#488e9c;fill-opacity:1;stroke:none;stroke-width:0.39135963px;stroke-linecap:butt;stroke-linejoin:miter;stroke-opacity:1" />
  <path
     style="fill:#488e9c;fill-opacity:1;stroke:none;stroke-width:0.39135963px;stroke-linecap:butt;stroke-linejoin:miter;stroke-opacity:1"
     d="m 805.85487,136.39354 c -1.9505,1.82804 -6.1359,5.28929 -7.9807,5.70684 l 17.3804,-0.0955 h -8.2361 z"
     id="path6475"
     inkscape:connector-curvature="0"
     sodipodi:nodetypes="ccccc" />
  <path
     sodipodi:nodetypes="ccccc"
     inkscape:connector-curvature="0"
     id="path6480"
     d="m 689.05467,-356.31709 38.1108,-2.70463 38.1106,113.34855 h -37.6189 z"
     style="fill:#00ff00;fill-opacity:1;stroke:none;stroke-width:0.34422544px;stroke-linecap:butt;stroke-linejoin:miter;stroke-opacity:1" />
  <path
     style="fill:#00ff00;fill-opacity:1;stroke:none;stroke-width:0.34422544px;stroke-linecap:butt;stroke-linejoin:miter;stroke-opacity:1"
     d="m 764.78437,-356.31709 38.1106,-2.70463 38.1108,113.34855 h -37.6191 z"
     id="path6482"
     inkscape:connector-curvature="0"
     sodipodi:nodetypes="ccccc" />
  <path
     style="fill:#00ff00;fill-opacity:1;stroke:none;stroke-width:0.34422544px;stroke-linecap:butt;stroke-linejoin:miter;stroke-opacity:1"
     d="m 609.32509,-356.31709 38.1107,-2.70463 38.11068,113.34855 h -37.61898 z"
     id="path6484"
     inkscape:connector-curvature="0"
     sodipodi:nodetypes="ccccc" />
  <g
     aria-label="o"
     style="font-style:normal;font-variant:normal;font-weight:normal;font-stretch:normal;font-size:160.82931519px;line-height:1.25;font-family:'Marcellus SC';-inkscape-font-specification:'Marcellus SC';letter-spacing:0px;word-spacing:0px;fill:#00ff00;fill-opacity:1;stroke:none;stroke-width:4.02073288"
     id="text6488"
     transform="translate(-342.97203,-178.84596)">
    <path
       d="m 778.07937,-182.4802 q 20.74698,0 35.70411,6.91566 15.11795,6.91566 23.15942,20.26449 8.04146,13.18801 8.04146,31.36172 0,27.501811 -17.85205,43.102255 -17.85205,15.439614 -49.05294,15.439614 -31.20089,0 -49.05294,-15.439614 -17.69123,-15.600444 -17.69123,-43.102255 0,-27.50181 17.69123,-42.94143 17.85205,-15.60044 49.05294,-15.60044 z m -22.99859,95.69344 q 8.36312,13.348833 22.99859,13.348833 14.7963,0 22.99859,-13.348833 8.36313,-13.34883 8.36313,-37.15157 0,-23.80274 -8.36313,-37.15157 -8.20229,-13.34884 -22.99859,-13.34884 -14.63547,0 -22.99859,13.34884 -8.2023,13.34883 -8.2023,37.15157 0,23.80274 8.2023,37.15157 z"
       style="font-style:normal;font-variant:normal;font-weight:normal;font-stretch:normal;font-family:'Cinzel Decorative Black';-inkscape-font-specification:'Cinzel Decorative Black, ';fill:#00ff00;stroke-width:4.02073288"
       id="path6521"
       inkscape:connector-curvature="0" />
  </g>
  <g
     aria-label="o"
     style="font-style:normal;font-variant:normal;font-weight:normal;font-stretch:normal;font-size:160.82931519px;line-height:1.25;font-family:'Marcellus SC';-inkscape-font-specification:'Marcellus SC';letter-spacing:0px;word-spacing:0px;fill:#00ff00;fill-opacity:1;stroke:none;stroke-width:4.02073288"
     id="text6492"
     transform="translate(-342.97203,-178.84596)">
    <path
       d="m 888.07937,-182.4802 q 20.74698,0 35.70411,6.91566 15.11795,6.91566 23.15942,20.26449 8.04146,13.18801 8.04146,31.36172 0,27.501811 -17.85205,43.102255 -17.85205,15.439614 -49.05294,15.439614 -31.20089,0 -49.05294,-15.439614 -17.69123,-15.600444 -17.69123,-43.102255 0,-27.50181 17.69123,-42.94143 17.85205,-15.60044 49.05294,-15.60044 z m -22.99859,95.69344 q 8.36312,13.348833 22.99859,13.348833 14.7963,0 22.99859,-13.348833 8.36313,-13.34883 8.36313,-37.15157 0,-23.80274 -8.36313,-37.15157 -8.20229,-13.34884 -22.99859,-13.34884 -14.63547,0 -22.99859,13.34884 -8.2023,13.34883 -8.2023,37.15157 0,23.80274 8.2023,37.15157 z"
       style="font-style:normal;font-variant:normal;font-weight:normal;font-stretch:normal;font-family:'Cinzel Decorative Black';-inkscape-font-specification:'Cinzel Decorative Black, ';fill:#00ff00;stroke-width:4.02073288"
       id="path6518"
       inkscape:connector-curvature="0" />
  </g>
  <g
     aria-label="o"
     style="font-style:normal;font-variant:normal;font-weight:normal;font-stretch:normal;font-size:160.82931519px;line-height:1.25;font-family:'Marcellus SC';-inkscape-font-specification:'Marcellus SC';letter-spacing:0px;word-spacing:0px;fill:#00ff00;fill-opacity:1;stroke:none;stroke-width:4.02073288"
     id="text6496"
     transform="translate(-342.97203,-178.84596)">
    <path
       d="m 648.07937,-182.4802 q 20.74698,0 35.70411,6.91566 15.11795,6.91566 23.15942,20.26449 8.04146,13.18801 8.04146,31.36172 0,27.501811 -17.85205,43.102255 -17.85205,15.439614 -49.05294,15.439614 -31.20089,0 -49.05294,-15.439614 -17.69123,-15.600444 -17.69123,-43.102255 0,-27.50181 17.69123,-42.94143 17.85205,-15.60044 49.05294,-15.60044 z m -22.99859,95.69344 q 8.36312,13.348833 22.99859,13.348833 14.7963,0 22.99859,-13.348833 8.36313,-13.34883 8.36313,-37.15157 0,-23.80274 -8.36313,-37.15157 -8.20229,-13.34884 -22.99859,-13.34884 -14.63547,0 -22.99859,13.34884 -8.2023,13.34883 -8.2023,37.15157 0,23.80274 8.2023,37.15157 z"
       style="font-style:normal;font-variant:normal;font-weight:normal;font-stretch:normal;font-family:'Cinzel Decorative Black';-inkscape-font-specification:'Cinzel Decorative Black, ';fill:#00ff00;stroke-width:4.02073288"
       id="path6524"
       inkscape:connector-curvature="0" />
  </g>
  <path
     sodipodi:nodetypes="ccccc"
     inkscape:connector-curvature="0"
     id="path6511"
     d="m 728.90057,136.39354 c -1.9505,1.82804 -6.1359,5.28929 -7.9806,5.70684 l 17.3803,-0.0955 h -8.236 z"
     style="fill:#488e9c;fill-opacity:1;stroke:none;stroke-width:0.39135963px;stroke-linecap:butt;stroke-linejoin:miter;stroke-opacity:1" />
  <path
     style="fill:#488e9c;fill-opacity:1;stroke:none;stroke-width:0.39135963px;stroke-linecap:butt;stroke-linejoin:miter;stroke-opacity:1"
     d="m 643.94637,136.39354 c -1.9505,1.82804 -6.1359,5.28929 -7.9807,5.70684 l 17.3803,-0.0955 h -8.236 z"
     id="path6513"
     inkscape:connector-curvature="0"
     sodipodi:nodetypes="ccccc" />
  <path
     sodipodi:nodetypes="cccccc"
     inkscape:connector-curvature="0"
     id="path4660"
     d="m 763.16757,17.244052 21.3642,-1.71676 c -12.7057,59.289538 -17.4056,111.370598 -6,126.479888 l -35.3642,-0.0809 c 0,-42.09252 -0.9661,44.7042 20,-124.682218 z"
     style="fill:#488e9c;fill-opacity:1;stroke-width:0.85280287" />
  <path
     style="fill:#488e9c;fill-opacity:1;stroke:none;stroke-width:0.39135963px;stroke-linecap:butt;stroke-linejoin:miter;stroke-opacity:1"
     d="m 684.20887,16.211742 43.3292,-3.07498 43.3291,128.869178 h -42.77 z"
     id="path4653"
     inkscape:connector-curvature="0"
     sodipodi:nodetypes="ccccc" />
  <path
     style="fill:#488e9c;fill-opacity:1;stroke-width:0.85280287"
     d="m 708.53187,15.527092 -21.3652,1.71679 c -3.8477,31.0857 -6.951,53.48183 -9.4629,69.691408 l 18.5137,55.06641 8.3144,0.006 c -12.3589,-22.74178 -9.1501,-70.737588 4,-126.480468 z"
     id="path5975"
     inkscape:connector-curvature="0"
     sodipodi:nodetypes="ccccccc" />
  <path
     style="fill:#488e9c;fill-opacity:1;stroke:none;stroke-width:0.6255241"
     d="m 206.17758,-343.61838 -0.32031,99.06055 c 1.03702,0.78775 2.08147,1.57583 3.12109,2.36524 l -0.0273,-0.15821 c 0.2773,0.14221 0.60159,0.30791 0.88477,0.45313 l 0.0117,0.0703 c 30.11344,15.51168 61.29814,31.47327 88.18164,45.25977 l -3.08203,-17.82422 -2.76171,-1.42383 1.83789,10.64453 -2.45118,-1.25781 -1.83789,-10.64258 -4.10156,-2.10156 1.24024,7.10351 -2.15626,-1.10351 -1.22265,-7.11719 -4.32617,-2.22461 1.82617,10.62695 -2.45117,-1.25586 -1.82618,-10.62695 -4.11914,-2.08789 1.24024,7.10352 -2.15625,-1.10547 -1.22266,-7.11524 -4.32422,-2.22656 1.82618,10.62695 -2.45313,-1.25586 -1.82617,-10.62695 -4.11328,-2.11719 1.23633,7.13282 -2.13868,-1.11719 -1.24218,-7.10352 -4.33594,-2.24218 1.83789,10.64453 -2.45313,-1.25586 -1.82421,-10.62696 -4.10157,-2.10156 1.22657,7.08594 -2.15625,-1.10352 -1.22657,-7.08593 -4.32617,-2.22657 1.82617,10.62696 -2.46484,-1.27149 -1.82617,-10.6289 -4.09961,-2.09961 1.24023,7.10351 -2.15625,-1.10351 -1.24023,-7.10352 -4.32617,-2.22656 1.82617,10.62695 -2.4336,-1.26758 -1.84375,-10.61523 -1.64843,-0.84375 -4.71347,-1.08074 -0.33536,-3.18684 -0.0977,0.0937 -5.96484,-4.51758 -0.0176,-2.76367 8.60156,6.50195 0.01,-4.86328 -5.73242,-4.3457 0.01,-2.42188 5.73047,4.34375 0.0176,-4.60742 -8.60156,-6.50195 0.0117,-2.75586 8.60156,6.50391 0.008,-4.86524 -5.74023,-4.36328 0.01,-2.42187 5.74024,4.36328 0.0176,-4.60743 -8.5996,-6.5039 0.01,-2.75391 8.60156,6.50196 0.01,-4.86329 -5.74024,-4.36328 -0.0117,-2.41406 5.75976,4.35352 0.0176,-4.60743 -8.60156,-6.50195 0.0117,-2.75586 8.60156,6.50391 0.008,-4.86524 -5.75977,-4.35351 0.01,-2.42188 5.74023,4.36328 0.0371,-4.61718 -8.61132,-6.52149 0.01,-2.75586 8.61133,6.52149 0.01,-4.86328 -5.76954,-4.37305 0.01,-2.42383 5.75,4.38281 0.0176,-4.60742 -8.61133,-6.52148 0.01,-2.75586 8.61132,6.52148 0.002,-3.10547 z"
     id="rect3869-6"
     inkscape:connector-curvature="0"
     sodipodi:nodetypes="ccccccccccccccccccccccccccccccccccccccccccccccccccccccccccccccccccccccccccccccccccccccccccccccccccccc" />
  <path
     style="font-style:normal;font-variant:normal;font-weight:normal;font-stretch:normal;font-size:119.631073px;line-height:1.25;font-family:'Cinzel Decorative Black';-inkscape-font-specification:'Cinzel Decorative Black, ';letter-spacing:0px;word-spacing:0px;fill:#488e9c;fill-opacity:1;stroke:none;stroke-width:0.39197591;stroke-miterlimit:4;stroke-dasharray:none"
     d="m 401.72328,10.327872 c -17.40774,0 -29.00704,2.61709 -41.05859,7.85156 -11.3411,4.97621 -20.14931,12.09642 -26.42969,21.36328 7.2897,10.92541 10.9375,23.9887 10.9375,39.187498 0,14.09275 -3.22625,26.45459 -9.66601,37.09571 2.69001,3.60712 5.83911,6.90986 9.45507,9.90234 14.24266,11.56456 30.71101,17.34766 55.66602,17.34766 25.07677,0.12173 42.11873,-7.36431 51.12695,-22.45899 0.0119,-0.0219 0.0237,-0.043 0.0352,-0.0645 -3.99471,-5.76399 -7.05906,-12.15939 -9.16992,-19.07422 -2.9745,10.42527 -6.6199,17.91923 -10.95118,22.42383 -6.45183,6.81702 -16.8603,10.22656 -31.2246,10.22656 -12.41662,-0.36517 -19.02161,-5.66124 -26.08204,-15.88672 -6.93868,-10.22548 -10.41015,-24.22323 -10.41015,-41.99609 0,-17.894558 3.77488,-31.834388 11.32226,-41.816408 7.54727,-9.98202 14.94682,-14.97266 28.45899,-14.97266 9.982,0 18.96652,1.54178 25.01367,7.85157 5.61717,5.86116 13.06172,14.98111 12.40039,23.94531 -0.16928,2.2946 -1.3013,3.81568 -4.03929,5.59719 1.60178,-0.36108 4.16268,-1.32192 4.99242,-2.56008 5.55887,-12.1296 8.05807,-20.42693 17.13281,-29.58203 -2.00306,-1.30981 -4.24966,-2.63948 -6.8457,-3.99414 -13.1471,-5.59966 -33.25645,-10.38672 -50.66407,-10.38672 z"
     id="path4661"
     inkscape:connector-curvature="0"
     sodipodi:nodetypes="cccscccccccccscscaccccsc" />
</svg>
