<?xml version="1.0" encoding="UTF-8" standalone="no"?>
<svg
   xmlns:dc="http://purl.org/dc/elements/1.1/"
   xmlns:cc="http://creativecommons.org/ns#"
   xmlns:rdf="http://www.w3.org/1999/02/22-rdf-syntax-ns#"
   xmlns:svg="http://www.w3.org/2000/svg"
   xmlns="http://www.w3.org/2000/svg"
   xmlns:sodipodi="http://sodipodi.sourceforge.net/DTD/sodipodi-0.dtd"
   xmlns:inkscape="http://www.inkscape.org/namespaces/inkscape"
   version="1.1"
   width="32"
   height="32"
   data-icon="people"
   data-container-transform="translate(0 8)"
   viewBox="0 0 32 32"
   id="svg2"
   inkscape:version="0.91 r13725"
   sodipodi:docname="book.svg"
   inkscape:export-filename="architecture.png"
   inkscape:export-xdpi="56.25"
   inkscape:export-ydpi="56.25">
  <metadata
     id="metadata10">
    <rdf:RDF>
      <cc:Work
         rdf:about="">
        <dc:format>image/svg+xml</dc:format>
        <dc:type
           rdf:resource="http://purl.org/dc/dcmitype/StillImage" />
        <dc:title></dc:title>
      </cc:Work>
    </rdf:RDF>
  </metadata>
  <defs
     id="defs8" />
  <sodipodi:namedview
     pagecolor="#ffffff"
     bordercolor="#666666"
     borderopacity="1"
     objecttolerance="10"
     gridtolerance="10"
     guidetolerance="10"
     inkscape:pageopacity="0"
     inkscape:pageshadow="2"
     inkscape:window-width="1920"
     inkscape:window-height="1057"
     id="namedview6"
     showgrid="false"
     inkscape:zoom="11.313709"
     inkscape:cx="35.653626"
     inkscape:cy="14.043389"
     inkscape:window-x="-8"
     inkscape:window-y="1072"
     inkscape:window-maximized="1"
     inkscape:current-layer="svg2" />
  <rect
     transform="matrix(-0.99129926,0.13162741,0.13162741,0.99129926,0,0)"
     ry="0.87929183"
     y="16.834887"
     x="-48.223755"
     height="9.0625"
     width="16.3125"
     id="rect4234"
     style="opacity:1;fill:#6aa3ae;fill-opacity:1;stroke:none;stroke-width:0.1;stroke-miterlimit:4;stroke-dasharray:none" />
  <rect
     style="opacity:1;fill:#6aa3ae;fill-opacity:1;stroke:none;stroke-width:0.1;stroke-miterlimit:4;stroke-dasharray:none"
     id="rect4232"
     width="16.3125"
     height="9.0625"
     x="53.694206"
     y="3.3019388"
     ry="0.87929183"
     transform="matrix(0.99129926,0.13162741,-0.13162741,0.99129926,0,0)" />
  <rect
     style="opacity:1;fill:#6aa3ae;fill-opacity:1;stroke:none;stroke-width:0.1;stroke-miterlimit:4;stroke-dasharray:none"
     id="rect4222"
     width="4.5"
     height="15.9375"
     x="49.125"
     y="4.4375"
     ry="0.29713982" />
  <path
     style="opacity:1;fill:#6aa3ae;fill-opacity:1;stroke:none"
     d="M 6.6523438 0.5 C 6.2563202 0.5 5.9375 0.81882021 5.9375 1.2148438 L 5.9375 30.285156 C 5.9375 30.68118 6.2563203 31 6.6523438 31 L 25.035156 31 C 25.43118 31 25.75 30.68118 25.75 30.285156 L 25.75 30.25 L 7.2539062 30.25 C 7.2173502 30.25 7.1875 30.22015 7.1875 30.183594 L 7.1875 29.941406 C 7.1875 29.90485 7.2173502 29.875 7.2539062 29.875 L 25.75 29.875 L 25.75 29.583984 L 7.2539062 29.583984 C 7.2173502 29.583984 7.1875 29.554134 7.1875 29.517578 L 7.1875 29.273438 C 7.1875 29.236881 7.2173502 29.208984 7.2539062 29.208984 L 25.75 29.208984 L 25.75 28.916016 L 7.2539062 28.916016 C 7.2173502 28.916016 7.1875 28.888119 7.1875 28.851562 L 7.1875 28.607422 C 7.1875 28.570866 7.2173502 28.541016 7.2539062 28.541016 L 25.75 28.541016 L 25.75 28.25 L 7.2539062 28.25 C 7.2173502 28.25 7.1875 28.22015 7.1875 28.183594 L 7.1875 27.941406 C 7.1875 27.90485 7.2173502 27.875 7.2539062 27.875 L 25.75 27.875 L 25.75 27.583984 L 7.2539062 27.583984 C 7.2173502 27.583984 7.1875 27.554134 7.1875 27.517578 L 7.1875 27.273438 C 7.1875 27.236881 7.2173502 27.208984 7.2539062 27.208984 L 25.75 27.208984 L 25.75 26.916016 L 7.2539062 26.916016 C 7.2173502 26.916016 7.1875 26.888119 7.1875 26.851562 L 7.1875 26.607422 C 7.1875 26.570866 7.2173502 26.541016 7.2539062 26.541016 L 25.75 26.541016 L 25.75 26.25 L 7.2539062 26.25 C 7.2173502 26.25 7.1875 26.22015 7.1875 26.183594 L 7.1875 25.941406 C 7.1875 25.90485 7.2173502 25.875 7.2539062 25.875 L 25.75 25.875 L 25.75 24.75 L 7.59375 24.75 C 7.4033125 24.75 7.25 24.596688 7.25 24.40625 C 7.25 24.215812 7.4033125 24.0625 7.59375 24.0625 L 25.75 24.0625 L 25.75 1.2148438 C 25.75 0.81882021 25.43118 0.5 25.035156 0.5 L 6.6523438 0.5 z M 7.71875 1.4375 C 7.9091875 1.4375 8.0625 1.5908125 8.0625 1.78125 L 8.0625 22.65625 C 8.0625 22.846688 7.9091875 23 7.71875 23 C 7.5283125 23 7.375 22.846688 7.375 22.65625 L 7.375 1.78125 C 7.375 1.5908125 7.5283125 1.4375 7.71875 1.4375 z "
     id="rect4178" />
  <path
     sodipodi:type="inkscape:offset"
     inkscape:radius="0.36132982"
     inkscape:original="M 47.003906 3.8339844 C 41.848896 4.0792633 38.218798 9.0490425 33.966797 12.125 C 33.976797 15.26258 35.744061 16.171743 33.966797 21.6875 C 39.570964 18.848854 45.17513 16.028988 50.779297 19 L 50.841797 4.5 C 49.463223 3.9720154 48.193524 3.7773816 47.003906 3.8339844 z M 55.806641 3.8339844 C 54.617023 3.7773816 53.34537 3.9720154 51.966797 4.5 L 52.029297 19 C 57.633464 16.028988 63.23763 18.848854 68.841797 21.6875 C 67.064533 16.171743 68.831797 15.26258 68.841797 12.125 C 64.589796 9.0490425 60.961651 4.0792633 55.806641 3.8339844 z "
     style="fill:#ffffff;fill-opacity:1;fill-rule:evenodd;stroke:none;stroke-width:1px;stroke-linecap:butt;stroke-linejoin:miter;stroke-opacity:1"
     id="path4230"
     d="m 46.986328,3.4726562 c -2.689205,0.1279543 -4.956472,1.4849535 -7.064453,3.1621094 -2.107981,1.677156 -4.075326,3.6848314 -6.166016,5.1972654 a 0.36136596,0.36136596 0 0 0 -0.15039,0.294922 c 0.0052,1.636518 0.463019,2.686577 0.675781,3.947266 0.212762,1.260688 0.21793,2.782866 -0.658203,5.501953 a 0.36136596,0.36136596 0 0 0 0.507812,0.433594 c 2.801797,-1.419178 5.583218,-2.819767 8.328125,-3.494141 2.744908,-0.674374 5.434143,-0.637267 8.150391,0.802734 a 0.36136596,0.36136596 0 0 0 0.53125,-0.316406 l 0.0625,-14.4999999 A 0.36136596,0.36136596 0 0 0 50.970703,4.1621094 C 49.550626,3.6182293 48.227416,3.4136045 46.986328,3.4726562 Z m 8.837891,0 c -1.241107,-0.059053 -2.566146,0.1455323 -3.986328,0.6894532 a 0.36136596,0.36136596 0 0 0 -0.232422,0.3398437 l 0.0625,14.4999999 a 0.36136596,0.36136596 0 0 0 0.53125,0.316406 c 2.716248,-1.440001 5.405483,-1.477108 8.15039,-0.802734 2.744908,0.674374 5.526328,2.074963 8.328125,3.494141 a 0.36136596,0.36136596 0 0 0 0.507813,-0.433594 c -0.876133,-2.719087 -0.870965,-4.241265 -0.658203,-5.501953 0.212761,-1.260689 0.670565,-2.310748 0.675781,-3.947266 A 0.36136596,0.36136596 0 0 0 69.052734,11.832031 C 66.962066,10.319612 64.996165,8.3119264 62.888672,6.6347656 60.781179,4.9576049 58.513426,3.6006106 55.824219,3.4726562 Z" />
  <path
     sodipodi:nodetypes="ccccc"
     inkscape:connector-curvature="0"
     id="path4214"
     d="m 50.77961,19 c -5.604167,-2.971012 -11.208333,-0.151146 -16.8125,2.6875 1.777264,-5.515757 0.01,-6.42492 0,-9.5625 5.233232,-3.7857939 9.522608,-10.4409176 16.875,-7.625 z"
     style="fill:#6aa3ae;fill-rule:evenodd;stroke:none;stroke-width:1px;stroke-linecap:butt;stroke-linejoin:miter;stroke-opacity:1;fill-opacity:1" />
  <path
     style="fill:#6aa3ae;fill-opacity:1;fill-rule:evenodd;stroke:none;stroke-width:1px;stroke-linecap:butt;stroke-linejoin:miter;stroke-opacity:1"
     d="m 52.02961,19 c 5.604167,-2.971012 11.208333,-0.151146 16.8125,2.6875 -1.777264,-5.515757 -0.01,-6.42492 0,-9.5625 C 63.608878,8.3392061 59.319502,1.6840824 51.96711,4.5 Z"
     id="path4220"
     inkscape:connector-curvature="0"
     sodipodi:nodetypes="ccccc" />
</svg>
