<?xml version="1.0" encoding="UTF-8" standalone="no"?>
<svg
   xmlns:dc="http://purl.org/dc/elements/1.1/"
   xmlns:cc="http://creativecommons.org/ns#"
   xmlns:rdf="http://www.w3.org/1999/02/22-rdf-syntax-ns#"
   xmlns:svg="http://www.w3.org/2000/svg"
   xmlns="http://www.w3.org/2000/svg"
   xmlns:sodipodi="http://sodipodi.sourceforge.net/DTD/sodipodi-0.dtd"
   xmlns:inkscape="http://www.inkscape.org/namespaces/inkscape"
   version="1.1"
   width="32"
   height="32"
   data-icon="people"
   data-container-transform="translate(0 8)"
   viewBox="0 0 32 32"
   id="svg2"
   inkscape:version="0.92.2 2405546, 2018-03-11"
   sodipodi:docname="readonly-url.svg"
   inkscape:export-filename="readonly-url.png"
   inkscape:export-xdpi="1800"
   inkscape:export-ydpi="1800">
  <metadata
     id="metadata10">
    <rdf:RDF>
      <cc:Work
         rdf:about="">
        <dc:format>image/svg+xml</dc:format>
        <dc:type
           rdf:resource="http://purl.org/dc/dcmitype/StillImage" />
        <dc:title></dc:title>
      </cc:Work>
    </rdf:RDF>
  </metadata>
  <defs
     id="defs8" />
  <sodipodi:namedview
     pagecolor="#ffffff"
     bordercolor="#666666"
     borderopacity="1"
     objecttolerance="10"
     gridtolerance="10"
     guidetolerance="10"
     inkscape:pageopacity="0"
     inkscape:pageshadow="2"
     inkscape:window-width="1920"
     inkscape:window-height="1152"
     id="namedview6"
     showgrid="false"
     inkscape:zoom="5.6568542"
     inkscape:cx="-23.269728"
     inkscape:cy="24.363206"
     inkscape:window-x="0"
     inkscape:window-y="20"
     inkscape:window-maximized="1"
     inkscape:current-layer="svg2"
     showguides="true"
     inkscape:snap-others="false"
     inkscape:snap-object-midpoints="false"
     inkscape:snap-center="false"
     inkscape:object-nodes="false"
     inkscape:snap-nodes="false" />
  <path
     style="fill:#6aa3ae;fill-opacity:1;stroke:none;stroke-width:1.21560097;stroke-miterlimit:4;stroke-dasharray:7.29360587, 7.29360587;stroke-dashoffset:0;stroke-opacity:1"
     d="m 16.056012,11.980668 c -1.799634,0.01406 -3.626079,0.499268 -5.514269,1.429268 a 4.9057957,4.9057957 0 0 0 -0.274265,1.597303 4.9057957,4.9057957 0 0 0 4.905864,4.905863 4.9057957,4.9057957 0 0 0 4.907796,-4.905863 4.9057957,4.9057957 0 0 0 -0.710771,-2.528259 c -1.107796,-0.328624 -2.20994,-0.506964 -3.314355,-0.498312 z m -0.828589,0.372768 a 2.6267619,2.6267619 0 0 1 2.626761,2.626763 2.6267619,2.6267619 0 0 1 -2.626761,2.626761 2.6267619,2.6267619 0 0 1 -2.626762,-2.626761 2.6267619,2.6267619 0 0 1 2.626762,-2.626763 z"
     id="circle842"
     inkscape:connector-curvature="0" />
  <path
     sodipodi:nodetypes="ssscsss"
     inkscape:connector-curvature="0"
     id="path836"
     d="m -13.129666,9.1064558 c -0.09463,0.2438521 -1.155154,0.2388344 -1.298737,0.220132 -0.519715,-0.067695 -3.095922,0.4676818 -5.671783,0.6355772 -0.425991,0.027766 -4.918844,-0.040957 -5.600566,-2.0874833 0.02454,-0.2233355 2.827493,-3.2605712 5.968551,-3.3476898 1.884444,-0.052266 4.367624,1.2633025 5.988047,3.2779878 0.49488,0.615288 0.723357,1.0209277 0.614488,1.3014761 z"
     style="opacity:1;fill:#808080;fill-opacity:1;stroke:none;stroke-width:1.06705737;stroke-miterlimit:4;stroke-dasharray:6.40234476, 6.40234476;stroke-dashoffset:0;stroke-opacity:1" />
  <path
     style="opacity:1;fill:#ffffff;fill-opacity:1;stroke:none;stroke-width:0.92621881;stroke-miterlimit:4;stroke-dasharray:5.55731306, 5.55731306;stroke-dashoffset:0;stroke-opacity:1"
     d="m -13.346641,8.974835 c -0.08214,0.2116666 -1.246814,0.058103 -1.371448,0.041888 -0.464415,-0.060422 -3.601157,0.4443014 -5.058804,0.6873152 -0.365505,0.060936 -3.50535,0.026949 -5.236359,-1.7494605 1.253449,-1.3326952 2.724159,-2.3959073 5.501524,-2.6699562 1.538055,-0.1517633 3.282824,0.7981827 5.251948,2.546954 0.51247,0.4551224 1.007638,0.8997404 0.913139,1.1432595 z"
     id="path820"
     inkscape:connector-curvature="0"
     sodipodi:nodetypes="ssscsss" />
  <g
     transform="matrix(0.0416685,0,0,0.0416685,13.125756,12.883509)"
     id="g4760"
     style="fill:#6aa3ae;fill-opacity:1">
    <g
       id="g4762"
       style="fill:#6aa3ae;fill-opacity:1">
      <path
         inkscape:connector-curvature="0"
         d="M 75.394,58.138 88.067,45.463 c 9.245,-9.243 9.245,-24.286 0,-33.529 -9.244,-9.246 -24.286,-9.246 -33.53,0 L 36.248,30.223 c -9.245,9.243 -9.245,24.286 0,33.529 1.365,1.366 2.859,2.524 4.44,3.486 l 9.791,-9.792 C 48.614,57 46.845,56.059 45.393,54.608 c -4.202,-4.202 -4.202,-11.04 0,-15.241 L 63.682,21.078 c 4.202,-4.202 11.04,-4.202 15.241,0 4.202,4.202 4.202,11.039 0,15.241 l -5.373,5.374 c 2.214,5.211 2.826,10.942 1.844,16.445 z"
         id="path4764"
         style="fill:#6aa3ae;fill-opacity:1" />
    </g>
    <g
       id="g4766"
       style="fill:#6aa3ae;fill-opacity:1">
      <path
         inkscape:connector-curvature="0"
         d="M 24.607,41.862 11.934,54.536 c -9.246,9.244 -9.246,24.286 0,33.53 9.243,9.245 24.286,9.245 33.53,0 L 63.752,69.777 c 9.245,-9.244 9.244,-24.286 0,-33.529 -1.364,-1.366 -2.858,-2.524 -4.439,-3.486 l -9.791,9.792 c 1.864,0.447 3.633,1.386 5.086,2.838 4.202,4.202 4.202,11.039 0,15.241 l -18.29,18.289 c -4.202,4.202 -11.039,4.202 -15.241,0 -4.202,-4.202 -4.202,-11.039 0,-15.241 l 5.374,-5.373 C 24.236,53.097 23.624,47.365 24.607,41.862 Z"
         id="path4768"
         style="fill:#6aa3ae;fill-opacity:1" />
    </g>
  </g>
  <text
     x="2.2629106"
     y="43.674801"
     font-size="5px"
     font-weight="bold"
     id="text4770"
     style="font-weight:bold;font-size:1.36620855px;line-height:0%;font-family:'Helvetica Neue', Helvetica, Arial-Unicode, Arial, Sans-serif;fill:#000000">Created by Nathan Diesel</text>
  <text
     x="2.2629106"
     y="45.041008"
     font-size="5px"
     font-weight="bold"
     id="text4772"
     style="font-weight:bold;font-size:1.36620855px;line-height:0%;font-family:'Helvetica Neue', Helvetica, Arial-Unicode, Arial, Sans-serif;fill:#000000">from the Noun Project</text>
  <circle
     style="fill:#008000;fill-opacity:1;stroke:none;stroke-width:0.60486591;stroke-miterlimit:4;stroke-dasharray:3.62919546, 3.62919546;stroke-dashoffset:0;stroke-opacity:1"
     id="path818"
     cx="-19.995737"
     cy="6.9716291"
     r="2.4410548" />
  <circle
     r="1.0960829"
     cy="6.9716291"
     cx="-19.995737"
     id="circle823"
     style="fill:#000000;fill-opacity:1;stroke:none;stroke-width:0.271597;stroke-miterlimit:4;stroke-dasharray:1.62958198, 1.62958198;stroke-dashoffset:0;stroke-opacity:1" />
  <path
     style="opacity:1;fill:#6aa3ae;fill-opacity:1;stroke:none;stroke-width:2.14446855;stroke-miterlimit:4;stroke-dasharray:12.86681301, 12.86681301;stroke-dashoffset:0;stroke-opacity:1"
     d="m 15.702856,9.911351 c -6.3125935,0.175085 -11.9448347,6.27895 -11.9941528,6.727789 1.3700587,4.112904 10.4017188,4.253202 11.2578338,4.197393 5.176716,-0.337418 10.353522,-1.416206 11.397996,-1.280149 0.288559,0.03758 2.420578,0.05089 2.610756,-0.439175 0.218794,-0.56382 -0.242604,-1.381688 -1.237166,-2.618232 C 24.481554,12.450054 19.49003,9.8063037 15.702856,9.911351 Z m 0.349472,1.797815 c 3.503913,-0.02745 6.95622,1.601504 10.650463,4.844008 1.029913,0.91466 2.026975,1.807391 1.837061,2.296793 -0.165077,0.425387 -2.509785,0.118544 -2.760263,0.08596 -0.933336,-0.121425 -6.427241,0.888943 -9.356678,1.377328 -0.734557,0.122474 -7.8543278,0.05665 -11.3331423,-3.5134 3.9022615,-3.379999 7.4586453,-5.063245 10.9625593,-5.090694 z"
     id="path867"
     inkscape:connector-curvature="0"
     sodipodi:nodetypes="ccccccccccccccc" />
  <path
     style="opacity:1;fill:#6aa3ae;fill-opacity:1;stroke:none;stroke-width:0.39100036;stroke-miterlimit:4;stroke-dasharray:2.3460022, 2.3460022;stroke-dashoffset:0;stroke-opacity:1"
     d="m 16,1.2418472 c -0.460706,0.00462 -0.920941,0.030813 -1.379197,0.078491 l 0.620451,6.5951022 0.110261,1.1811007 c 0.109727,-0.00628 0.216659,-0.02497 0.327045,-0.028032 0.317883,-0.00882 0.64275,0.00428 0.969925,0.028032 l 0.110261,-1.181101 0.622319,-6.6044462 C 16.922045,1.2663787 16.461183,1.2433045 16,1.2418472 Z m -2.468725,0.209309 C 12.62294,1.6085311 11.73135,1.8506685 10.868193,2.1743934 l 2.306136,6.2138609 0.355078,0.9531033 c 0.428394,-0.091258 0.864611,-0.1565693 1.306311,-0.2018335 L 14.641361,7.9957998 Z M 18.466856,1.4642382 17.358639,7.9958 17.164282,9.1451306 c 0.426328,0.051863 0.857754,0.1330675 1.29323,0.2354726 l 0.36816,-0.9923491 2.304267,-6.2063855 C 20.266593,1.8600527 19.375005,1.6197935 18.466856,1.4642382 Z m 3.677859,1.1343799 -2.760264,6.0213713 -0.407404,0.8876944 c 0.437513,0.1216577 0.877618,0.2726221 1.317525,0.4410439 L 20.700108,9.3787346 24.534949,3.9740774 C 23.78288,3.4419916 22.982643,2.9814953 22.144715,2.5986181 Z M 9.8552863,2.6004822 C 9.0185032,2.9847622 8.2195205,3.4465077 7.4687897,3.9796836 l 3.8311023,5.3990507 0.356947,0.5027159 C 12.095627,9.721883 12.54203,9.578473 13.000527,9.4609628 L 12.615549,8.6199892 Z M 25.409561,4.639376 21.178529,9.7468899 20.832795,10.165508 c 0.469538,0.199529 0.937298,0.42239 1.401624,0.67091 l 0.01869,-0.01495 5.103776,-4.2272953 C 26.770246,5.8831954 26.118289,5.228737 25.409561,4.6393806 Z M 6.5941771,4.6431183 C 5.8831954,5.229755 5.228737,5.8817106 4.6393806,6.5904395 L 9.6627964,10.752325 C 10.127091,10.512512 10.610764,10.292564 11.107402,10.090758 L 10.821471,9.7468941 Z M 3.974077,7.4650521 C 3.4419915,8.2171193 2.9814953,9.0173569 2.5986179,9.8552863 L 7.4519702,12.081063 C 7.9578868,11.73522 8.4967945,11.399535 9.0666397,11.07937 Z m 24.046239,0.00374 -5.206561,3.6946769 c 0.524319,0.305239 1.041184,0.639182 1.547392,1.001694 L 29.399513,9.8552863 C 29.015237,9.0185032 28.553492,8.2195205 28.020316,7.4687899 Z m 1.80529,3.3994029 -4.810368,1.784733 c 0.602474,0.469174 1.183988,0.978353 1.73988,1.521227 l 3.793725,-0.642878 C 30.391469,12.62294 30.149333,11.73135 29.825606,10.868193 Z m -27.6437371,0.0019 c -0.3218165,0.863335 -0.5620757,1.754923 -0.717631,2.663072 l 3.4218283,0.581207 C 5.4235527,13.624316 6.0320298,13.107453 6.760503,12.570703 Z m -0.870875,3.748857 c -0.044615,0.45902 -0.06769,0.919882 -0.069147,1.381065 0.00462,0.460707 0.030813,0.920941 0.078491,1.379197 L 3.0340553,17.218496 C 2.9903283,17.115773 2.9447533,17.0142 2.9088437,16.9064 c -0.038818,-0.115372 -0.052206,-0.23778 -0.039246,-0.358815 0.045007,-0.409609 0.1371367,-0.410432 0.2074401,-0.517666 0.070304,-0.107235 0.1507538,-0.21434 0.2485544,-0.334522 0.1841507,-0.226291 0.4400753,-0.506108 0.7456632,-0.816678 z m 29.3686681,0.0019 -3.1957,0.300881 c 0.314112,0.3396 0.621054,0.686692 0.91199,1.048415 0.377463,0.469303 0.666276,0.880457 0.91012,1.280149 l 1.382934,0.130817 c 0.04462,-0.459022 0.06769,-0.919882 0.06916,-1.381065 -0.0045,-0.460706 -0.03081,-0.920941 -0.07848,-1.379197 z M 3.5461149,18.113647 1.4511562,18.468725 c 0.157375,0.908335 0.3995123,1.799925 0.7232372,2.663083 L 5.6504179,19.842315 C 5.6053149,19.818003 5.5566848,19.798169 5.5121243,19.773169 4.7487892,19.344894 4.056028,18.799932 3.5461149,18.113647 Z M 29.80318,18.341644 c 0.08513,0.351946 0.09992,0.716749 -0.04112,1.080184 -0.240303,0.619237 -0.678116,0.693409 -0.999823,0.786779 -0.321105,0.09319 -0.65016,0.136888 -0.977399,0.166325 l 2.033287,0.755007 c 0.321817,-0.863346 0.562076,-1.754934 0.717632,-2.663083 z M 6.6222097,20.30018 2.6004869,22.144715 c 0.3842753,0.836783 0.8460208,1.635765 1.3791967,2.386495 l 4.944925,-3.507794 C 8.1441701,20.839402 7.3641987,20.606048 6.6222097,20.30018 Z m 19.0340373,0.127079 c -0.203546,0.01475 -0.415678,0.02906 -0.682123,0.06167 -0.585022,0.07159 -1.38345,0.187411 -2.218302,0.306489 l 5.270101,3.73953 c 0.532085,-0.752069 0.992582,-1.552306 1.375459,-2.390234 z m -3.730186,0.480289 c -0.519716,0.07342 -1.106393,0.146936 -1.678209,0.222391 l 0.930677,1.123167 4.227294,5.103776 c 0.710982,-0.586636 1.36544,-1.238593 1.954796,-1.947321 L 22.253106,21.178529 Z M 9.7319437,21.189742 4.6431183,25.405823 c 0.5866367,0.710982 1.2385923,1.36544 1.9473212,1.954796 l 4.2310315,-5.107513 0.646616,-0.781171 c -0.553359,-0.06795 -1.136586,-0.165311 -1.7361433,-0.282193 z m 9.9627333,0.01309 c -0.417985,0.05321 -0.801576,0.105184 -1.237165,0.155112 l 0.926939,2.022075 2.760264,6.019502 C 22.981498,29.015245 23.78048,28.5535 24.53121,28.020324 l -3.831102,-5.39905 z m -1.687553,0.203702 c -0.356,0.03898 -0.705837,0.08114 -1.068971,0.115867 l 0.420486,2.481806 1.110086,6.544645 c 0.908335,-0.157375 1.799925,-0.399511 2.663083,-0.723238 l -2.306136,-6.21386 z m -5.933537,0.125212 -0.773695,1.089528 -3.8348399,5.404657 c 0.7520672,0.532085 1.5523048,0.992582 2.3902342,1.375459 l 2.7602627,-6.021371 0.796121,-1.736143 c -0.153061,-0.0084 -0.259759,-0.0084 -0.4317,-0.02055 -0.271678,-0.01912 -0.600957,-0.061 -0.906383,-0.09157 z m 4.447817,0.0243 c -0.348484,0.03127 -0.698804,0.05839 -1.050283,0.0841 l -0.229867,2.444431 -0.622319,6.604446 c 0.459021,0.04461 0.919882,0.06769 1.381065,0.06915 0.460707,-0.0045 0.920941,-0.03081 1.379197,-0.07848 L 16.758746,24.08459 Z m -2.625707,0.112129 -0.721368,1.943584 -2.304268,6.206386 c 0.863346,0.321816 1.754933,0.562074 2.663083,0.71763 l 1.108217,-6.531562 0.394323,-2.328561 c -0.005,3.29e-4 -0.0099,0.0015 -0.01495,0.0019 -0.213706,0.01394 -0.624954,0.0091 -1.125035,-0.0094 z"
     id="path888"
     inkscape:connector-curvature="0"
     sodipodi:nodetypes="ccccccccccccccccccccccccccccccccccccccccccccccccccccccccccccccccccccccccccccsscccccccccccccccccccccccccccccccccccccccccccccccccccccccccccccccccccccccccccccccccccc" />
  <circle
     r="15.423766"
     cy="33"
     cx="-21.75"
     id="circle936"
     style="opacity:1;fill:#00ff00;fill-opacity:1;stroke:none;stroke-width:1.04387462;stroke-miterlimit:4;stroke-dasharray:6.26324777, 6.26324777;stroke-dashoffset:0;stroke-opacity:1" />
  <path
     inkscape:connector-curvature="0"
     id="path938"
     d="m -21.690533,28.79915 c -1.880808,0.0147 -3.790301,0.52127 -5.763659,1.493218 a 5.1270746,5.1270746 0 0 0 -0.287158,1.669616 5.1270746,5.1270746 0 0 0 5.127811,5.127812 5.1270746,5.1270746 0 0 0 5.127812,-5.127812 5.1270746,5.1270746 0 0 0 -0.742506,-2.641848 c -1.157764,-0.343446 -2.30807,-0.530028 -3.4623,-0.520986 z m -0.923006,0.763018 a 2.30216,2.30216 0 0 1 2.301362,2.301362 2.30216,2.30216 0 0 1 -2.301362,2.305464 2.30216,2.30216 0 0 1 -2.301362,-2.305464 2.30216,2.30216 0 0 1 2.301362,-2.301362 z"
     style="fill:#6aa3ae;fill-opacity:1;stroke:none;stroke-width:1.2704314;stroke-miterlimit:4;stroke-dasharray:7.62258829, 7.62258829;stroke-dashoffset:0;stroke-opacity:1" />
  <g
     style="fill:#6aa3ae;fill-opacity:1"
     id="g948"
     transform="matrix(0.03062922,0,0,0.03062922,-24.156308,30.43723)">
    <g
       style="fill:#6aa3ae;fill-opacity:1"
       id="g942">
      <path
         style="fill:#6aa3ae;fill-opacity:1"
         id="path940"
         d="M 75.394,58.138 88.067,45.463 c 9.245,-9.243 9.245,-24.286 0,-33.529 -9.244,-9.246 -24.286,-9.246 -33.53,0 L 36.248,30.223 c -9.245,9.243 -9.245,24.286 0,33.529 1.365,1.366 2.859,2.524 4.44,3.486 l 9.791,-9.792 C 48.614,57 46.845,56.059 45.393,54.608 c -4.202,-4.202 -4.202,-11.04 0,-15.241 L 63.682,21.078 c 4.202,-4.202 11.04,-4.202 15.241,0 4.202,4.202 4.202,11.039 0,15.241 l -5.373,5.374 c 2.214,5.211 2.826,10.942 1.844,16.445 z"
         inkscape:connector-curvature="0" />
    </g>
    <g
       style="fill:#6aa3ae;fill-opacity:1"
       id="g946">
      <path
         style="fill:#6aa3ae;fill-opacity:1"
         id="path944"
         d="M 24.607,41.862 11.934,54.536 c -9.246,9.244 -9.246,24.286 0,33.53 9.243,9.245 24.286,9.245 33.53,0 L 63.752,69.777 c 9.245,-9.244 9.244,-24.286 0,-33.529 -1.364,-1.366 -2.858,-2.524 -4.439,-3.486 l -9.791,9.792 c 1.864,0.447 3.633,1.386 5.086,2.838 4.202,4.202 4.202,11.039 0,15.241 l -18.29,18.289 c -4.202,4.202 -11.039,4.202 -15.241,0 -4.202,-4.202 -4.202,-11.039 0,-15.241 l 5.374,-5.373 C 24.236,53.097 23.624,47.365 24.607,41.862 Z"
         inkscape:connector-curvature="0" />
    </g>
  </g>
  <path
     sodipodi:nodetypes="ccccccccccccc"
     inkscape:connector-curvature="0"
     style="opacity:1;fill:#6aa3ae;fill-opacity:1;stroke:none;stroke-width:2.24119616;stroke-miterlimit:4;stroke-dasharray:13.44717823, 13.44717823;stroke-dashoffset:0;stroke-opacity:1"
     d="m -22.059735,26.637264 c -6.597327,0.182983 -12.484933,6.562172 -12.536475,7.031256 1.431856,4.298419 10.870523,4.443633 11.765254,4.385306 5.410215,-0.352638 10.821349,-1.479527 11.912934,-1.337333 0.301575,0.03927 2.52924,0.05272 2.727996,-0.459453 0.228663,-0.589251 -0.252788,-1.44388 -1.29221,-2.736199 -3.403459,-4.231553 -8.619502,-6.993362 -12.577499,-6.883577 z m 11.494505,6.941006 c 1.076367,0.955916 2.118335,1.888341 1.919854,2.399817 -0.172523,0.444575 -2.622106,0.124298 -2.883882,0.09025 -0.975435,-0.126902 -7.563257,0.929476 -10.624828,1.439891 -0.76769,0.127997 -7.362404,0.05957 -10.998133,-3.671513 8.156551,-7.064911 14.865242,-7.035962 22.586989,-0.258443 z"
     id="path950" />
  <path
     transform="matrix(0.16449805,0,0,1.0110636,-24.400332,16.693093)"
     inkscape:transform-center-y="8.4485663"
     d="m 25.760449,32.840704 -9.648814,0 -9.648814,0 4.824407,-8.356118 4.824407,-8.356118 4.824407,8.356118 z"
     inkscape:randomized="0"
     inkscape:rounded="0"
     inkscape:flatsided="false"
     sodipodi:arg2="1.5707963"
     sodipodi:arg1="0.52359878"
     sodipodi:r2="5.5707455"
     sodipodi:r1="11.141491"
     sodipodi:cy="27.269958"
     sodipodi:cx="16.111635"
     sodipodi:sides="3"
     id="path952"
     style="opacity:1;fill:#ff0000;fill-opacity:1;stroke:none;stroke-width:1.00199997;stroke-miterlimit:4;stroke-dasharray:6.012, 6.012;stroke-dashoffset:0;stroke-opacity:1"
     sodipodi:type="star" />
  <path
     inkscape:transform-center-x="-2.953214"
     sodipodi:type="star"
     style="opacity:1;fill:#ff0000;fill-opacity:1;stroke:none;stroke-width:1.00199997;stroke-miterlimit:4;stroke-dasharray:6.012, 6.012;stroke-dashoffset:0;stroke-opacity:1"
     id="path954"
     sodipodi:sides="3"
     sodipodi:cx="16.111635"
     sodipodi:cy="27.269958"
     sodipodi:r1="11.141491"
     sodipodi:r2="5.5707455"
     sodipodi:arg1="0.52359878"
     sodipodi:arg2="1.5707963"
     inkscape:flatsided="false"
     inkscape:rounded="0"
     inkscape:randomized="0"
     d="m 25.760449,32.840704 -9.648814,0 -9.648814,0 4.824407,-8.356118 4.824407,-8.356118 4.824407,8.356118 z"
     inkscape:transform-center-y="8.3660895"
     transform="matrix(0.15889291,-0.04257523,0.26168252,0.97661248,-28.530562,17.934694)" />
  <path
     transform="matrix(0.14245949,-0.08224902,0.50553182,0.87560679,-32.198708,20.202971)"
     inkscape:transform-center-y="7.7134765"
     d="m 25.760449,32.840704 -9.648814,0 -9.648814,0 4.824407,-8.356118 4.824407,-8.356118 4.824407,8.356118 z"
     inkscape:randomized="0"
     inkscape:rounded="0"
     inkscape:flatsided="false"
     sodipodi:arg2="1.5707963"
     sodipodi:arg1="0.52359878"
     sodipodi:r2="5.5707455"
     sodipodi:r1="11.141491"
     sodipodi:cy="27.269958"
     sodipodi:cx="16.111635"
     sodipodi:sides="3"
     id="path956"
     style="opacity:1;fill:#ff0000;fill-opacity:1;stroke:none;stroke-width:1.00199997;stroke-miterlimit:4;stroke-dasharray:6.012, 6.012;stroke-dashoffset:0;stroke-opacity:1"
     sodipodi:type="star"
     inkscape:transform-center-x="-4.9115663" />
  <path
     inkscape:transform-center-x="-6.5352029"
     sodipodi:type="star"
     style="opacity:1;fill:#ff0000;fill-opacity:1;stroke:none;stroke-width:1.00199997;stroke-miterlimit:4;stroke-dasharray:6.012, 6.012;stroke-dashoffset:0;stroke-opacity:1"
     id="path958"
     sodipodi:sides="3"
     sodipodi:cx="16.111635"
     sodipodi:cy="27.269958"
     sodipodi:r1="11.141491"
     sodipodi:r2="5.5707455"
     sodipodi:arg1="0.52359878"
     sodipodi:arg2="1.5707963"
     inkscape:flatsided="false"
     inkscape:rounded="0"
     inkscape:randomized="0"
     d="m 25.760449,32.840704 -9.648814,0 -9.648814,0 4.824407,-8.356118 4.824407,-8.356118 4.824407,8.356118 z"
     inkscape:transform-center-y="6.535203"
     transform="matrix(0.11631768,-0.11631768,0.71492995,0.71492995,-35.154792,23.343344)" />
  <path
     transform="matrix(0.08224902,-0.14245949,0.87560679,0.50553182,-37.197362,27.141802)"
     inkscape:transform-center-y="4.9115668"
     d="m 25.760449,32.840704 -9.648814,0 -9.648814,0 4.824407,-8.356118 4.824407,-8.356118 4.824407,8.356118 z"
     inkscape:randomized="0"
     inkscape:rounded="0"
     inkscape:flatsided="false"
     sodipodi:arg2="1.5707963"
     sodipodi:arg1="0.52359878"
     sodipodi:r2="5.5707455"
     sodipodi:r1="11.141491"
     sodipodi:cy="27.269958"
     sodipodi:cx="16.111635"
     sodipodi:sides="3"
     id="path960"
     style="opacity:1;fill:#ff0000;fill-opacity:1;stroke:none;stroke-width:1.00199997;stroke-miterlimit:4;stroke-dasharray:6.012, 6.012;stroke-dashoffset:0;stroke-opacity:1"
     sodipodi:type="star"
     inkscape:transform-center-x="-7.7134765" />
  <path
     inkscape:transform-center-x="-8.3660897"
     sodipodi:type="star"
     style="opacity:1;fill:#ff0000;fill-opacity:1;stroke:none;stroke-width:1.00199997;stroke-miterlimit:4;stroke-dasharray:6.012, 6.012;stroke-dashoffset:0;stroke-opacity:1"
     id="path962"
     sodipodi:sides="3"
     sodipodi:cx="16.111635"
     sodipodi:cy="27.269958"
     sodipodi:r1="11.141491"
     sodipodi:r2="5.5707455"
     sodipodi:arg1="0.52359878"
     sodipodi:arg2="1.5707963"
     inkscape:flatsided="false"
     inkscape:rounded="0"
     inkscape:randomized="0"
     d="m 25.760449,32.840704 -9.648814,0 -9.648814,0 4.824407,-8.356118 4.824407,-8.356118 4.824407,8.356118 z"
     inkscape:transform-center-y="2.953214"
     transform="matrix(0.04257523,-0.15889291,0.97661248,0.26168252,-38.187219,31.339486)" />
  <path
     transform="matrix(0,-0.16449805,1.0110636,0,-38.056907,35.650332)"
     d="m 25.760449,32.840704 -9.648814,0 -9.648814,0 4.824407,-8.356118 4.824407,-8.356118 4.824407,8.356118 z"
     inkscape:randomized="0"
     inkscape:rounded="0"
     inkscape:flatsided="false"
     sodipodi:arg2="1.5707963"
     sodipodi:arg1="0.52359878"
     sodipodi:r2="5.5707455"
     sodipodi:r1="11.141491"
     sodipodi:cy="27.269958"
     sodipodi:cx="16.111635"
     sodipodi:sides="3"
     id="path964"
     style="opacity:1;fill:#ff0000;fill-opacity:1;stroke:none;stroke-width:1.00199997;stroke-miterlimit:4;stroke-dasharray:6.012, 6.012;stroke-dashoffset:0;stroke-opacity:1"
     sodipodi:type="star"
     inkscape:transform-center-x="-8.4485665" />
  <path
     inkscape:transform-center-y="-2.9532144"
     inkscape:transform-center-x="-8.3660897"
     sodipodi:type="star"
     style="opacity:1;fill:#ff0000;fill-opacity:1;stroke:none;stroke-width:1.00199997;stroke-miterlimit:4;stroke-dasharray:6.012, 6.012;stroke-dashoffset:0;stroke-opacity:1"
     id="path966"
     sodipodi:sides="3"
     sodipodi:cx="16.111635"
     sodipodi:cy="27.269958"
     sodipodi:r1="11.141491"
     sodipodi:r2="5.5707455"
     sodipodi:arg1="0.52359878"
     sodipodi:arg2="1.5707963"
     inkscape:flatsided="false"
     inkscape:rounded="0"
     inkscape:randomized="0"
     d="m 25.760449,32.840704 -9.648814,0 -9.648814,0 4.824407,-8.356118 4.824407,-8.356118 4.824407,8.356118 z"
     transform="matrix(-0.04257523,-0.15889291,0.97661248,-0.26168252,-36.815306,39.780562)" />
  <path
     transform="matrix(-0.08224902,-0.14245949,0.87560679,-0.50553182,-34.547029,43.448708)"
     d="m 25.760449,32.840704 -9.648814,0 -9.648814,0 4.824407,-8.356118 4.824407,-8.356118 4.824407,8.356118 z"
     inkscape:randomized="0"
     inkscape:rounded="0"
     inkscape:flatsided="false"
     sodipodi:arg2="1.5707963"
     sodipodi:arg1="0.52359878"
     sodipodi:r2="5.5707455"
     sodipodi:r1="11.141491"
     sodipodi:cy="27.269958"
     sodipodi:cx="16.111635"
     sodipodi:sides="3"
     id="path968"
     style="opacity:1;fill:#ff0000;fill-opacity:1;stroke:none;stroke-width:1.00199997;stroke-miterlimit:4;stroke-dasharray:6.012, 6.012;stroke-dashoffset:0;stroke-opacity:1"
     sodipodi:type="star"
     inkscape:transform-center-x="-7.7134766"
     inkscape:transform-center-y="-4.9115667" />
  <path
     inkscape:transform-center-y="-6.5352032"
     inkscape:transform-center-x="-6.5352029"
     sodipodi:type="star"
     style="opacity:1;fill:#ff0000;fill-opacity:1;stroke:none;stroke-width:1.00199997;stroke-miterlimit:4;stroke-dasharray:6.012, 6.012;stroke-dashoffset:0;stroke-opacity:1"
     id="path970"
     sodipodi:sides="3"
     sodipodi:cx="16.111635"
     sodipodi:cy="27.269958"
     sodipodi:r1="11.141491"
     sodipodi:r2="5.5707455"
     sodipodi:arg1="0.52359878"
     sodipodi:arg2="1.5707963"
     inkscape:flatsided="false"
     inkscape:rounded="0"
     inkscape:randomized="0"
     d="m 25.760449,32.840704 -9.648814,0 -9.648814,0 4.824407,-8.356118 4.824407,-8.356118 4.824407,8.356118 z"
     transform="matrix(-0.11631768,-0.11631768,0.71492995,-0.71492995,-31.406656,46.404792)" />
  <path
     transform="matrix(-0.14245949,-0.08224902,0.50553182,-0.87560679,-27.608198,48.447362)"
     d="m 25.760449,32.840704 -9.648814,0 -9.648814,0 4.824407,-8.356118 4.824407,-8.356118 4.824407,8.356118 z"
     inkscape:randomized="0"
     inkscape:rounded="0"
     inkscape:flatsided="false"
     sodipodi:arg2="1.5707963"
     sodipodi:arg1="0.52359878"
     sodipodi:r2="5.5707455"
     sodipodi:r1="11.141491"
     sodipodi:cy="27.269958"
     sodipodi:cx="16.111635"
     sodipodi:sides="3"
     id="path972"
     style="opacity:1;fill:#ff0000;fill-opacity:1;stroke:none;stroke-width:1.00199997;stroke-miterlimit:4;stroke-dasharray:6.012, 6.012;stroke-dashoffset:0;stroke-opacity:1"
     sodipodi:type="star"
     inkscape:transform-center-x="-4.9115662"
     inkscape:transform-center-y="-7.7134762" />
  <path
     inkscape:transform-center-y="-8.3660895"
     inkscape:transform-center-x="-2.9532134"
     sodipodi:type="star"
     style="opacity:1;fill:#ff0000;fill-opacity:1;stroke:none;stroke-width:1.00199997;stroke-miterlimit:4;stroke-dasharray:6.012, 6.012;stroke-dashoffset:0;stroke-opacity:1"
     id="path974"
     sodipodi:sides="3"
     sodipodi:cx="16.111635"
     sodipodi:cy="27.269958"
     sodipodi:r1="11.141491"
     sodipodi:r2="5.5707455"
     sodipodi:arg1="0.52359878"
     sodipodi:arg2="1.5707963"
     inkscape:flatsided="false"
     inkscape:rounded="0"
     inkscape:randomized="0"
     d="m 25.760449,32.840704 -9.648814,0 -9.648814,0 4.824407,-8.356118 4.824407,-8.356118 4.824407,8.356118 z"
     transform="matrix(-0.15889291,-0.04257523,0.26168252,-0.97661248,-23.410514,49.437219)" />
  <path
     transform="matrix(-0.16449805,0,0,-1.0110636,-19.099668,49.306907)"
     d="m 25.760449,32.840704 -9.648814,0 -9.648814,0 4.824407,-8.356118 4.824407,-8.356118 4.824407,8.356118 z"
     inkscape:randomized="0"
     inkscape:rounded="0"
     inkscape:flatsided="false"
     sodipodi:arg2="1.5707963"
     sodipodi:arg1="0.52359878"
     sodipodi:r2="5.5707455"
     sodipodi:r1="11.141491"
     sodipodi:cy="27.269958"
     sodipodi:cx="16.111635"
     sodipodi:sides="3"
     id="path976"
     style="opacity:1;fill:#ff0000;fill-opacity:1;stroke:none;stroke-width:1.00199997;stroke-miterlimit:4;stroke-dasharray:6.012, 6.012;stroke-dashoffset:0;stroke-opacity:1"
     sodipodi:type="star"
     inkscape:transform-center-y="-8.4485662" />
  <path
     inkscape:transform-center-x="2.9532143"
     inkscape:transform-center-y="-8.3660894"
     sodipodi:type="star"
     style="opacity:1;fill:#ff0000;fill-opacity:1;stroke:none;stroke-width:1.00199997;stroke-miterlimit:4;stroke-dasharray:6.012, 6.012;stroke-dashoffset:0;stroke-opacity:1"
     id="path978"
     sodipodi:sides="3"
     sodipodi:cx="16.111635"
     sodipodi:cy="27.269958"
     sodipodi:r1="11.141491"
     sodipodi:r2="5.5707455"
     sodipodi:arg1="0.52359878"
     sodipodi:arg2="1.5707963"
     inkscape:flatsided="false"
     inkscape:rounded="0"
     inkscape:randomized="0"
     d="m 25.760449,32.840704 -9.648814,0 -9.648814,0 4.824407,-8.356118 4.824407,-8.356118 4.824407,8.356118 z"
     transform="matrix(-0.15889291,0.04257523,-0.26168252,-0.97661248,-14.969438,48.065306)" />
  <path
     transform="matrix(-0.14245949,0.08224902,-0.50553182,-0.87560679,-11.301292,45.79703)"
     d="m 25.760449,32.840704 -9.648814,0 -9.648814,0 4.824407,-8.356118 4.824407,-8.356118 4.824407,8.356118 z"
     inkscape:randomized="0"
     inkscape:rounded="0"
     inkscape:flatsided="false"
     sodipodi:arg2="1.5707963"
     sodipodi:arg1="0.52359878"
     sodipodi:r2="5.5707455"
     sodipodi:r1="11.141491"
     sodipodi:cy="27.269958"
     sodipodi:cx="16.111635"
     sodipodi:sides="3"
     id="path980"
     style="opacity:1;fill:#ff0000;fill-opacity:1;stroke:none;stroke-width:1.00199997;stroke-miterlimit:4;stroke-dasharray:6.012, 6.012;stroke-dashoffset:0;stroke-opacity:1"
     sodipodi:type="star"
     inkscape:transform-center-y="-7.7134758"
     inkscape:transform-center-x="4.9115667" />
  <path
     inkscape:transform-center-x="6.5352032"
     inkscape:transform-center-y="-6.5352022"
     sodipodi:type="star"
     style="opacity:1;fill:#ff0000;fill-opacity:1;stroke:none;stroke-width:1.00199997;stroke-miterlimit:4;stroke-dasharray:6.012, 6.012;stroke-dashoffset:0;stroke-opacity:1"
     id="path982"
     sodipodi:sides="3"
     sodipodi:cx="16.111635"
     sodipodi:cy="27.269958"
     sodipodi:r1="11.141491"
     sodipodi:r2="5.5707455"
     sodipodi:arg1="0.52359878"
     sodipodi:arg2="1.5707963"
     inkscape:flatsided="false"
     inkscape:rounded="0"
     inkscape:randomized="0"
     d="m 25.760449,32.840704 -9.648814,0 -9.648814,0 4.824407,-8.356118 4.824407,-8.356118 4.824407,8.356118 z"
     transform="matrix(-0.11631768,0.11631768,-0.71492995,-0.71492995,-8.345208,42.656657)" />
  <path
     transform="matrix(-0.08224902,0.14245949,-0.87560679,-0.50553182,-6.302638,38.858198)"
     d="m 25.760449,32.840704 -9.648814,0 -9.648814,0 4.824407,-8.356118 4.824407,-8.356118 4.824407,8.356118 z"
     inkscape:randomized="0"
     inkscape:rounded="0"
     inkscape:flatsided="false"
     sodipodi:arg2="1.5707963"
     sodipodi:arg1="0.52359878"
     sodipodi:r2="5.5707455"
     sodipodi:r1="11.141491"
     sodipodi:cy="27.269958"
     sodipodi:cx="16.111635"
     sodipodi:sides="3"
     id="path984"
     style="opacity:1;fill:#ff0000;fill-opacity:1;stroke:none;stroke-width:1.00199997;stroke-miterlimit:4;stroke-dasharray:6.012, 6.012;stroke-dashoffset:0;stroke-opacity:1"
     sodipodi:type="star"
     inkscape:transform-center-y="-4.9115662"
     inkscape:transform-center-x="7.7134761" />
  <path
     inkscape:transform-center-x="8.3660895"
     inkscape:transform-center-y="-2.9532134"
     sodipodi:type="star"
     style="opacity:1;fill:#ff0000;fill-opacity:1;stroke:none;stroke-width:1.00199997;stroke-miterlimit:4;stroke-dasharray:6.012, 6.012;stroke-dashoffset:0;stroke-opacity:1"
     id="path986"
     sodipodi:sides="3"
     sodipodi:cx="16.111635"
     sodipodi:cy="27.269958"
     sodipodi:r1="11.141491"
     sodipodi:r2="5.5707455"
     sodipodi:arg1="0.52359878"
     sodipodi:arg2="1.5707963"
     inkscape:flatsided="false"
     inkscape:rounded="0"
     inkscape:randomized="0"
     d="m 25.760449,32.840704 -9.648814,0 -9.648814,0 4.824407,-8.356118 4.824407,-8.356118 4.824407,8.356118 z"
     transform="matrix(-0.04257523,0.15889291,-0.97661248,-0.26168252,-5.312781,34.660514)" />
  <path
     transform="matrix(0,0.16449805,-1.0110636,0,-5.443093,30.349668)"
     d="m 25.760449,32.840704 -9.648814,0 -9.648814,0 4.824407,-8.356118 4.824407,-8.356118 4.824407,8.356118 z"
     inkscape:randomized="0"
     inkscape:rounded="0"
     inkscape:flatsided="false"
     sodipodi:arg2="1.5707963"
     sodipodi:arg1="0.52359878"
     sodipodi:r2="5.5707455"
     sodipodi:r1="11.141491"
     sodipodi:cy="27.269958"
     sodipodi:cx="16.111635"
     sodipodi:sides="3"
     id="path988"
     style="opacity:1;fill:#ff0000;fill-opacity:1;stroke:none;stroke-width:1.00199997;stroke-miterlimit:4;stroke-dasharray:6.012, 6.012;stroke-dashoffset:0;stroke-opacity:1"
     sodipodi:type="star"
     inkscape:transform-center-x="8.448566" />
  <path
     inkscape:transform-center-y="2.9532144"
     inkscape:transform-center-x="8.3660892"
     sodipodi:type="star"
     style="opacity:1;fill:#ff0000;fill-opacity:1;stroke:none;stroke-width:1.00199997;stroke-miterlimit:4;stroke-dasharray:6.012, 6.012;stroke-dashoffset:0;stroke-opacity:1"
     id="path990"
     sodipodi:sides="3"
     sodipodi:cx="16.111635"
     sodipodi:cy="27.269958"
     sodipodi:r1="11.141491"
     sodipodi:r2="5.5707455"
     sodipodi:arg1="0.52359878"
     sodipodi:arg2="1.5707963"
     inkscape:flatsided="false"
     inkscape:rounded="0"
     inkscape:randomized="0"
     d="m 25.760449,32.840704 -9.648814,0 -9.648814,0 4.824407,-8.356118 4.824407,-8.356118 4.824407,8.356118 z"
     transform="matrix(0.04257523,0.15889291,-0.97661248,0.26168252,-6.684694,26.219438)" />
  <path
     transform="matrix(0.08224902,0.14245949,-0.87560679,0.50553182,-8.95297,22.551292)"
     d="m 25.760449,32.840704 -9.648814,0 -9.648814,0 4.824407,-8.356118 4.824407,-8.356118 4.824407,8.356118 z"
     inkscape:randomized="0"
     inkscape:rounded="0"
     inkscape:flatsided="false"
     sodipodi:arg2="1.5707963"
     sodipodi:arg1="0.52359878"
     sodipodi:r2="5.5707455"
     sodipodi:r1="11.141491"
     sodipodi:cy="27.269958"
     sodipodi:cx="16.111635"
     sodipodi:sides="3"
     id="path992"
     style="opacity:1;fill:#ff0000;fill-opacity:1;stroke:none;stroke-width:1.00199997;stroke-miterlimit:4;stroke-dasharray:6.012, 6.012;stroke-dashoffset:0;stroke-opacity:1"
     sodipodi:type="star"
     inkscape:transform-center-x="7.7134757"
     inkscape:transform-center-y="4.9115665" />
  <path
     inkscape:transform-center-y="6.535203"
     inkscape:transform-center-x="6.5352021"
     sodipodi:type="star"
     style="opacity:1;fill:#ff0000;fill-opacity:1;stroke:none;stroke-width:1.00199997;stroke-miterlimit:4;stroke-dasharray:6.012, 6.012;stroke-dashoffset:0;stroke-opacity:1"
     id="path994"
     sodipodi:sides="3"
     sodipodi:cx="16.111635"
     sodipodi:cy="27.269958"
     sodipodi:r1="11.141491"
     sodipodi:r2="5.5707455"
     sodipodi:arg1="0.52359878"
     sodipodi:arg2="1.5707963"
     inkscape:flatsided="false"
     inkscape:rounded="0"
     inkscape:randomized="0"
     d="m 25.760449,32.840704 -9.648814,0 -9.648814,0 4.824407,-8.356118 4.824407,-8.356118 4.824407,8.356118 z"
     transform="matrix(0.11631768,0.11631768,-0.71492995,0.71492995,-12.093343,19.595208)" />
  <path
     transform="matrix(0.14245949,0.08224902,-0.50553182,0.87560679,-15.891802,17.552639)"
     d="m 25.760449,32.840704 -9.648814,0 -9.648814,0 4.824407,-8.356118 4.824407,-8.356118 4.824407,8.356118 z"
     inkscape:randomized="0"
     inkscape:rounded="0"
     inkscape:flatsided="false"
     sodipodi:arg2="1.5707963"
     sodipodi:arg1="0.52359878"
     sodipodi:r2="5.5707455"
     sodipodi:r1="11.141491"
     sodipodi:cy="27.269958"
     sodipodi:cx="16.111635"
     sodipodi:sides="3"
     id="path996"
     style="opacity:1;fill:#ff0000;fill-opacity:1;stroke:none;stroke-width:1.00199997;stroke-miterlimit:4;stroke-dasharray:6.012, 6.012;stroke-dashoffset:0;stroke-opacity:1"
     sodipodi:type="star"
     inkscape:transform-center-x="4.9115661"
     inkscape:transform-center-y="7.7134765" />
  <path
     inkscape:transform-center-y="8.3660895"
     inkscape:transform-center-x="2.9532132"
     sodipodi:type="star"
     style="opacity:1;fill:#ff0000;fill-opacity:1;stroke:none;stroke-width:1.00199997;stroke-miterlimit:4;stroke-dasharray:6.012, 6.012;stroke-dashoffset:0;stroke-opacity:1"
     id="path998"
     sodipodi:sides="3"
     sodipodi:cx="16.111635"
     sodipodi:cy="27.269958"
     sodipodi:r1="11.141491"
     sodipodi:r2="5.5707455"
     sodipodi:arg1="0.52359878"
     sodipodi:arg2="1.5707963"
     inkscape:flatsided="false"
     inkscape:rounded="0"
     inkscape:randomized="0"
     d="m 25.760449,32.840704 -9.648814,0 -9.648814,0 4.824407,-8.356118 4.824407,-8.356118 4.824407,8.356118 z"
     transform="matrix(0.15889291,0.04257523,-0.26168252,0.97661248,-20.089486,16.562782)" />
  <path
     style="opacity:1;fill:#6aa3ae;fill-opacity:1;stroke:none;stroke-width:1.06575036;stroke-miterlimit:4;stroke-dasharray:6.39450183, 6.39450183;stroke-dashoffset:0;stroke-opacity:1"
     d="M 16,0.25294857 A 15.74699,15.74699 0 0 0 0.25294857,16 15.74699,15.74699 0 0 0 16,31.747052 15.74699,15.74699 0 0 0 31.747052,16 15.74699,15.74699 0 0 0 16,0.25294857 Z m 0,0.49444934 A 15.25254,15.25254 0 0 1 31.252602,16 15.25254,15.25254 0 0 1 16,31.252602 15.25254,15.25254 0 0 1 0.74739791,16 15.25254,15.25254 0 0 1 16,0.74739791 Z"
     id="circle1016"
     inkscape:connector-curvature="0" />
  <path
     inkscape:connector-curvature="0"
     id="path1023"
     d="m 52.556012,12.355668 c -1.799634,0.01406 -3.626079,0.499268 -5.514269,1.429268 a 4.9057957,4.9057957 0 0 0 -0.274265,1.597303 4.9057957,4.9057957 0 0 0 4.905864,4.905863 4.9057957,4.9057957 0 0 0 4.907796,-4.905863 4.9057957,4.9057957 0 0 0 -0.710771,-2.528259 c -1.107796,-0.328624 -2.20994,-0.506964 -3.314355,-0.498312 z m -0.828589,0.372768 a 2.6267619,2.6267619 0 0 1 2.626761,2.626763 2.6267619,2.6267619 0 0 1 -2.626761,2.626761 2.6267619,2.6267619 0 0 1 -2.626762,-2.626761 2.6267619,2.6267619 0 0 1 2.626762,-2.626763 z"
     style="fill:#6aa3ae;fill-opacity:1;stroke:none;stroke-width:1.21560097;stroke-miterlimit:4;stroke-dasharray:7.29360587, 7.29360587;stroke-dashoffset:0;stroke-opacity:1" />
  <g
     style="fill:#6aa3ae;fill-opacity:1"
     id="g1033"
     transform="matrix(0.0416685,0,0,0.0416685,49.625756,13.258509)">
    <g
       style="fill:#6aa3ae;fill-opacity:1"
       id="g1027">
      <path
         style="fill:#6aa3ae;fill-opacity:1"
         id="path1025"
         d="M 75.394,58.138 88.067,45.463 c 9.245,-9.243 9.245,-24.286 0,-33.529 -9.244,-9.246 -24.286,-9.246 -33.53,0 L 36.248,30.223 c -9.245,9.243 -9.245,24.286 0,33.529 1.365,1.366 2.859,2.524 4.44,3.486 l 9.791,-9.792 C 48.614,57 46.845,56.059 45.393,54.608 c -4.202,-4.202 -4.202,-11.04 0,-15.241 L 63.682,21.078 c 4.202,-4.202 11.04,-4.202 15.241,0 4.202,4.202 4.202,11.039 0,15.241 l -5.373,5.374 c 2.214,5.211 2.826,10.942 1.844,16.445 z"
         inkscape:connector-curvature="0" />
    </g>
    <g
       style="fill:#6aa3ae;fill-opacity:1"
       id="g1031">
      <path
         style="fill:#6aa3ae;fill-opacity:1"
         id="path1029"
         d="M 24.607,41.862 11.934,54.536 c -9.246,9.244 -9.246,24.286 0,33.53 9.243,9.245 24.286,9.245 33.53,0 L 63.752,69.777 c 9.245,-9.244 9.244,-24.286 0,-33.529 -1.364,-1.366 -2.858,-2.524 -4.439,-3.486 l -9.791,9.792 c 1.864,0.447 3.633,1.386 5.086,2.838 4.202,4.202 4.202,11.039 0,15.241 l -18.29,18.289 c -4.202,4.202 -11.039,4.202 -15.241,0 -4.202,-4.202 -4.202,-11.039 0,-15.241 l 5.374,-5.373 C 24.236,53.097 23.624,47.365 24.607,41.862 Z"
         inkscape:connector-curvature="0" />
    </g>
  </g>
  <path
     sodipodi:nodetypes="ccccccccccccccc"
     inkscape:connector-curvature="0"
     id="path1035"
     d="m 52.202856,10.286351 c -6.312593,0.175085 -11.944835,6.27895 -11.994153,6.727789 1.370059,4.112904 10.401719,4.253202 11.257834,4.197393 5.176716,-0.337418 10.353522,-1.416206 11.397996,-1.280149 0.288559,0.03758 2.420578,0.05089 2.610756,-0.439175 0.218794,-0.56382 -0.242604,-1.381688 -1.237166,-2.618232 -3.256569,-4.048923 -8.248093,-6.692673 -12.035267,-6.587626 z m 0.349472,1.797815 c 3.503913,-0.02745 6.95622,1.601504 10.650463,4.844008 1.029913,0.91466 2.026975,1.807391 1.837061,2.296793 -0.165077,0.425387 -2.509785,0.118544 -2.760263,0.08596 -0.933336,-0.121425 -6.427241,0.888943 -9.356678,1.377328 -0.734557,0.122474 -7.854328,0.05665 -11.333142,-3.5134 3.902261,-3.379999 7.458645,-5.063245 10.962559,-5.090694 z"
     style="opacity:1;fill:#6aa3ae;fill-opacity:1;stroke:none;stroke-width:2.14446855;stroke-miterlimit:4;stroke-dasharray:12.86681301, 12.86681301;stroke-dashoffset:0;stroke-opacity:1" />
  <path
     sodipodi:nodetypes="ccccccccccccccccccccccccccccccccccccccccccccccccccccccccccccccccccccccccccccsscccccccccccccccccccccccccccccccccccccccccccccccccccccccccccccccccccccccccccccccccccc"
     inkscape:connector-curvature="0"
     id="path1037"
     d="m 52.5,1.6168472 c -0.460706,0.00462 -0.920941,0.030813 -1.379197,0.078491 l 0.620451,6.5951022 0.110261,1.1811007 c 0.109727,-0.00628 0.216659,-0.02497 0.327045,-0.028032 0.317883,-0.00882 0.64275,0.00428 0.969925,0.028032 l 0.110261,-1.181101 0.622319,-6.6044462 C 53.422045,1.6413787 52.961183,1.6183045 52.5,1.6168472 Z m -2.468725,0.209309 C 49.12294,1.9835311 48.23135,2.2256685 47.368193,2.5493934 l 2.306136,6.2138609 0.355078,0.9531033 c 0.428394,-0.091258 0.864611,-0.1565693 1.306311,-0.2018335 L 51.141361,8.3707998 Z M 54.966856,1.8392382 53.858639,8.3708 53.664282,9.5201306 c 0.426328,0.051863 0.857754,0.1330675 1.29323,0.2354726 l 0.36816,-0.9923491 2.304267,-6.2063855 C 56.766593,2.2350527 55.875005,1.9947935 54.966856,1.8392382 Z m 3.677859,1.1343799 -2.760264,6.0213713 -0.407404,0.8876944 c 0.437513,0.1216582 0.877618,0.2726222 1.317525,0.4410442 L 57.200108,9.7537346 61.034949,4.3490774 C 60.28288,3.8169916 59.482643,3.3564953 58.644715,2.9736181 Z m -12.289429,0.00186 c -0.836783,0.38428 -1.635765,0.8460255 -2.386496,1.3792014 l 3.831102,5.3990507 0.356947,0.5027157 C 48.595627,10.096883 49.04203,9.953473 49.500527,9.8359628 L 49.115549,8.9949892 Z m 15.554275,2.0388938 -4.231032,5.107514 -0.345734,0.418618 c 0.469538,0.199529 0.937298,0.42239 1.401624,0.67091 l 0.01869,-0.01495 5.103776,-4.2272953 C 63.270246,6.2581954 62.618289,5.603737 61.909561,5.0143806 Z m -18.815384,0.00374 c -0.710982,0.5866367 -1.36544,1.2385923 -1.954796,1.9473212 l 5.023415,4.1618855 c 0.464295,-0.239813 0.947968,-0.459761 1.444606,-0.661567 l -0.285931,-0.343864 z m -2.6201,2.8219338 c -0.532085,0.7520672 -0.992582,1.5523048 -1.375459,2.3902339 l 4.853352,2.225777 c 0.505917,-0.345843 1.044825,-0.681528 1.61467,-1.001693 z m 24.046239,0.00374 -5.206561,3.6946769 c 0.524319,0.305239 1.041184,0.639182 1.547392,1.001694 l 5.038366,-2.309877 C 65.515237,9.3935032 65.053492,8.5945205 64.520316,7.8437899 Z m 1.80529,3.3994029 -4.810368,1.784733 c 0.602474,0.469174 1.183988,0.978353 1.73988,1.521227 l 3.793725,-0.642878 C 66.891469,12.99794 66.649333,12.10635 66.325606,11.243193 Z m -27.643737,0.0019 c -0.321817,0.863335 -0.562076,1.754923 -0.717631,2.663072 l 3.421828,0.581207 c 0.537487,-0.490058 1.145964,-1.006921 1.874437,-1.543671 z m -0.870875,3.748857 c -0.04462,0.45902 -0.06769,0.919882 -0.06915,1.381065 0.0046,0.460707 0.03081,0.920941 0.07849,1.379197 l 1.713717,-0.160718 c -0.04373,-0.102723 -0.0893,-0.204296 -0.125211,-0.312096 -0.03882,-0.115372 -0.05221,-0.23778 -0.03925,-0.358815 0.04501,-0.409609 0.137136,-0.410432 0.20744,-0.517666 0.0703,-0.107235 0.150754,-0.21434 0.248554,-0.334522 0.184151,-0.226291 0.440076,-0.506108 0.745663,-0.816678 z m 29.368668,0.0019 -3.1957,0.300881 c 0.314112,0.3396 0.621054,0.686692 0.91199,1.048415 0.377463,0.469303 0.666276,0.880457 0.91012,1.280149 l 1.382934,0.130817 c 0.04462,-0.459022 0.06769,-0.919882 0.06916,-1.381065 -0.0045,-0.460706 -0.03081,-0.920941 -0.07848,-1.379197 z m -27.133547,3.492795 -2.094959,0.355078 c 0.157375,0.908335 0.399513,1.799925 0.723237,2.663083 l 3.476025,-1.289493 c -0.0451,-0.02431 -0.09373,-0.04415 -0.138294,-0.06915 -0.763335,-0.428275 -1.456096,-0.973237 -1.966009,-1.659522 z m 26.257065,0.227997 c 0.08513,0.351946 0.09992,0.716749 -0.04112,1.080184 -0.240303,0.619237 -0.678116,0.693409 -0.999823,0.786779 -0.321105,0.09319 -0.65016,0.136888 -0.977399,0.166325 l 2.033287,0.755007 c 0.321817,-0.863346 0.562076,-1.754934 0.717632,-2.663083 z m -23.18097,1.958536 -4.021723,1.844535 c 0.384275,0.836783 0.846021,1.635765 1.379197,2.386495 l 4.944925,-3.507794 C 44.64417,21.214402 43.864199,20.981048 43.12221,20.67518 Z m 19.034037,0.127079 c -0.203546,0.01475 -0.415678,0.02906 -0.682123,0.06167 -0.585022,0.07159 -1.38345,0.187411 -2.218302,0.306489 l 5.270101,3.73953 c 0.532085,-0.752069 0.992582,-1.552306 1.375459,-2.390234 z m -3.730186,0.480289 c -0.519716,0.07342 -1.106393,0.146936 -1.678209,0.222391 l 0.930677,1.123167 4.227294,5.103776 c 0.710982,-0.586636 1.36544,-1.238593 1.954796,-1.947321 l -5.107513,-4.231032 z m -12.194117,0.282194 -5.088826,4.216081 c 0.586637,0.710982 1.238593,1.36544 1.947322,1.954796 l 4.231031,-5.107513 0.646616,-0.781171 c -0.553359,-0.06795 -1.136586,-0.165311 -1.736143,-0.282193 z m 9.962733,0.01309 c -0.417985,0.05321 -0.801576,0.105184 -1.237165,0.155112 l 0.926939,2.022075 2.760264,6.019502 C 59.481498,29.390245 60.28048,28.9285 61.03121,28.395324 l -3.831102,-5.39905 z m -1.687553,0.203702 c -0.356,0.03898 -0.705837,0.08114 -1.068971,0.115867 l 0.420486,2.481806 1.110086,6.544645 c 0.908335,-0.157375 1.799925,-0.399511 2.663083,-0.723238 l -2.306136,-6.21386 z m -5.933537,0.125212 -0.773695,1.089528 -3.83484,5.404657 c 0.752067,0.532085 1.552305,0.992582 2.390234,1.375459 l 2.760263,-6.021371 0.796121,-1.736143 c -0.153061,-0.0084 -0.259759,-0.0084 -0.4317,-0.02055 -0.271678,-0.01912 -0.600957,-0.061 -0.906383,-0.09157 z m 4.447817,0.0243 c -0.348484,0.03127 -0.698804,0.05839 -1.050283,0.0841 l -0.229867,2.444431 -0.622319,6.604446 c 0.459021,0.04461 0.919882,0.06769 1.381065,0.06915 0.460707,-0.0045 0.920941,-0.03081 1.379197,-0.07848 L 53.258746,24.45959 Z m -2.625707,0.112129 -0.721368,1.943584 -2.304268,6.206386 c 0.863346,0.321816 1.754933,0.562074 2.663083,0.71763 l 1.108217,-6.531562 0.394323,-2.328561 c -0.005,3.29e-4 -0.0099,0.0015 -0.01495,0.0019 -0.213706,0.01394 -0.624954,0.0091 -1.125035,-0.0094 z"
     style="opacity:1;fill:#6aa3ae;fill-opacity:1;stroke:none;stroke-width:0.39100036;stroke-miterlimit:4;stroke-dasharray:2.3460022, 2.3460022;stroke-dashoffset:0;stroke-opacity:1" />
  <path
     inkscape:connector-curvature="0"
     id="path1039"
     d="M 52.5,0.62794857 A 15.74699,15.74699 0 0 0 36.752949,16.375 15.74699,15.74699 0 0 0 52.5,32.122052 15.74699,15.74699 0 0 0 68.247052,16.375 15.74699,15.74699 0 0 0 52.5,0.62794857 Z m 0,0.49444933 A 15.25254,15.25254 0 0 1 67.752602,16.375 15.25254,15.25254 0 0 1 52.5,31.627602 15.25254,15.25254 0 0 1 37.247398,16.375 15.25254,15.25254 0 0 1 52.5,1.1223979 Z"
     style="opacity:1;fill:#6aa3ae;fill-opacity:1;stroke:none;stroke-width:1.06575036;stroke-miterlimit:4;stroke-dasharray:6.39450183, 6.39450183;stroke-dashoffset:0;stroke-opacity:1" />
</svg>
