<?xml version="1.0" encoding="UTF-8" standalone="no"?>
<!-- Created with Inkscape (http://www.inkscape.org/) -->

<svg
   xmlns:dc="http://purl.org/dc/elements/1.1/"
   xmlns:cc="http://creativecommons.org/ns#"
   xmlns:rdf="http://www.w3.org/1999/02/22-rdf-syntax-ns#"
   xmlns:svg="http://www.w3.org/2000/svg"
   xmlns="http://www.w3.org/2000/svg"
   xmlns:sodipodi="http://sodipodi.sourceforge.net/DTD/sodipodi-0.dtd"
   xmlns:inkscape="http://www.inkscape.org/namespaces/inkscape"
   width="1920"
   height="1080"
   id="svg3375"
   version="1.1"
   inkscape:version="0.91pre2 r13516"
   viewBox="0 0 1920 1080"
   sodipodi:docname="occam-system-model-build.svg"
   inkscape:export-filename="C:\Users\wilkie\occam\diagrams\occam-system-model-build.png"
   inkscape:export-xdpi="37.5"
   inkscape:export-ydpi="37.5">
  <defs
     id="defs3377" />
  <sodipodi:namedview
     id="base"
     pagecolor="#fdf3fd"
     bordercolor="#666666"
     borderopacity="1.0"
     inkscape:pageopacity="0"
     inkscape:pageshadow="2"
     inkscape:zoom="0.70710678"
     inkscape:cx="941.69205"
     inkscape:cy="488.32689"
     inkscape:document-units="px"
     inkscape:current-layer="layer1"
     showgrid="false"
     inkscape:window-width="1920"
     inkscape:window-height="1058"
     inkscape:window-x="-8"
     inkscape:window-y="-8"
     inkscape:window-maximized="1" />
  <metadata
     id="metadata3380">
    <rdf:RDF>
      <cc:Work
         rdf:about="">
        <dc:format>image/svg+xml</dc:format>
        <dc:type
           rdf:resource="http://purl.org/dc/dcmitype/StillImage" />
        <dc:title></dc:title>
      </cc:Work>
    </rdf:RDF>
  </metadata>
  <g
     inkscape:label="Layer 1"
     inkscape:groupmode="layer"
     id="layer1"
     transform="translate(0,27.637818)">
    <path
       inkscape:connector-curvature="0"
       id="path5275"
       d="m 890.98987,532.86218 28.09246,0"
       style="fill:#ff8080;fill-rule:evenodd;stroke:#2b0000;stroke-width:15.79020882;stroke-linecap:round;stroke-linejoin:miter;stroke-miterlimit:4;stroke-dasharray:none;stroke-opacity:1"
       sodipodi:nodetypes="cc" />
    <rect
       style="opacity:1;fill:#ffd5e5;fill-opacity:1;stroke:#782167;stroke-width:6.50421095;stroke-linecap:round;stroke-linejoin:round;stroke-miterlimit:4;stroke-dasharray:none;stroke-opacity:1"
       id="rect5223"
       width="182.95166"
       height="194.49579"
       x="966.75208"
       y="397.61429"
       ry="45.357098" />
    <g
       id="g4469"
       transform="matrix(2.9927988,0,0,2.9927988,9.33087,109.4177)"
       style="opacity:0.279">
      <rect
         inkscape:export-ydpi="42.240002"
         inkscape:export-xdpi="42.240002"
         inkscape:export-filename="C:\Users\wilkie\occam\logo4.png"
         transform="matrix(0.89442719,-0.4472136,0.89442719,0.4472136,0,0)"
         y="223.96214"
         x="-37.301857"
         height="29.284794"
         width="29.284794"
         id="rect4892-0"
         style="fill:#9e9e9e;fill-opacity:1;stroke:none" />
      <rect
         inkscape:export-ydpi="42.240002"
         inkscape:export-xdpi="42.240002"
         inkscape:export-filename="C:\Users\wilkie\occam\logo4.png"
         transform="matrix(0.89498541,-0.44609542,0,1,0,0)"
         y="228.89867"
         x="217.40424"
         height="28.306238"
         width="29.596689"
         id="rect4907-5"
         style="fill:#7a7a7a;fill-opacity:1;stroke:none" />
      <rect
         inkscape:export-ydpi="42.240002"
         inkscape:export-xdpi="42.240002"
         inkscape:export-filename="C:\Users\wilkie\occam\logo4.png"
         style="fill:#7a7a7a;fill-opacity:1;stroke:none"
         id="rect4938-0"
         width="29.596689"
         height="28.306238"
         x="-214.43657"
         y="36.42239"
         transform="matrix(-0.89498541,-0.44609542,0,1,0,0)" />
    </g>
    <circle
       r="192.3942"
       cy="587.67615"
       cx="-504.66473"
       id="circle3478"
       style="opacity:0.279;fill:#f2f2f2;fill-opacity:1;stroke:#808080;stroke-width:15.99351597;stroke-linecap:round;stroke-linejoin:round;stroke-miterlimit:4;stroke-dasharray:none;stroke-opacity:1"
       transform="matrix(0,-1,1,0,0,0)" />
    <circle
       style="opacity:1;fill:#f4d7e3;fill-opacity:1;stroke:#660080;stroke-width:16.04452515;stroke-linecap:round;stroke-linejoin:round;stroke-miterlimit:4;stroke-dasharray:none;stroke-opacity:1"
       id="path3383"
       cx="1382.6866"
       cy="494.86218"
       r="193.00781" />
    <g
       id="g5518">
      <rect
         inkscape:export-ydpi="42.240002"
         inkscape:export-xdpi="42.240002"
         inkscape:export-filename="C:\Users\wilkie\occam\logo4.png"
         transform="matrix(0.89442719,-0.4472136,0.89442719,0.4472136,0,0)"
         y="1214.4695"
         x="243.2251"
         height="87.923019"
         width="87.923019"
         id="rect4892"
         style="fill:#c764d9;fill-opacity:1;stroke:none" />
      <rect
         inkscape:export-ydpi="42.240002"
         inkscape:export-xdpi="42.240002"
         inkscape:export-filename="C:\Users\wilkie\occam\logo4.png"
         transform="matrix(0.8949854,-0.44609543,0,1,0,0)"
         y="1170.811"
         x="1549.4388"
         height="84.985062"
         width="88.859436"
         id="rect4907"
         style="fill:#9f45af;fill-opacity:1;stroke:none" />
      <rect
         inkscape:export-ydpi="42.240002"
         inkscape:export-xdpi="42.240002"
         inkscape:export-filename="C:\Users\wilkie\occam\logo4.png"
         style="fill:#9f45af;fill-opacity:1;stroke:none"
         id="rect4938"
         width="88.859436"
         height="84.985062"
         x="-1540.5289"
         y="-207.11127"
         transform="matrix(-0.8949854,-0.44609543,0,1,0,0)" />
      <path
         inkscape:export-ydpi="42.240002"
         inkscape:export-xdpi="42.240002"
         inkscape:export-filename="C:\Users\wilkie\occam\logo4.png"
         sodipodi:nodetypes="ccccccccccccccccccccccccccccccccccccccccccccccccccccccccccccccccccccccccccccccccccccccccccccccc"
         inkscape:connector-curvature="0"
         id="rect3869"
         d="m 1293.5311,530.30465 -19.9458,9.93372 109.0618,54.4525 c 37.3266,-18.55477 75.8782,-37.84313 109.1403,-54.4525 l -19.9197,-9.93372 -3.4246,1.69918 11.8944,5.9341 -3.0324,1.5162 -11.8944,-5.9341 -5.0714,2.53572 7.947,3.94735 -2.6664,1.33321 -7.947,-3.97349 -5.359,2.66642 11.8682,5.9341 -3.0324,1.51619 -11.8682,-5.93409 -5.0714,2.56186 7.947,3.94734 -2.6665,1.33322 -7.9469,-3.97349 -5.359,2.66641 11.8682,5.9341 -3.0324,1.5162 -11.8682,-5.93409 -5.0976,2.53571 7.9731,3.97349 -2.6664,1.30707 -7.947,-3.94735 -5.3851,2.66642 11.8943,5.9341 -3.0324,1.51619 -11.8682,-5.93409 -5.0714,2.53571 7.9209,3.94735 -2.6665,1.33322 -7.9208,-3.94735 -5.359,2.66642 11.8682,5.9341 -3.0585,1.51619 -11.8682,-5.93409 -5.0715,2.53571 7.947,3.94735 -2.6664,1.33322 -7.947,-3.94736 -5.359,2.66642 11.8682,5.9341 -3.0324,1.49005 -11.8682,-5.90795 -2.039,1.01952 -2.0652,-1.01952 -11.842,5.90795 -3.0586,-1.49005 11.8682,-5.9341 -5.3589,-2.66642 -7.9209,3.94736 -2.6664,-1.33322 7.9208,-3.94735 -5.0714,-2.53571 -11.8682,5.93409 -3.0324,-1.51619 11.8682,-5.9341 -5.359,-2.66642 -7.947,3.94735 -2.6664,-1.33322 7.947,-3.94735 -5.0714,-2.53571 -11.8682,5.93409 -3.0324,-1.51619 11.8682,-5.9341 -5.359,-2.66642 -7.947,3.94735 -2.6664,-1.30707 7.947,-3.97349 -5.0715,-2.53571 -11.8682,5.93409 -3.0324,-1.5162 11.8682,-5.9341 -5.359,-2.66641 -7.9469,3.97349 -2.6665,-1.33322 7.947,-3.94734 -5.0714,-2.56186 -11.8943,5.93409 -3.0324,-1.51619 11.8943,-5.9341 -5.359,-2.66642 -7.9731,3.97349 -2.6664,-1.33321 7.9731,-3.94735 -5.0714,-2.53572 -11.8944,5.9341 -3.0324,-1.5162 11.8944,-5.9341 z"
         style="fill:#488e9c;fill-opacity:1;stroke:none" />
    </g>
    <path
       sodipodi:nodetypes="cc"
       style="fill:#ff8080;fill-rule:evenodd;stroke:#2b0000;stroke-width:20.67597389;stroke-linecap:round;stroke-linejoin:miter;stroke-miterlimit:4;stroke-dasharray:none;stroke-opacity:1"
       d="m 388.11177,503.70929 490.66823,0"
       id="path3482"
       inkscape:connector-curvature="0" />
    <circle
       r="76.292572"
       cy="388.65308"
       cx="-728.38043"
       id="circle3478-9"
       style="opacity:1;fill:#f2f2f2;fill-opacity:1;stroke:#808080;stroke-width:6.34211636;stroke-linecap:round;stroke-linejoin:round;stroke-miterlimit:4;stroke-dasharray:none;stroke-opacity:1"
       transform="matrix(0,-1,1,0,0,0)" />
    <g
       id="g4469-8"
       transform="matrix(1.1867733,0,0,1.1867733,159.31433,571.64796)">
      <rect
         inkscape:export-ydpi="42.240002"
         inkscape:export-xdpi="42.240002"
         inkscape:export-filename="C:\Users\wilkie\occam\logo4.png"
         transform="matrix(0.89442719,-0.4472136,0.89442719,0.4472136,0,0)"
         y="223.96214"
         x="-37.301857"
         height="29.284794"
         width="29.284794"
         id="rect4892-0-9"
         style="fill:#9e9e9e;fill-opacity:1;stroke:none" />
      <rect
         inkscape:export-ydpi="42.240002"
         inkscape:export-xdpi="42.240002"
         inkscape:export-filename="C:\Users\wilkie\occam\logo4.png"
         transform="matrix(0.89498541,-0.44609542,0,1,0,0)"
         y="228.89867"
         x="217.40424"
         height="28.306238"
         width="29.596689"
         id="rect4907-5-6"
         style="fill:#7a7a7a;fill-opacity:1;stroke:none" />
      <rect
         inkscape:export-ydpi="42.240002"
         inkscape:export-xdpi="42.240002"
         inkscape:export-filename="C:\Users\wilkie\occam\logo4.png"
         style="fill:#7a7a7a;fill-opacity:1;stroke:none"
         id="rect4938-0-1"
         width="29.596689"
         height="28.306238"
         x="-214.43657"
         y="36.42239"
         transform="matrix(-0.89498541,-0.44609542,0,1,0,0)" />
    </g>
    <circle
       r="76.292572"
       cy="285.86487"
       cx="-504.66473"
       id="circle3478-9-2"
       style="opacity:1;fill:#f2f2f2;fill-opacity:1;stroke:#808080;stroke-width:6.34211636;stroke-linecap:round;stroke-linejoin:round;stroke-miterlimit:4;stroke-dasharray:none;stroke-opacity:1"
       transform="matrix(0,-1,1,0,0,0)" />
    <g
       id="g4469-8-3"
       transform="matrix(1.1867733,0,0,1.1867733,56.52611,347.93234)">
      <rect
         inkscape:export-ydpi="42.240002"
         inkscape:export-xdpi="42.240002"
         inkscape:export-filename="C:\Users\wilkie\occam\logo4.png"
         transform="matrix(0.89442719,-0.4472136,0.89442719,0.4472136,0,0)"
         y="223.96214"
         x="-37.301857"
         height="29.284794"
         width="29.284794"
         id="rect4892-0-9-9"
         style="fill:#9e9e9e;fill-opacity:1;stroke:none" />
      <rect
         inkscape:export-ydpi="42.240002"
         inkscape:export-xdpi="42.240002"
         inkscape:export-filename="C:\Users\wilkie\occam\logo4.png"
         transform="matrix(0.89498541,-0.44609542,0,1,0,0)"
         y="228.89867"
         x="217.40424"
         height="28.306238"
         width="29.596689"
         id="rect4907-5-6-8"
         style="fill:#7a7a7a;fill-opacity:1;stroke:none" />
      <rect
         inkscape:export-ydpi="42.240002"
         inkscape:export-xdpi="42.240002"
         inkscape:export-filename="C:\Users\wilkie\occam\logo4.png"
         style="fill:#7a7a7a;fill-opacity:1;stroke:none"
         id="rect4938-0-1-6"
         width="29.596689"
         height="28.306238"
         x="-214.43657"
         y="36.42239"
         transform="matrix(-0.89498541,-0.44609542,0,1,0,0)" />
    </g>
    <circle
       r="76.292572"
       cy="388.65308"
       cx="-280.94931"
       id="circle3478-9-2-7"
       style="opacity:1;fill:#f2f2f2;fill-opacity:1;stroke:#808080;stroke-width:6.34211636;stroke-linecap:round;stroke-linejoin:round;stroke-miterlimit:4;stroke-dasharray:none;stroke-opacity:1"
       transform="matrix(0,-1,1,0,0,0)" />
    <g
       id="g4469-8-3-3"
       transform="matrix(1.1867733,0,0,1.1867733,159.31433,124.21686)">
      <rect
         inkscape:export-ydpi="42.240002"
         inkscape:export-xdpi="42.240002"
         inkscape:export-filename="C:\Users\wilkie\occam\logo4.png"
         transform="matrix(0.89442719,-0.4472136,0.89442719,0.4472136,0,0)"
         y="223.96214"
         x="-37.301857"
         height="29.284794"
         width="29.284794"
         id="rect4892-0-9-9-6"
         style="fill:#9e9e9e;fill-opacity:1;stroke:none" />
      <rect
         inkscape:export-ydpi="42.240002"
         inkscape:export-xdpi="42.240002"
         inkscape:export-filename="C:\Users\wilkie\occam\logo4.png"
         transform="matrix(0.89498541,-0.44609542,0,1,0,0)"
         y="228.89867"
         x="217.40424"
         height="28.306238"
         width="29.596689"
         id="rect4907-5-6-8-1"
         style="fill:#7a7a7a;fill-opacity:1;stroke:none" />
      <rect
         inkscape:export-ydpi="42.240002"
         inkscape:export-xdpi="42.240002"
         inkscape:export-filename="C:\Users\wilkie\occam\logo4.png"
         style="fill:#7a7a7a;fill-opacity:1;stroke:none"
         id="rect4938-0-1-6-2"
         width="29.596689"
         height="28.306238"
         x="-214.43657"
         y="36.42239"
         transform="matrix(-0.89498541,-0.44609542,0,1,0,0)" />
    </g>
    <g
       id="g4794"
       transform="matrix(0.76784187,0,0,0.76784187,420.62898,222.54686)">
      <text
         sodipodi:linespacing="125%"
         id="text2993"
         y="937.61292"
         x="1190.6835"
         style="font-style:normal;font-weight:normal;font-size:115.96837616px;line-height:125%;font-family:'Cinzel Decorative Bold';-inkscape-font-specification:'Cinzel Decorative Bold';letter-spacing:0px;word-spacing:0px;fill:#488e9c;fill-opacity:1;stroke:none"
         xml:space="preserve"><tspan
           y="937.61292"
           x="1190.6835"
           id="tspan2995"
           sodipodi:role="line">Occam</tspan></text>
      <rect
         transform="matrix(0.89442719,-0.4472136,0.89442719,0.4472136,0,0)"
         y="1543.1417"
         x="-379.69064"
         height="68.286621"
         width="68.286621"
         id="rect4892-09"
         style="fill:#c764d9;fill-opacity:1;stroke:none" />
      <rect
         transform="matrix(0.89498541,-0.44609542,0,1,0,0)"
         y="1445.8569"
         x="1234.6869"
         height="66.004799"
         width="69.013893"
         id="rect4907-2"
         style="fill:#9f45af;fill-opacity:1;stroke:none" />
      <rect
         style="fill:#9f45af;fill-opacity:1;stroke:none"
         id="rect4938-7"
         width="69.013893"
         height="66.004799"
         x="-1227.7668"
         y="347.75424"
         transform="matrix(-0.89498541,-0.44609542,0,1,0,0)" />
      <path
         sodipodi:nodetypes="ccccccccccccccccccccccccccccccccccccccccccccccccccccccccccccccccccccccccccccccccccccccccccccccc"
         inkscape:connector-curvature="0"
         id="rect3869-2"
         d="m 1032.6457,934.43835 -15.4912,7.71516 84.7044,42.29129 c 28.9902,-14.4108 58.9318,-29.3914 84.7653,-42.29129 l -15.471,-7.71516 -2.6597,1.3197 9.2379,4.60879 -2.3551,1.17759 -9.238,-4.60877 -3.9387,1.96936 6.1721,3.06578 -2.0709,1.03545 -6.1722,-3.08609 -4.1621,2.07096 9.2176,4.60877 -2.3551,1.17757 -9.2177,-4.60881 -3.9387,1.98971 6.1721,3.06578 -2.0709,1.03545 -6.1721,-3.08609 -4.1622,2.07096 9.2176,4.60878 -2.3551,1.17756 -9.2177,-4.60878 -3.959,1.9694 6.1924,3.08603 -2.0709,1.01521 -6.1721,-3.06578 -4.1825,2.07089 9.2379,4.60881 -2.3551,1.17753 -9.2176,-4.60876 -3.9388,1.96941 6.1518,3.06578 -2.0709,1.03539 -6.1518,-3.06572 -4.1621,2.0709 9.2175,4.60882 -2.3754,1.17757 -9.2176,-4.60881 -3.9388,1.9694 6.1721,3.06576 -2.0709,1.03549 -6.1721,-3.06579 -4.1621,2.07089 9.2176,4.60883 -2.3552,1.15724 -9.2176,-4.58848 -1.5837,0.79184 -1.6039,-0.79184 -9.1973,4.58848 -2.3755,-1.15724 9.2177,-4.60883 -4.1622,-2.07089 -6.1518,3.06579 -2.0709,-1.03549 6.1518,-3.06576 -3.9388,-1.9694 -9.2175,4.60881 -2.3552,-1.17757 9.2176,-4.60882 -4.1621,-2.0709 -6.1722,3.06572 -2.0709,-1.03539 6.1721,-3.06578 -3.9387,-1.96941 -9.2176,4.60876 -2.3552,-1.17753 9.2176,-4.60881 -4.1621,-2.07089 -6.1721,3.06578 -2.071,-1.01521 6.1721,-3.08603 -3.9387,-1.9694 -9.2176,4.60878 -2.3552,-1.17756 9.2176,-4.60878 -4.1621,-2.07096 -6.1721,3.08609 -2.071,-1.03545 6.1722,-3.06578 -3.9388,-1.98971 -9.2379,4.60881 -2.3552,-1.17757 9.2379,-4.60877 -4.1621,-2.07096 -6.1924,3.08609 -2.071,-1.03545 6.1925,-3.06578 -3.9388,-1.96936 -9.2379,4.60877 -2.3552,-1.17759 9.2379,-4.60879 z"
         style="fill:#488e9c;fill-opacity:1;stroke:none" />
    </g>
    <text
       xml:space="preserve"
       style="font-style:normal;font-weight:normal;font-size:40px;line-height:125%;font-family:'Cinzel Decorative Bold';-inkscape-font-specification:'Cinzel Decorative Bold';text-align:center;letter-spacing:0px;word-spacing:0px;text-anchor:middle;fill:#000000;fill-opacity:1;stroke:none;stroke-width:1px;stroke-linecap:butt;stroke-linejoin:miter;stroke-opacity:1"
       x="473.89587"
       y="905.68103"
       id="text4687"
       sodipodi:linespacing="125%"><tspan
         sodipodi:role="line"
         id="tspan4689"
         x="473.89587"
         y="905.68103"
         style="font-style:normal;font-variant:normal;font-weight:normal;font-stretch:normal;font-size:60px;font-family:Georgia;-inkscape-font-specification:Georgia;text-align:center;text-anchor:middle">The Ephemeral</tspan><tspan
         sodipodi:role="line"
         x="473.89587"
         y="980.68103"
         style="font-style:normal;font-variant:normal;font-weight:normal;font-stretch:normal;font-size:60px;font-family:Georgia;-inkscape-font-specification:Georgia;text-align:center;text-anchor:middle"
         id="tspan4691">Internet</tspan></text>
    <text
       xml:space="preserve"
       style="font-style:normal;font-weight:normal;font-size:40px;line-height:125%;font-family:'Cinzel Decorative Bold';-inkscape-font-specification:'Cinzel Decorative Bold';letter-spacing:0px;word-spacing:0px;fill:#3b747f;fill-opacity:1;stroke:none;stroke-width:1px;stroke-linecap:butt;stroke-linejoin:miter;stroke-opacity:1"
       x="705.84229"
       y="83.790756"
       id="text4730"
       sodipodi:linespacing="125%"><tspan
         sodipodi:role="line"
         id="tspan4732"
         x="705.84229"
         y="83.790756"
         style="font-style:normal;font-variant:normal;font-weight:normal;font-stretch:normal;font-size:90px;font-family:'Marcellus SC';-inkscape-font-specification:'Marcellus SC';fill:#3b747f;fill-opacity:1">Object Build</tspan></text>
    <rect
       style="opacity:1;fill:#cccccc;fill-opacity:1;stroke:#333333;stroke-width:9.81951427;stroke-linecap:round;stroke-linejoin:round;stroke-miterlimit:4;stroke-dasharray:none;stroke-opacity:1"
       id="rect3480"
       width="275.27969"
       height="53.170433"
       x="171.51794"
       y="-886.06897"
       ry="26.585217"
       transform="matrix(0,1,-1,0,0,0)" />
    <text
       xml:space="preserve"
       style="font-style:normal;font-weight:normal;font-size:66.45425415px;line-height:125%;font-family:'Cinzel Decorative Bold';-inkscape-font-specification:'Cinzel Decorative Bold';letter-spacing:0px;word-spacing:0px;fill:#000000;fill-opacity:1;stroke:none;stroke-width:1px;stroke-linecap:butt;stroke-linejoin:miter;stroke-opacity:1"
       x="1644.2067"
       y="427.89291"
       id="text4802"
       sodipodi:linespacing="125%"><tspan
         sodipodi:role="line"
         id="tspan4804"
         x="1644.2067"
         y="427.89291"
         style="font-style:normal;font-variant:normal;font-weight:normal;font-stretch:normal;font-family:Georgia;-inkscape-font-specification:Georgia;fill:#000000">install</tspan><tspan
         sodipodi:role="line"
         x="1644.2067"
         y="510.96072"
         id="tspan4806"
         style="font-style:normal;font-variant:normal;font-weight:normal;font-stretch:normal;font-family:Georgia;-inkscape-font-specification:Georgia;fill:#0000ff">build</tspan><tspan
         sodipodi:role="line"
         x="1644.2067"
         y="594.02856"
         id="tspan4808"
         style="font-style:normal;font-variant:normal;font-weight:normal;font-stretch:normal;font-family:Georgia;-inkscape-font-specification:Georgia;fill:#000000">run</tspan></text>
    <rect
       transform="matrix(0,1,-1,0,0,0)"
       ry="26.585217"
       y="-886.06897"
       x="548.58728"
       height="53.170433"
       width="275.27969"
       id="rect5126"
       style="opacity:1;fill:#cccccc;fill-opacity:1;stroke:#333333;stroke-width:9.81951427;stroke-linecap:round;stroke-linejoin:round;stroke-miterlimit:4;stroke-dasharray:none;stroke-opacity:1" />
    <text
       xml:space="preserve"
       style="font-style:normal;font-weight:normal;font-size:72.29434967px;line-height:125%;font-family:'Cinzel Decorative Bold';-inkscape-font-specification:'Cinzel Decorative Bold';text-align:end;letter-spacing:0px;word-spacing:0px;text-anchor:end;fill:#000000;fill-opacity:1;stroke:none;stroke-width:1px;stroke-linecap:butt;stroke-linejoin:miter;stroke-opacity:1"
       x="810.96112"
       y="237.67938"
       id="text4802-5"
       sodipodi:linespacing="125%"><tspan
         sodipodi:role="line"
         x="810.96112"
         y="237.67938"
         style="font-style:normal;font-variant:normal;font-weight:normal;font-stretch:normal;font-family:Georgia;-inkscape-font-specification:Georgia;text-align:end;text-anchor:end"
         id="tspan5159">http</tspan><tspan
         sodipodi:role="line"
         x="810.96112"
         y="328.04733"
         style="font-style:normal;font-variant:normal;font-weight:normal;font-stretch:normal;font-family:Georgia;-inkscape-font-specification:Georgia;text-align:end;text-anchor:end"
         id="tspan5217">https</tspan><tspan
         sodipodi:role="line"
         x="810.96112"
         y="418.41525"
         style="font-style:normal;font-variant:normal;font-weight:normal;font-stretch:normal;font-family:Georgia;-inkscape-font-specification:Georgia;text-align:end;text-anchor:end"
         id="tspan5219">ftp</tspan></text>
    <path
       style="fill:#ff8080;fill-rule:evenodd;stroke:#2b0000;stroke-width:15.79020882;stroke-linecap:round;stroke-linejoin:miter;stroke-miterlimit:4;stroke-dasharray:none;stroke-opacity:1"
       d="M 464.39324,664.6302 625.67896,503.34448"
       id="path5193"
       inkscape:connector-curvature="0" />
    <path
       inkscape:connector-curvature="0"
       id="path5208"
       d="M 464.39324,345.34448 625.67896,506.6302"
       style="fill:#ff8080;fill-rule:evenodd;stroke:#2b0000;stroke-width:15.79020882;stroke-linecap:round;stroke-linejoin:miter;stroke-miterlimit:4;stroke-dasharray:none;stroke-opacity:1" />
    <text
       xml:space="preserve"
       style="font-style:normal;font-weight:normal;font-size:40px;line-height:125%;font-family:'Cinzel Decorative Bold';-inkscape-font-specification:'Cinzel Decorative Bold';letter-spacing:0px;word-spacing:0px;fill:#000000;fill-opacity:1;stroke:none;stroke-width:1px;stroke-linecap:butt;stroke-linejoin:miter;stroke-opacity:1"
       x="983.95697"
       y="508.86218"
       id="text5225"
       sodipodi:linespacing="125%"><tspan
         sodipodi:role="line"
         id="tspan5227"
         x="983.95697"
         y="508.86218">proxy</tspan></text>
    <path
       sodipodi:type="star"
       style="opacity:1;fill:#ff8080;fill-opacity:1;stroke:#2b0000;stroke-width:8.35487747;stroke-linecap:round;stroke-linejoin:round;stroke-miterlimit:4;stroke-dasharray:none;stroke-opacity:1"
       id="path4284"
       sodipodi:sides="3"
       sodipodi:cx="-193.22841"
       sodipodi:cy="-359.14481"
       sodipodi:r1="18.871744"
       sodipodi:r2="9.435873"
       sodipodi:arg1="0.52359878"
       sodipodi:arg2="1.5707963"
       inkscape:flatsided="false"
       inkscape:rounded="0"
       inkscape:randomized="0"
       d="m -176.885,-349.70893 -16.34341,0 -16.34341,0 8.17171,-14.15381 8.1717,-14.15381 8.17171,14.15381 z"
       inkscape:transform-center-y="3.2618969"
       transform="matrix(0,1.7109782,-1.7109782,0,324.74257,803.47178)"
       inkscape:transform-center-x="1.4874474e-005" />
    <path
       inkscape:transform-center-x="-2.2514686e-005"
       transform="matrix(0,1.7109782,1.7109782,0,1569.8643,863.47178)"
       inkscape:transform-center-y="3.2618969"
       d="m -176.885,-349.70893 -16.34341,0 -16.34341,0 8.17171,-14.15381 8.1717,-14.15381 8.17171,14.15381 z"
       inkscape:randomized="0"
       inkscape:rounded="0"
       inkscape:flatsided="false"
       sodipodi:arg2="1.5707963"
       sodipodi:arg1="0.52359878"
       sodipodi:r2="9.435873"
       sodipodi:r1="18.871744"
       sodipodi:cy="-359.14481"
       sodipodi:cx="-193.22841"
       sodipodi:sides="3"
       id="path5260"
       style="opacity:1;fill:#ff8080;fill-opacity:1;stroke:#2b0000;stroke-width:8.35487747;stroke-linecap:round;stroke-linejoin:round;stroke-miterlimit:4;stroke-dasharray:none;stroke-opacity:1"
       sodipodi:type="star" />
    <path
       sodipodi:nodetypes="cc"
       style="fill:#ff8080;fill-rule:evenodd;stroke:#2b0000;stroke-width:15.79020882;stroke-linecap:round;stroke-linejoin:miter;stroke-miterlimit:4;stroke-dasharray:none;stroke-opacity:1"
       d="m 890.98987,472.86218 28.09246,0"
       id="path5288"
       inkscape:connector-curvature="0" />
    <path
       inkscape:connector-curvature="0"
       id="path5299"
       d="m 891.0361,476.81595 0,50.09246"
       style="fill:#ff8080;fill-rule:evenodd;stroke:#2b0000;stroke-width:15.79020882;stroke-linecap:round;stroke-linejoin:miter;stroke-miterlimit:4;stroke-dasharray:none;stroke-opacity:1"
       sodipodi:nodetypes="cc" />
    <path
       inkscape:transform-center-x="1.4874474e-005"
       transform="matrix(0,1.7109782,-1.7109782,0,548.74257,803.47178)"
       inkscape:transform-center-y="3.2618969"
       d="m -176.885,-349.70893 -16.34341,0 -16.34341,0 8.17171,-14.15381 8.1717,-14.15381 8.17171,14.15381 z"
       inkscape:randomized="0"
       inkscape:rounded="0"
       inkscape:flatsided="false"
       sodipodi:arg2="1.5707963"
       sodipodi:arg1="0.52359878"
       sodipodi:r2="9.435873"
       sodipodi:r1="18.871744"
       sodipodi:cy="-359.14481"
       sodipodi:cx="-193.22841"
       sodipodi:sides="3"
       id="path5311"
       style="opacity:1;fill:#ff8080;fill-opacity:1;stroke:#2b0000;stroke-width:8.35487747;stroke-linecap:round;stroke-linejoin:round;stroke-miterlimit:4;stroke-dasharray:none;stroke-opacity:1"
       sodipodi:type="star" />
    <path
       sodipodi:type="star"
       style="opacity:1;fill:#ff8080;fill-opacity:1;stroke:#2b0000;stroke-width:8.35487747;stroke-linecap:round;stroke-linejoin:round;stroke-miterlimit:4;stroke-dasharray:none;stroke-opacity:1"
       id="path5313"
       sodipodi:sides="3"
       sodipodi:cx="-193.22841"
       sodipodi:cy="-359.14481"
       sodipodi:r1="18.871744"
       sodipodi:r2="9.435873"
       sodipodi:arg1="0.52359878"
       sodipodi:arg2="1.5707963"
       inkscape:flatsided="false"
       inkscape:rounded="0"
       inkscape:randomized="0"
       d="m -176.885,-349.70893 -16.34341,0 -16.34341,0 8.17171,-14.15381 8.1717,-14.15381 8.17171,14.15381 z"
       inkscape:transform-center-y="3.2618969"
       transform="matrix(0,1.7109782,1.7109782,0,1793.8643,863.47178)"
       inkscape:transform-center-x="-2.2514686e-005" />
    <ellipse
       style="opacity:1;fill:#aa0088;fill-opacity:1;stroke:#aa0088;stroke-width:5;stroke-linecap:round;stroke-linejoin:round;stroke-miterlimit:4;stroke-dasharray:none;stroke-opacity:1"
       id="path5326"
       cx="1058.2279"
       cy="683.36218"
       rx="75"
       ry="29" />
    <path
       id="ellipse5348"
       style="opacity:1;fill:#782167;fill-opacity:1;stroke:#782167;stroke-width:5;stroke-linecap:round;stroke-linejoin:round;stroke-miterlimit:4;stroke-dasharray:none;stroke-opacity:1"
       d="m 1133.2279,755.36218 c 0,16.01626 -33.5786,29 -75,29 -41.4214,0 -74.99999,-12.98374 -74.99999,-29 l 0,-60 c 0,16.01626 33.57859,29 74.99999,29 41.4214,0 75,-12.98374 75,-29 z"
       inkscape:connector-curvature="0"
       sodipodi:nodetypes="csccscc" />
    <path
       sodipodi:nodetypes="csccscc"
       inkscape:connector-curvature="0"
       d="m 1133.2279,827.36218 c 0,16.01626 -33.5786,29 -75,29 -41.4214,0 -74.99999,-12.98374 -74.99999,-29 l 0,-60 c 0,16.01626 33.57859,29 74.99999,29 41.4214,0 75,-12.98374 75,-29 z"
       style="opacity:1;fill:#782167;fill-opacity:1;stroke:#782167;stroke-width:5;stroke-linecap:round;stroke-linejoin:round;stroke-miterlimit:4;stroke-dasharray:none;stroke-opacity:1"
       id="path5362" />
    <g
       id="g5378"
       transform="matrix(0,-1,1,0,555.36572,1782.1657)">
      <path
         inkscape:transform-center-x="1.4874474e-005"
         transform="matrix(0,1.7109782,-1.7109782,0,548.74257,803.47178)"
         inkscape:transform-center-y="3.2618969"
         d="m -176.885,-349.70893 -16.34341,0 -16.34341,0 8.17171,-14.15381 8.1717,-14.15381 8.17171,14.15381 z"
         inkscape:randomized="0"
         inkscape:rounded="0"
         inkscape:flatsided="false"
         sodipodi:arg2="1.5707963"
         sodipodi:arg1="0.52359878"
         sodipodi:r2="9.435873"
         sodipodi:r1="18.871744"
         sodipodi:cy="-359.14481"
         sodipodi:cx="-193.22841"
         sodipodi:sides="3"
         id="path5374"
         style="opacity:1;fill:#ff8080;fill-opacity:1;stroke:#2b0000;stroke-width:8.35487747;stroke-linecap:round;stroke-linejoin:round;stroke-miterlimit:4;stroke-dasharray:none;stroke-opacity:1"
         sodipodi:type="star" />
      <path
         sodipodi:type="star"
         style="opacity:1;fill:#ff8080;fill-opacity:1;stroke:#2b0000;stroke-width:8.35487747;stroke-linecap:round;stroke-linejoin:round;stroke-miterlimit:4;stroke-dasharray:none;stroke-opacity:1"
         id="path5376"
         sodipodi:sides="3"
         sodipodi:cx="-193.22841"
         sodipodi:cy="-359.14481"
         sodipodi:r1="18.871744"
         sodipodi:r2="9.435873"
         sodipodi:arg1="0.52359878"
         sodipodi:arg2="1.5707963"
         inkscape:flatsided="false"
         inkscape:rounded="0"
         inkscape:randomized="0"
         d="m -176.885,-349.70893 -16.34341,0 -16.34341,0 8.17171,-14.15381 8.1717,-14.15381 8.17171,14.15381 z"
         inkscape:transform-center-y="3.2618969"
         transform="matrix(0,1.7109782,1.7109782,0,1793.8643,863.47178)"
         inkscape:transform-center-x="-2.2514686e-005" />
    </g>
    <circle
       transform="scale(-1,-1)"
       style="opacity:1;fill:#f4d7e3;fill-opacity:1;stroke:#660080;stroke-width:2.31946015;stroke-linecap:round;stroke-linejoin:round;stroke-miterlimit:4;stroke-dasharray:none;stroke-opacity:1"
       id="circle5428"
       cx="-1136.7581"
       cy="-882.8689"
       r="27.901978" />
    <g
       id="g5503">
      <rect
         style="fill:#c764d9;fill-opacity:1;stroke:none"
         id="rect5432"
         width="12.710501"
         height="12.710501"
         x="-350.6012"
         y="1608.7771"
         transform="matrix(0.89442719,-0.4472136,0.89442719,0.4472136,0,0)"
         inkscape:export-filename="C:\Users\wilkie\occam\logo4.png"
         inkscape:export-xdpi="42.240002"
         inkscape:export-ydpi="42.240002" />
      <rect
         style="fill:#9f45af;fill-opacity:1;stroke:none"
         id="rect5434"
         width="12.845873"
         height="12.285777"
         x="1270.7855"
         y="1449.6952"
         transform="matrix(0.8949854,-0.44609543,0,1,0,0)"
         inkscape:export-filename="C:\Users\wilkie\occam\logo4.png"
         inkscape:export-xdpi="42.240002"
         inkscape:export-ydpi="42.240002" />
      <rect
         transform="matrix(-0.8949854,-0.44609543,0,1,0,0)"
         y="316.55856"
         x="-1269.4976"
         height="12.285777"
         width="12.845873"
         id="rect5436"
         style="fill:#9f45af;fill-opacity:1;stroke:none"
         inkscape:export-filename="C:\Users\wilkie\occam\logo4.png"
         inkscape:export-xdpi="42.240002"
         inkscape:export-ydpi="42.240002" />
    </g>
    <circle
       transform="scale(-1,-1)"
       style="opacity:1;fill:#f4d7e3;fill-opacity:1;stroke:#660080;stroke-width:2.31946015;stroke-linecap:round;stroke-linejoin:round;stroke-miterlimit:4;stroke-dasharray:none;stroke-opacity:1"
       id="circle5438"
       cx="-1054.9401"
       cy="-920.46088"
       r="27.901978" />
    <g
       id="g5508">
      <rect
         style="fill:#c764d9;fill-opacity:1;stroke:none"
         id="rect5442"
         width="12.710501"
         height="12.710501"
         x="-438.36804"
         y="1605.0686"
         transform="matrix(0.89442719,-0.4472136,0.89442719,0.4472136,0,0)"
         inkscape:export-filename="C:\Users\wilkie\occam\logo4.png"
         inkscape:export-xdpi="42.240002"
         inkscape:export-ydpi="42.240002" />
      <rect
         style="fill:#9f45af;fill-opacity:1;stroke:none"
         id="rect5444"
         width="12.845873"
         height="12.285777"
         x="1179.3672"
         y="1446.5059"
         transform="matrix(0.8949854,-0.44609543,0,1,0,0)"
         inkscape:export-filename="C:\Users\wilkie\occam\logo4.png"
         inkscape:export-xdpi="42.240002"
         inkscape:export-ydpi="42.240002" />
      <rect
         transform="matrix(-0.8949854,-0.44609543,0,1,0,0)"
         y="394.93188"
         x="-1178.0792"
         height="12.285777"
         width="12.845873"
         id="rect5446"
         style="fill:#9f45af;fill-opacity:1;stroke:none"
         inkscape:export-filename="C:\Users\wilkie\occam\logo4.png"
         inkscape:export-xdpi="42.240002"
         inkscape:export-ydpi="42.240002" />
    </g>
    <circle
       transform="scale(-1,-1)"
       style="opacity:1;fill:#f4d7e3;fill-opacity:1;stroke:#660080;stroke-width:2.31946015;stroke-linecap:round;stroke-linejoin:round;stroke-miterlimit:4;stroke-dasharray:none;stroke-opacity:1"
       id="circle5448"
       cx="-973.12213"
       cy="-882.86884"
       r="27.901978" />
    <g
       id="g5513">
      <rect
         style="fill:#c764d9;fill-opacity:1;stroke:none"
         id="rect5452"
         width="12.710501"
         height="12.710501"
         x="-442.07654"
         y="1517.3018"
         transform="matrix(0.89442719,-0.4472136,0.89442719,0.4472136,0,0)"
         inkscape:export-filename="C:\Users\wilkie\occam\logo4.png"
         inkscape:export-xdpi="42.240002"
         inkscape:export-ydpi="42.240002" />
      <rect
         style="fill:#9f45af;fill-opacity:1;stroke:none"
         id="rect5454"
         width="12.845873"
         height="12.285777"
         x="1087.949"
         y="1368.1327"
         transform="matrix(0.8949854,-0.44609543,0,1,0,0)"
         inkscape:export-filename="C:\Users\wilkie\occam\logo4.png"
         inkscape:export-xdpi="42.240002"
         inkscape:export-ydpi="42.240002" />
      <rect
         transform="matrix(-0.8949854,-0.44609543,0,1,0,0)"
         y="398.12112"
         x="-1086.6609"
         height="12.285777"
         width="12.845873"
         id="rect5456"
         style="fill:#9f45af;fill-opacity:1;stroke:none"
         inkscape:export-filename="C:\Users\wilkie\occam\logo4.png"
         inkscape:export-xdpi="42.240002"
         inkscape:export-ydpi="42.240002" />
    </g>
    <text
       xml:space="preserve"
       style="font-style:normal;font-weight:normal;font-size:53.72881699px;line-height:125%;font-family:'Cinzel Decorative Bold';-inkscape-font-specification:'Cinzel Decorative Bold';text-align:center;letter-spacing:0px;word-spacing:0px;text-anchor:middle;fill:#000000;fill-opacity:1;stroke:none;stroke-width:1px;stroke-linecap:butt;stroke-linejoin:miter;stroke-opacity:1"
       x="1382.9227"
       y="187.37173"
       id="text4802-6"
       sodipodi:linespacing="125%"><tspan
         sodipodi:role="line"
         x="1382.9227"
         y="187.37173"
         id="tspan4808-2"
         style="font-style:normal;font-variant:normal;font-weight:normal;font-stretch:normal;font-family:Georgia;-inkscape-font-specification:Georgia;text-align:center;text-anchor:middle;fill:#000000">proxy caches requests and can</tspan><tspan
         sodipodi:role="line"
         x="1382.9227"
         y="254.53276"
         style="font-style:normal;font-variant:normal;font-weight:normal;font-stretch:normal;font-family:Georgia;-inkscape-font-specification:Georgia;text-align:center;text-anchor:middle;fill:#000000"
         id="tspan5553">repeat them</tspan></text>
  </g>
</svg>
